// EVENT 2082
Name "Seduction: Frederica"

If(0,25,1)
 EndEventProcessing()
 0()
EndIf()
355("$game_troop.lose_event_id = 3082")
ChangeVariable(26,26,0,3,3,1,4)
ChangeVariable(26,26,4,0,10)
ShowMessageFace("frederika_fc1",0,0,2,1)
ShowMessage("\\n<Frederica>Am I being pushed a little?\nMy body is heavy...")
ShowMessageFace("chrom_fc1",1,0,2,2)
ShowMessage("\\n<Chrome>All right, Frederica!\nRape that guy!")
ShowMessageFace("frederika_fc1",1,0,2,3)
ShowMessage("\\n<Frederica>Understood.")
ShowMessageFace("",0,0,2,4)
ShowMessage("Frederica bends over Luka!")
ShowMessageFace("chrom_fc1",1,0,2,5)
ShowMessage("\\n<Chrome>Rejoice. Her pussy is a masterpiece I've created.\nNo ordinary man can be inside her without leaking in seconds.")
ChangeSwitch(98,98,0)
ChangeSwitch(96,96,0)
ShowChoices(strings("Struggle","Let her continue"),1)
IfPlayerPicksChoice(0,"もがく")
 ShowMessageFace("",0,0,2,6)
 ShowMessage("Luka struggles and breaks free!")
 RunCommonEvent(1999)
 EndEventProcessing()
 0()
IfPlayerPicksChoice(1,"なすがまま")
 0()
404()
ShowMessageFace("chrom_fc1",1,0,2,7)
ShowMessage("\\n<Chrome>Go, rape him!")
ShowMessageFace("frederika_fc1",1,0,2,8)
ShowMessage("\\n<Frederica>Understood, Chrome...")
ChangeVariable(26,26,3,0,2)
250(bytes(0x04,0x08,0x6f,0x3a,0x0c,0x52,0x50,0x47,0x3a,0x3a,0x53,0x45,0x08,0x3a,0x0a,0x40,0x6e,0x61,0x6d,0x65,0x49,0x22,0x11,0x6d,0x6f,0x6e,0x5f,0x65,0x72,0x6f,0x5f,0x70,0x79,0x75,0x31,0x06,0x3a,0x06,0x45,0x54,0x3a,0x0b,0x40,0x70,0x69,0x74,0x63,0x68,0x69,0x69,0x3a,0x0c,0x40,0x76,0x6f,0x6c,0x75,0x6d,0x65,0x69,0x69))
355("battler_graphic_hide")
PictureDisplay(5,"ev_frederika_hc1",0,0,0,0,100,100,255,0)
311(0,1,1,1,26,true)
ShowMessageFace("",0,0,2,9)
ShowMessage("Frederica drops down and forces Luka inside her!")
ShowMessage("His penis is taken deep inside her wet vagina!\\D")
ShowMessage("Luka takes \\V[26] damage!")
ChangeVariable(27,27,0,3,3,1,2)
If(1,27,0,0,0)
 JumpToLabel("射精1")
 0()
EndIf()
ShowMessageFace("",0,0,2,10)
ShowMessage("\\n<Luka>Hyaaa...!")
ShowMessageFace("",0,0,2,11)
ShowMessage("Despite being a corpse, she's surprisingly warm.")
ShowMessage("Her vagina is tight, and feels amazing...")
ShowMessageFace("chrom_fc1",1,0,2,12)
ShowMessage("\\n<Chrome>Well, amazing, huh?\nI put a lot of effort into that masterpiece to captivate men.")
ShowMessageFace("chrom_fc1",1,0,2,13)
ShowMessage("\\n<Chrome>Frederica, tighten inside!")
ShowMessageFace("frederika_fc1",1,0,2,14)
ShowMessage("\\n<Frederica>......")
250(bytes(0x04,0x08,0x6f,0x3a,0x0c,0x52,0x50,0x47,0x3a,0x3a,0x53,0x45,0x08,0x3a,0x0a,0x40,0x6e,0x61,0x6d,0x65,0x49,0x22,0x13,0x6d,0x6f,0x6e,0x5f,0x65,0x72,0x6f,0x5f,0x63,0x68,0x75,0x70,0x61,0x35,0x06,0x3a,0x06,0x45,0x54,0x3a,0x0b,0x40,0x70,0x69,0x74,0x63,0x68,0x69,0x69,0x3a,0x0c,0x40,0x76,0x6f,0x6c,0x75,0x6d,0x65,0x69,0x69))
311(0,1,1,1,26,true)
ShowMessageFace("",0,0,2,15)
ShowMessage("Frederica tightens around Luka's penis!\\D")
ShowMessage("Luka takes \\V[26] damage!")
ChangeVariable(27,27,0,3,3,1,2)
If(1,27,0,0,0)
 JumpToLabel("射精2")
 0()
EndIf()
ShowMessageFace("chrom_fc1",1,0,2,16)
ShowMessage("\\n<Chrome>Trying to endure, are you?\nFrederica, move that waist of yours!")
ShowMessageFace("frederika_fc1",1,0,2,17)
ShowMessage("\\n<Frederica>......")
250(bytes(0x04,0x08,0x6f,0x3a,0x0c,0x52,0x50,0x47,0x3a,0x3a,0x53,0x45,0x08,0x3a,0x0a,0x40,0x6e,0x61,0x6d,0x65,0x49,0x22,0x13,0x6d,0x6f,0x6e,0x5f,0x65,0x72,0x6f,0x5f,0x63,0x68,0x75,0x70,0x61,0x33,0x06,0x3a,0x06,0x45,0x54,0x3a,0x0b,0x40,0x70,0x69,0x74,0x63,0x68,0x69,0x69,0x3a,0x0c,0x40,0x76,0x6f,0x6c,0x75,0x6d,0x65,0x69,0x69))
311(0,1,1,1,26,true)
ShowMessageFace("",0,0,2,18)
ShowMessage("Frederica moves her waist, tossing Luka's penis around inside her!\\D")
ShowMessage("Luka takes \\V[26] damage!")
ChangeVariable(27,27,0,3,3,1,2)
If(1,27,0,0,0)
 JumpToLabel("射精2")
 0()
EndIf()
250(bytes(0x04,0x08,0x6f,0x3a,0x0c,0x52,0x50,0x47,0x3a,0x3a,0x53,0x45,0x08,0x3a,0x0a,0x40,0x6e,0x61,0x6d,0x65,0x49,0x22,0x13,0x6d,0x6f,0x6e,0x5f,0x65,0x72,0x6f,0x5f,0x63,0x68,0x75,0x70,0x61,0x33,0x06,0x3a,0x06,0x45,0x54,0x3a,0x0b,0x40,0x70,0x69,0x74,0x63,0x68,0x69,0x69,0x3a,0x0c,0x40,0x76,0x6f,0x6c,0x75,0x6d,0x65,0x69,0x69))
311(0,1,1,1,26,true)
ShowMessageFace("",0,0,2,19)
ShowMessage("Her waist moves faster and faster!\\D")
ShowMessage("Luka takes \\V[26] damage!")
ChangeVariable(27,27,0,3,3,1,2)
If(1,27,0,0,0)
 JumpToLabel("射精2")
 0()
EndIf()
ShowMessageFace("",0,0,2,20)
ShowMessage("\\n<Luka>Unnngh...I-I'm going to come...")
ShowMessageFace("chrom_fc1",1,0,2,21)
ShowMessage("\\n<Chrome>Fufu, already at your limit?\nThen, let your seed out in the masterpiece pussy.")
ShowMessageFace("chrom_fc1",1,0,2,22)
ShowMessage("\\n<Chrome>Go, Frederica! Finish him off!")
ShowMessageFace("frederika_fc1",1,0,2,23)
ShowMessage("\\n<Frederica>Understood...")
250(bytes(0x04,0x08,0x6f,0x3a,0x0c,0x52,0x50,0x47,0x3a,0x3a,0x53,0x45,0x08,0x3a,0x0a,0x40,0x6e,0x61,0x6d,0x65,0x49,0x22,0x16,0x6d,0x6f,0x6e,0x5f,0x65,0x72,0x6f,0x5f,0x6d,0x61,0x6b,0x69,0x74,0x75,0x6b,0x69,0x32,0x06,0x3a,0x06,0x45,0x54,0x3a,0x0b,0x40,0x70,0x69,0x74,0x63,0x68,0x69,0x69,0x3a,0x0c,0x40,0x76,0x6f,0x6c,0x75,0x6d,0x65,0x69,0x69))
311(0,1,1,1,26,true)
ShowMessageFace("",0,0,2,24)
ShowMessage("Frederica's vagina shrinks, squeezing Luka's penis!")
ShowMessage("As her walls tighten, he can feel her flesh moving on its own!\\D")
ShowMessage("Luka takes \\V[26] damage!")
ChangeVariable(27,27,0,3,3,1,2)
If(1,27,0,0,0)
 JumpToLabel("射精2")
 0()
EndIf()
DefineLabel("射精1")
ShowMessageFace("",0,0,2,25)
ShowMessage("\\n<Luka>Oh no, I'm coming... Aaah...")
RunCommonEvent(104)
PictureDisplay(5,"ev_frederika_hc2",0,0,0,0,100,100,255,0)
RunCommonEvent(105)
ShowMessageFace("",0,0,2,26)
ShowMessage("The moment I'm forced inside Frederica, I come.")
ShowMessage("It felt too good, I climaxed in an instant.")
ShowMessageFace("chrom_fc1",1,0,2,27)
ShowMessage("\\n<Chrome>Finished at insertion?\nThat's just pathetic! Fufufu.")
RunCommonEvent(2000)
EndEventProcessing()
DefineLabel("射精2")
ShowMessageFace("",0,0,2,28)
ShowMessage("\\n<Luka>Aaah...I'm coming...")
RunCommonEvent(104)
PictureDisplay(5,"ev_frederika_hc2",0,0,0,0,100,100,255,0)
RunCommonEvent(105)
ShowMessageFace("",0,0,2,29)
ShowMessage("Violently raped by Frederica, I finally come.")
ShowMessage("My semen pours into her masterpiece pussy.")
ShowMessageFace("chrom_fc1",1,0,2,30)
ShowMessage("\\n<Chrome>Fufufu, your semen is gushing into her.\nDo you now realize the power of my masterpiece?")
RunCommonEvent(2000)
EndEventProcessing()
0()
