// EVENT 4692
Name "Valto 2"

If(0,25,1)
 221()
 PictureClear(5)
 PictureClear(6)
 ShowMessageFace("",0,0,2,0)
 ShowMessage("......")
 242(2)
 Wait(120)
 241(bytes(0x04,0x08,0x6f,0x3a,0x0d,0x52,0x50,0x47,0x3a,0x3a,0x42,0x47,0x4d,0x08,0x3a,0x0a,0x40,0x6e,0x61,0x6d,0x65,0x49,0x22,0x0c,0x63,0x61,0x73,0x74,0x6c,0x65,0x36,0x06,0x3a,0x06,0x45,0x54,0x3a,0x0c,0x40,0x76,0x6f,0x6c,0x75,0x6d,0x65,0x69,0x69,0x3a,0x0b,0x40,0x70,0x69,0x74,0x63,0x68,0x69,0x69))
 EndEventProcessing()
 0()
EndIf()
PictureDisplay(5,"80_valt_st01",0,0,0,0,100,100,0,0)
ShowMessageFace("valt_fc1",0,0,2,1)
ShowMessage("\\n<Valto>Sexual treatment...you're asking me for it...?")
ShowMessageFace("",0,0,2,2)
ShowMessage("\\n<Luka>P-please...")
ShowMessageFace("valt_fc1",0,0,2,3)
ShowMessage("\\n<Valto>Agreed, then...\nThen I will make you forcibly discharge your semen using my oral unit.")
ShowMessageFace("valt_fc1",0,0,2,4)
ShowMessage("\\n<Valto>You will climax, ejaculate, over and over until your semen is depleted.\nUntil the depletion of the whole of your testicular contents...the act will continue.")
ShowMessageFace("",0,0,2,5)
ShowMessage("\\n<Luka>That's...Until...")
ShowMessageFace("valt_fc1",0,0,2,6)
ShowMessage("\\n<Valto>That is what you wanted... Are you ready?")
PictureDisplay(5,"ev_valt_hb01",0,0,0,0,100,100,0,0)
PictureMove(5,null,0,0,0,0,100,100,255,0,30,true)
241(bytes(0x04,0x08,0x6f,0x3a,0x0d,0x52,0x50,0x47,0x3a,0x3a,0x42,0x47,0x4d,0x08,0x3a,0x0a,0x40,0x6e,0x61,0x6d,0x65,0x49,0x22,0x09,0x65,0x72,0x6f,0x31,0x06,0x3a,0x06,0x45,0x54,0x3a,0x0c,0x40,0x76,0x6f,0x6c,0x75,0x6d,0x65,0x69,0x69,0x3a,0x0b,0x40,0x70,0x69,0x74,0x63,0x68,0x69,0x69))
ShowMessageFace("",0,0,2,7)
ShowMessage("Valto's tongue stretches out, winds around my penis and squeezes it.")
ShowMessage("My glans slides inside her mouth...")
ShowMessageFace("",0,0,2,8)
ShowMessage("\\n<Luka>Ah... Aaah!")
ShowMessageFace("",0,0,2,9)
ShowMessage("To my surprise, this machine has a slimy wet tongue like a living being's.")
ShowMessage("It feels like a tentacle.")
ShowMessageFace("",0,0,2,10)
ShowMessage("And the feeling of her lips on my glans, they perfectly wrap around it.")
ShowMessage("It feels so alive, my waist starts trembling...")
PictureDisplay(5,"ev_valt_hb02",0,0,0,0,100,100,255,0)
245(bytes(0x04,0x08,0x6f,0x3a,0x0d,0x52,0x50,0x47,0x3a,0x3a,0x42,0x47,0x53,0x08,0x3a,0x0a,0x40,0x6e,0x61,0x6d,0x65,0x49,0x22,0x10,0x6d,0x6f,0x6e,0x5f,0x68,0x76,0x6f,0x69,0x63,0x65,0x39,0x06,0x3a,0x06,0x45,0x54,0x3a,0x0c,0x40,0x76,0x6f,0x6c,0x75,0x6d,0x65,0x69,0x55,0x3a,0x0b,0x40,0x70,0x69,0x74,0x63,0x68,0x69,0x69))
ShowMessageFace("valt_fc1",0,0,2,11)
ShowMessage("\\n<Valto>*Suck*...*Shhhhlurp*...")
ShowMessageFace("",0,0,2,12)
ShowMessage("Her tongue carefully crawls over my penis and licks it.")
ShowMessage("It felt like a slimy tentacle was rubbing all over my penis...")
ShowMessageFace("",0,0,2,13)
ShowMessage("\\n<Luka>Ngh... Aaaah...!")
ShowMessageFace("valt_fc1",0,0,2,14)
ShowMessage("\\n<Valto>Reaction confirmed...Are you enjoying it?\nTaste it thoroughly...and come...")
ShowMessageFace("",0,0,2,15)
ShowMessage("My glans caught in her mouth is wrapped by her slimy inner membrane.")
ShowMessage("Multiple tongues crawl all over it, making their way to my shaft...")
ShowMessageFace("",0,0,2,16)
ShowMessage("\\n<Luka>Unnngh...That feels good...")
ShowMessageFace("valt_fc1",0,0,2,17)
ShowMessage("\\n<Valto>When the pleasure nerves are overly stimulated, the pleasure becomes pain.\nUp to that point...It will feel good.")
ShowMessageFace("",0,0,2,18)
ShowMessage("\\n<Luka>Nnngh... Ah, aaah...")
ShowMessageFace("",0,0,2,19)
ShowMessage("I immediately moan after feeling her tongue clinging to my penis.")
ShowMessage("I can't control the feeling rising up from my waist and surrender in a heartbeat...")
RunCommonEvent(104)
PictureDisplay(5,"ev_valt_hb04",0,0,0,0,100,100,255,0)
RunCommonEvent(105)
ShowMessageFace("",0,0,2,20)
ShowMessage("\\n<Luka>Ah... Aaah...")
ShowMessageFace("",0,0,2,21)
ShowMessage("While tasting the slimy feeling of her tongue, my meat rod shoots out my semen.")
ShowMessage("Her mouth starts sucking and pulls all my semen inside...")
ShowMessageFace("valt_fc1",0,0,2,22)
ShowMessage("\\n<Valto>...An early release?\nYou have immature sexual functions...")
ShowMessageFace("valt_fc1",0,0,2,23)
ShowMessage("\\n<Valto>Once you ejaculate, the urethra widens.\nNow is when the real oral function begins.")
ShowMessageFace("",0,0,2,24)
ShowMessage("\\n<Luka>Eh...? Ah, aaaah...!!")
PictureDisplay(5,"ev_valt_hb10",0,0,0,0,100,100,255,0)
ShowMessageFace("",0,0,2,25)
ShowMessage("I hear a vacuum-like sound and I feel the sucking intensify tenfold.")
ShowMessage("Her tongue entwines and slurps my penis.")
ShowMessageFace("",0,0,2,26)
ShowMessage("The stimulation of the tongue wrapping my penis also becomes more intense.")
ShowMessage("I instinctively writhe around as the pleasure attacks me...")
ShowMessageFace("",0,0,2,27)
ShowMessage("\\n<Luka>Ah... Aaaah!!")
ShowMessageFace("valt_fc1",0,0,2,28)
ShowMessage("\\n<Valto>The stimulation that follows the ejaculation will be painful...\nToo pleasant...too painful...")
ShowMessageFace("valt_fc1",0,0,2,29)
ShowMessage("\\n<Valto>Pleasure applied to your nerves will be drastically increased...\nAlong with a pain that will torture your brain...enough, now come...")
ShowMessageFace("",0,0,2,30)
ShowMessage("\\n<Luka>S...Stop...Aaaah!!")
ShowMessageFace("",0,0,2,31)
ShowMessage("An intense vacuum sensation is applied to my penis.")
ShowMessage("Her tongue continuously entwines around my penis.")
ShowMessageFace("",0,0,2,32)
ShowMessage("This crazy stimulation makes me yell out...")
ShowMessageFace("valt_fc1",0,0,2,33)
ShowMessage("\\n<Valto>However, the pleasure gradually returns...\nFrom irritating it turns to painful...then a sweet feeling of release...")
ShowMessageFace("",0,0,2,34)
ShowMessage("\\n<Luka>Ngh...Unnngh...")
ShowMessageFace("",0,0,2,35)
ShowMessage("While she talks to me calmly, her mouth acts like an entirely different being.")
ShowMessage("At the mercy of her mouth stimulating me, I'm quickly driven into a corner...")
ShowMessageFace("valt_fc1",0,0,2,36)
ShowMessage("\\n<Valto>You're about to ejaculate...\nHora, finish...")
ShowMessageFace("",0,0,2,37)
ShowMessage("\\n<Luka>Ah... Aaah...")
RunCommonEvent(104)
PictureDisplay(5,"ev_valt_hb11",0,0,0,0,100,100,255,0)
RunCommonEvent(105)
ShowMessageFace("",0,0,2,38)
ShowMessage("A stream of semen is forced out of my penis.")
ShowMessage("Her lips tighten around my glans and suck up all the semen until the last drop.")
ShowMessageFace("",0,0,2,39)
ShowMessage("My waist starts trembling as I feel this suction.")
ShowMessage("This stimulation runs sharply through my entire body.")
ShowMessageFace("",0,0,2,40)
ShowMessage("\\n<Luka>Hya... Aaaah...!!")
ShowMessageFace("valt_fc1",0,0,2,41)
ShowMessage("\\n<Valto>Still, there's more to come...\nI'll thoroughly stimulate your penis and squeeze it...")
ShowMessageFace("valt_fc1",0,0,2,42)
ShowMessage("\\n<Valto>I'll make my head unit even more efficient for semen extraction...\nI will squeeze out your semen just before your brain fries.")
PictureDisplay(5,"ev_valt_hb12",0,0,0,0,100,100,255,0)
ShowMessageFace("",0,0,2,43)
ShowMessage("\\n<Luka>Ugh...Ah, aaaaaah!!")
ShowMessageFace("",0,0,2,44)
ShowMessage("Her jaw deforms and winds around my penis and squeezes it.")
ShowMessage("It looks like a meat hole that swallowed my penis to the root.")
ShowMessageFace("",0,0,2,45)
ShowMessage("Once it gains form, it starts a piston movement...")
ShowMessage("I feel like I'm going mad from the suction and friction stimulation.")
ShowMessageFace("valt_fc1",0,0,2,46)
ShowMessage("\\n<Valto>Are you feeling pain again?\nDon't worry, it will turn into pleasure soon enough...")
ShowMessageFace("valt_fc1",0,0,2,47)
ShowMessage("\\n<Valto>Come, shoot out a lot...\nMale extract...")
ShowMessageFace("",0,0,2,48)
ShowMessage("\\n<Luka>Hyaaaa!!")
RunCommonEvent(104)
PictureDisplay(5,"ev_valt_hb13",0,0,0,0,100,100,255,0)
RunCommonEvent(105)
ShowMessageFace("",0,0,2,49)
ShowMessage("I shoot out a lot more semen this time.")
ShowMessage("But even so Valto continues the intense sucking...")
ShowMessageFace("",0,0,2,50)
ShowMessage("\\n<Luka>Ahii... Aaaaaah!!")
PictureDisplay(5,"ev_valt_hb14",0,0,0,0,100,100,255,0)
ShowMessageFace("valt_fc1",0,0,2,51)
ShowMessage("\\n<Valto>Taste pleasure and pain alternatively...\nWrithe in agony...until your semen is depleted...")
ShowMessageFace("",0,0,2,52)
ShowMessage("She keeps sucking on my meat rod....")
ShowMessage("Thoroughly rubbing it with her violent piston movement...")
RunCommonEvent(104)
PictureDisplay(5,"ev_valt_hb15",0,0,0,0,100,100,255,0)
RunCommonEvent(105)
ShowMessageFace("",0,0,2,53)
ShowMessage("A lot of semen is sucked out of me again.")
ShowMessage("But the sucking doesn't stop just yet.")
ShowMessageFace("",0,0,2,54)
ShowMessage("My sperm is squeezed out continuously...")
ShowMessage("My consciousness starts fading as I go crazy from the pleasure...")
ShowMessageFace("",0,0,2,55)
ShowMessage("\\n<Luka>Ah... Aaah...")
221()
PictureClear(5)
246(2)
ShowMessageFace("",0,0,2,56)
ShowMessage("At last, my consciousness fades...")
ShowMessage("As I was drained of semen by Valto's mouth...")
ShowMessageFace("valt_fc1",0,0,2,57)
ShowMessage("\\n<Valto>That was beyond the limit...but your life is not in danger..\nCome to me again, I will drive you to the limit as many times as you wish...")
ShowMessageFace("",0,0,2,58)
ShowMessage("\\n<Luka>......")
ShowMessageFace("",0,0,2,59)
ShowMessage("The mistake of asking her for pleasure forced me to lose consciousness.")
ShowMessage("I lost consciousness while tasting the extremes of pleasure and pain...")
ShowMessageFace("",0,0,2,60)
ShowMessage("......")
242(2)
Wait(120)
241(bytes(0x04,0x08,0x6f,0x3a,0x0d,0x52,0x50,0x47,0x3a,0x3a,0x42,0x47,0x4d,0x08,0x3a,0x0a,0x40,0x6e,0x61,0x6d,0x65,0x49,0x22,0x0c,0x63,0x61,0x73,0x74,0x6c,0x65,0x36,0x06,0x3a,0x06,0x45,0x54,0x3a,0x0c,0x40,0x76,0x6f,0x6c,0x75,0x6d,0x65,0x69,0x69,0x3a,0x0b,0x40,0x70,0x69,0x74,0x63,0x68,0x69,0x69))
0()
