﻿// EVENT 0504
Name "コラボC2：妖狐に追われる白念"

205(-1,bytes(0x04,0x08,0x6f,0x3a,0x13,0x52,0x50,0x47,0x3a,0x3a,0x4d,0x6f,0x76,0x65,0x52,0x6f,0x75,0x74,0x65,0x09,0x3a,0x0c,0x40,0x72,0x65,0x70,0x65,0x61,0x74,0x46,0x3a,0x0f,0x40,0x73,0x6b,0x69,0x70,0x70,0x61,0x62,0x6c,0x65,0x46,0x3a,0x0a,0x40,0x77,0x61,0x69,0x74,0x46,0x3a,0x0a,0x40,0x6c,0x69,0x73,0x74,0x5b,0x09,0x6f,0x3a,0x15,0x52,0x50,0x47,0x3a,0x3a,0x4d,0x6f,0x76,0x65,0x43,0x6f,0x6d,0x6d,0x61,0x6e,0x64,0x07,0x3a,0x0a,0x40,0x63,0x6f,0x64,0x65,0x69,0x09,0x3a,0x10,0x40,0x70,0x61,0x72,0x61,0x6d,0x65,0x74,0x65,0x72,0x73,0x5b,0x00,0x6f,0x3b,0x0a,0x07,0x3b,0x0b,0x69,0x09,0x3b,0x0c,0x5b,0x00,0x6f,0x3b,0x0a,0x07,0x3b,0x0b,0x69,0x17,0x3b,0x0c,0x5b,0x00,0x6f,0x3b,0x0a,0x07,0x3b,0x0b,0x69,0x00,0x3b,0x0c,0x5b,0x00))
205(16,bytes(0x04,0x08,0x6f,0x3a,0x13,0x52,0x50,0x47,0x3a,0x3a,0x4d,0x6f,0x76,0x65,0x52,0x6f,0x75,0x74,0x65,0x09,0x3a,0x0c,0x40,0x72,0x65,0x70,0x65,0x61,0x74,0x46,0x3a,0x0f,0x40,0x73,0x6b,0x69,0x70,0x70,0x61,0x62,0x6c,0x65,0x46,0x3a,0x0a,0x40,0x77,0x61,0x69,0x74,0x46,0x3a,0x0a,0x40,0x6c,0x69,0x73,0x74,0x5b,0x09,0x6f,0x3a,0x15,0x52,0x50,0x47,0x3a,0x3a,0x4d,0x6f,0x76,0x65,0x43,0x6f,0x6d,0x6d,0x61,0x6e,0x64,0x07,0x3a,0x0a,0x40,0x63,0x6f,0x64,0x65,0x69,0x08,0x3a,0x10,0x40,0x70,0x61,0x72,0x61,0x6d,0x65,0x74,0x65,0x72,0x73,0x5b,0x00,0x6f,0x3b,0x0a,0x07,0x3b,0x0b,0x69,0x08,0x3b,0x0c,0x5b,0x00,0x6f,0x3b,0x0a,0x07,0x3b,0x0b,0x69,0x08,0x3b,0x0c,0x5b,0x00,0x6f,0x3b,0x0a,0x07,0x3b,0x0b,0x69,0x00,0x3b,0x0c,0x5b,0x00))
205(15,bytes(0x04,0x08,0x6f,0x3a,0x13,0x52,0x50,0x47,0x3a,0x3a,0x4d,0x6f,0x76,0x65,0x52,0x6f,0x75,0x74,0x65,0x09,0x3a,0x0c,0x40,0x72,0x65,0x70,0x65,0x61,0x74,0x46,0x3a,0x0f,0x40,0x73,0x6b,0x69,0x70,0x70,0x61,0x62,0x6c,0x65,0x46,0x3a,0x0a,0x40,0x77,0x61,0x69,0x74,0x54,0x3a,0x0a,0x40,0x6c,0x69,0x73,0x74,0x5b,0x10,0x6f,0x3a,0x15,0x52,0x50,0x47,0x3a,0x3a,0x4d,0x6f,0x76,0x65,0x43,0x6f,0x6d,0x6d,0x61,0x6e,0x64,0x07,0x3a,0x0a,0x40,0x63,0x6f,0x64,0x65,0x69,0x08,0x3a,0x10,0x40,0x70,0x61,0x72,0x61,0x6d,0x65,0x74,0x65,0x72,0x73,0x5b,0x00,0x6f,0x3b,0x0a,0x07,0x3b,0x0b,0x69,0x08,0x3b,0x0c,0x5b,0x00,0x6f,0x3b,0x0a,0x07,0x3b,0x0b,0x69,0x08,0x3b,0x0c,0x5b,0x00,0x6f,0x3b,0x0a,0x07,0x3b,0x0b,0x69,0x08,0x3b,0x0c,0x5b,0x00,0x6f,0x3b,0x0a,0x07,0x3b,0x0b,0x69,0x08,0x3b,0x0c,0x5b,0x00,0x6f,0x3b,0x0a,0x07,0x3b,0x0b,0x69,0x08,0x3b,0x0c,0x5b,0x00,0x6f,0x3b,0x0a,0x07,0x3b,0x0b,0x69,0x08,0x3b,0x0c,0x5b,0x00,0x6f,0x3b,0x0a,0x07,0x3b,0x0b,0x69,0x08,0x3b,0x0c,0x5b,0x00,0x6f,0x3b,0x0a,0x07,0x3b,0x0b,0x69,0x08,0x3b,0x0c,0x5b,0x00,0x6f,0x3b,0x0a,0x07,0x3b,0x0b,0x69,0x08,0x3b,0x0c,0x5b,0x00,0x6f,0x3b,0x0a,0x07,0x3b,0x0b,0x69,0x00,0x3b,0x0c,0x5b,0x00))
ShowMessageFace("youkosan_fc1",3,0,2,1)
ShowMessage("\\n<妖狐>")
ShowMessage("足、はや～！")
ShowMessage("あれが噂の、妖怪ダッシュ小僧……")
205(16,bytes(0x04,0x08,0x6f,0x3a,0x13,0x52,0x50,0x47,0x3a,0x3a,0x4d,0x6f,0x76,0x65,0x52,0x6f,0x75,0x74,0x65,0x09,0x3a,0x0c,0x40,0x72,0x65,0x70,0x65,0x61,0x74,0x46,0x3a,0x0f,0x40,0x73,0x6b,0x69,0x70,0x70,0x61,0x62,0x6c,0x65,0x46,0x3a,0x0a,0x40,0x77,0x61,0x69,0x74,0x54,0x3a,0x0a,0x40,0x6c,0x69,0x73,0x74,0x5b,0x07,0x6f,0x3a,0x15,0x52,0x50,0x47,0x3a,0x3a,0x4d,0x6f,0x76,0x65,0x43,0x6f,0x6d,0x6d,0x61,0x6e,0x64,0x07,0x3a,0x0a,0x40,0x63,0x6f,0x64,0x65,0x69,0x16,0x3a,0x10,0x40,0x70,0x61,0x72,0x61,0x6d,0x65,0x74,0x65,0x72,0x73,0x5b,0x00,0x6f,0x3b,0x0a,0x07,0x3b,0x0b,0x69,0x00,0x3b,0x0c,0x5b,0x00))
PictureDisplay(5,"80_youkosan_st01",0,0,0,0,100,100,0,0)
PictureMove(5,null,0,0,0,0,100,100,255,0,30,true)
ShowMessageFace("youkosan_fc1",0,0,2,2)
ShowMessage("\\n<妖狐>")
ShowMessage("あれ、こっちからもニンゲンが……")
ShowMessage("ちょうどいいや、精よこせ～！")
ShowMessageFace("kazuya_fc2",2,0,2,3)
ShowMessage("\\n<Kazuya>")
ShowMessage("あの悪魔の、黄色い見た目……")
ShowMessage("まるで、ピカ――")
ShowMessageFace("",0,0,2,4)
ShowMessage("……いや、この名前を口にしてはいけない。")
ShowMessage("とんでもない存在の干渉を招いてしまう。")
ShowMessageFace("youkosan_fc1",0,0,2,5)
ShowMessage("\\n<妖狐>")
ShowMessage("……ちなみに、ウチはピカ○ュウじゃないよ。")
ShowMessageFace("kazuya_fc2",3,0,2,6)
ShowMessage("\\n<Kazuya>")
ShowMessage("自分から言うんじゃないよ！！")
ShowMessage("必死で言うのガマンしてたのに！！")
ShowMessageFace("",0,0,2,7)
ShowMessage("ともかく、さっき彼女は『精をよこせ』と言っていた……")
ShowMessage("ということは、彼女も搾精目的で襲ってくる可能性が高い。")
ShowMessageFace("",0,0,2,8)
ShowMessage("『悪魔は、見た目や言動で油断してはいけない』……")
ShowMessage("僕が今までの経験で培った教訓だ……")
ShowMessageFace("kazuya_fc1",0,0,2,9)
ShowMessage("\\n<Kazuya>")
ShowMessage("悪いけど、僕はデビルハンターを生業にしてるんだ。")
ShowMessage("君たちみたいな悪魔の対処には慣れている。")
ShowMessageFace("kazuya_fc1",0,0,2,10)
ShowMessage("\\n<Kazuya>")
ShowMessage("君たちが僕の脱出の邪魔をするというなら、")
ShowMessage("こっちもそれなりの対抗手段をとらせてもらう……！")
ShowMessageFace("youkosan_fc1",3,0,2,11)
ShowMessage("\\n<妖狐>")
ShowMessage("おおっ、それっぽいニンゲンが出てきた！？")
ShowMessage("ちょっと様子見して、ヤバそうだったら逃げよう。")
ShowMessageFace("kazuya_fc2",2,0,2,12)
ShowMessage("\\n<Kazuya>")
ShowMessage("……いや、今すぐ逃げてくれって言ってるんだけどな。")
ShowMessageFace("",0,0,2,13)
ShowMessage("なんだか調子が狂う相手だ……")
ShowMessage("とはいえ油断せずに、相手を見極めながら戦おう……！")
Battle(0,1309,false,false)
ShowMessageFace("youkosan_fc1",2,0,2,14)
ShowMessage("\\n<妖狐>")
ShowMessage("たすけて！　デビルハンターだ！")
ShowMessage("ウチ達、みんな狩り尽くされる～！！")
ShowMessageFace("youkosan_fc1",2,0,2,15)
ShowMessage("\\n<妖狐>")
ShowMessage("まさに、害獣のように虐殺される！")
ShowMessage("人の皮を被った、この獣に！")
PictureClear(5)
Wait(30)
205(16,bytes(0x04,0x08,0x6f,0x3a,0x13,0x52,0x50,0x47,0x3a,0x3a,0x4d,0x6f,0x76,0x65,0x52,0x6f,0x75,0x74,0x65,0x09,0x3a,0x0c,0x40,0x72,0x65,0x70,0x65,0x61,0x74,0x46,0x3a,0x0f,0x40,0x73,0x6b,0x69,0x70,0x70,0x61,0x62,0x6c,0x65,0x46,0x3a,0x0a,0x40,0x77,0x61,0x69,0x74,0x54,0x3a,0x0a,0x40,0x6c,0x69,0x73,0x74,0x5b,0x12,0x6f,0x3a,0x15,0x52,0x50,0x47,0x3a,0x3a,0x4d,0x6f,0x76,0x65,0x43,0x6f,0x6d,0x6d,0x61,0x6e,0x64,0x07,0x3a,0x0a,0x40,0x63,0x6f,0x64,0x65,0x69,0x22,0x3a,0x10,0x40,0x70,0x61,0x72,0x61,0x6d,0x65,0x74,0x65,0x72,0x73,0x5b,0x06,0x69,0x0a,0x6f,0x3b,0x0a,0x07,0x3b,0x0b,0x69,0x23,0x3b,0x0c,0x5b,0x06,0x69,0x09,0x6f,0x3b,0x0a,0x07,0x3b,0x0b,0x69,0x08,0x3b,0x0c,0x5b,0x00,0x6f,0x3b,0x0a,0x07,0x3b,0x0b,0x69,0x08,0x3b,0x0c,0x5b,0x00,0x6f,0x3b,0x0a,0x07,0x3b,0x0b,0x69,0x08,0x3b,0x0c,0x5b,0x00,0x6f,0x3b,0x0a,0x07,0x3b,0x0b,0x69,0x08,0x3b,0x0c,0x5b,0x00,0x6f,0x3b,0x0a,0x07,0x3b,0x0b,0x69,0x08,0x3b,0x0c,0x5b,0x00,0x6f,0x3b,0x0a,0x07,0x3b,0x0b,0x69,0x08,0x3b,0x0c,0x5b,0x00,0x6f,0x3b,0x0a,0x07,0x3b,0x0b,0x69,0x08,0x3b,0x0c,0x5b,0x00,0x6f,0x3b,0x0a,0x07,0x3b,0x0b,0x69,0x08,0x3b,0x0c,0x5b,0x00,0x6f,0x3b,0x0a,0x07,0x3b,0x0b,0x69,0x08,0x3b,0x0c,0x5b,0x00,0x6f,0x3b,0x0a,0x07,0x3b,0x0b,0x69,0x2c,0x3b,0x0c,0x5b,0x00,0x6f,0x3b,0x0a,0x07,0x3b,0x0b,0x69,0x00,0x3b,0x0c,0x5b,0x00))
ChangeVariable(1202,1202,0,0,13)
ShowMessageFace("kazuya_fc2",3,0,2,16)
ShowMessage("\\n<Kazuya>")
ShowMessage("いや、そんな物騒なことしないから！")
ShowMessage("誤解を生むようなことを言うなよ！")
ShowMessageFace("lanpass_fc2",2,0,2,17)
ShowMessage("\\n<Lampas>")
ShowMessage("あの狐も、逃げ足は速いなぁ……")
ShowMessage("酒飲まずにニンゲン襲ってるところ初めて見たよ。")
ShowMessageFace("kazuya_fc2",0,0,2,18)
ShowMessage("\\n<Kazuya>")
ShowMessage("…………？")
ShowMessage("ランパス、アイツらを知っているのか？")
ShowMessageFace("lanpass_fc2",0,0,2,19)
ShowMessage("\\n<Lampas>")
ShowMessage("うん、私たちランパスと同じタイミングで")
ShowMessage("この世界に飛ばされた悪魔たちだよ。")
ShowMessageFace("lanpass_fc2",0,0,2,20)
ShowMessage("\\n<Lampas>")
ShowMessage("私達と同じく、別世界から集団で呼び込まれたみたい。")
ShowMessage("群れ単位で移送されたから、かなりの数がいるよ。")
ShowMessageFace("lanpass_fc2",0,0,2,21)
ShowMessage("\\n<Lampas>")
ShowMessage("こっちに来て早々、ミュスカの口車に乗って協力してる。")
ShowMessage("そこらへんも、私達ランパスと同じだね。")
ShowMessageFace("",0,0,2,22)
ShowMessage("好きなだけ、人間の男を襲い放題――")
ShowMessage("その条件に、妖狐達も乗ったというわけか。")
ShowMessageFace("lanpass_fc2",0,0,2,23)
ShowMessage("\\n<Lampas>")
ShowMessage("でも、私達ランパスとは馬が合わないんだよね。")
ShowMessage("あの連中、ずっと酒飲んで騒いでばっかだし……")
ShowMessageFace("lanpass_fc2",0,0,2,24)
ShowMessage("\\n<Lampas>")
ShowMessage("だから、あんまり関わり合いにならなかったなー。")
ShowMessage("知ってる事は、そのくらい。")
ShowMessageFace("kazuya_fc1",0,0,2,25)
ShowMessage("\\n<Kazuya>")
ShowMessage("そうか……")
ShowMessageFace("",0,0,2,26)
ShowMessage("あの妖狐達も、別世界からやってきた魔獣の集団。")
ShowMessage("様々な異世界から、ここに人間や悪魔が転送されているらしい。")
ShowMessageFace("",0,0,2,27)
ShowMessage("逃げ回っている僧侶姿の少年も、同じく異世界出身だろうか。")
ShowMessage("彼も、早いうちに保護しなければ――")
ShowMessageFace("kazuya_fc1",0,0,2,28)
ShowMessage("\\n<Kazuya>")
ShowMessage("とにかく、行くしかないか……")
ShowMessage("このふざけたゲームから、さっさと脱出しないとな。")
ShowMessageFace("lanpass_fc2",0,0,2,29)
ShowMessage("\\n<Lampas>")
ShowMessage("私らみたいな悪魔は、実体を失えば強制送還だけど……")
ShowMessage("ニンゲンのカズヤ君は、そうはいかないもんねぇ。")
ShowMessageFace("lanpass_fc2",1,0,2,30)
ShowMessage("\\n<Lampas>")
ShowMessage("キミが帰れるまで、とことん付き合ってあげる♪")
ShowMessage("だから無事に帰ったら、搾精し甲斐のある男紹介してよねぇ？")
ShowMessageFace("kazuya_fc2",6,0,2,31)
ShowMessage("\\n<Kazuya>")
ShowMessage("……………………")
ShowMessageFace("",0,0,2,32)
ShowMessage("ミュスカのゲームから抜け出し、元の世界に戻る――")
ShowMessage("そのためにも、今は先に進むしかない。")
EndEventProcessing()
0()
