﻿// EVENT 7063
Name "Meyrin: Defeat"

RunCommonEvent(7000)
PictureDisplay(5,"80_mob_kakutou_st02",0,0,0,0,100,100,255,0)
PictureClear(6)
ShowMessageFace("mob_kakutou_fc1",1,0,2,1)
ShowMessage("\\n<Mei-Lin>Looks like it's my win.\nHand over the money.")
125(1,0,100)
ShowMessageFace("",0,0,2,2)
ShowMessage("Luka paid 100G!")
ShowMessageFace("mob_kakutou_fc1",1,0,2,3)
ShowMessage("\\n<Mei-Lin>Train some more and come back.\nI'll make you come just as easily, anytime.")
If(0,2331,1)
 PictureClear(5)
 281(1)
 TeleportPlayer(0,15,24,22,2,0)
 216(0)
 0()
EndIf()
EndEventProcessing()
0()
