// EVENT 2194
Name "Seduction: Miko Arachne"

355("$game_troop.lose_event_id = 3194")
ChangeVariable(26,26,0,3,3,1,4)
ChangeVariable(26,26,4,0,10)
ShowMessageFace("mikoarachne_fc1",3,0,2,1)
ShowMessage("\\n<Miko Arachne>")
ShowMessage("Wahwahwah, I'm gonna lose!")
ShowMessage("Do you want to make a trade, instead?")
ShowMessageFace("mikoarachne_fc1",0,0,2,2)
ShowMessage("\\n<Miko Arachne>")
ShowMessage("How about I make your penis all sticky with my silk?")
ShowMessage("If you let me go, I'll cocoon it for you. ♪")
ChangeSwitch(98,98,0)
ChangeSwitch(96,96,0)
ShowChoices(strings("Ignore","Give in to temptation"),1)
IfPlayerPicksChoice(0,"無視する")
 ShowMessageFace("",0,0,2,3)
 ShowMessage("But Luka shakes off the temptation!")
 RunCommonEvent(1999)
 EndEventProcessing()
 0()
IfPlayerPicksChoice(1,"誘惑に乗る")
 0()
404()
ShowMessageFace("mikoarachne_fc1",0,0,2,4)
ShowMessage("\\n<Miko Arachne>")
ShowMessage("Fufu, so you can't resist it, can you?")
ShowMessage("Well then, let's wind it up. ♪")
ChangeVariable(26,26,3,0,3)
250(bytes(0x04,0x08,0x6f,0x3a,0x0c,0x52,0x50,0x47,0x3a,0x3a,0x53,0x45,0x08,0x3a,0x0a,0x40,0x6e,0x61,0x6d,0x65,0x49,0x22,0x16,0x6d,0x6f,0x6e,0x5f,0x65,0x72,0x6f,0x5f,0x6d,0x61,0x6b,0x69,0x74,0x75,0x6b,0x69,0x31,0x06,0x3a,0x06,0x45,0x54,0x3a,0x0b,0x40,0x70,0x69,0x74,0x63,0x68,0x69,0x69,0x3a,0x0c,0x40,0x76,0x6f,0x6c,0x75,0x6d,0x65,0x69,0x69))
311(0,1,1,1,26,true)
ShowMessageFace("",0,0,2,5)
ShowMessage("Sticky silk shoots out from Miko Arachne!")
ShowMessage("The silk coils around Luka's penis!\\D")
ShowMessage("Luka takes \\V[26] damage!")
ChangeVariable(27,27,0,3,3,1,2)
If(1,27,0,0,0)
 JumpToLabel("射精1")
 0()
EndIf()
ShowMessageFace("mikoarachne_fc1",0,0,2,6)
ShowMessage("\\n<Miko Arachne>")
ShowMessage("Isn't my silk nice and sticky?")
ShowMessage("I'll roll it up nice and slowly. ♪")
250(bytes(0x04,0x08,0x6f,0x3a,0x0c,0x52,0x50,0x47,0x3a,0x3a,0x53,0x45,0x08,0x3a,0x0a,0x40,0x6e,0x61,0x6d,0x65,0x49,0x22,0x16,0x6d,0x6f,0x6e,0x5f,0x65,0x72,0x6f,0x5f,0x6d,0x61,0x6b,0x69,0x74,0x75,0x6b,0x69,0x31,0x06,0x3a,0x06,0x45,0x54,0x3a,0x0b,0x40,0x70,0x69,0x74,0x63,0x68,0x69,0x69,0x3a,0x0c,0x40,0x76,0x6f,0x6c,0x75,0x6d,0x65,0x69,0x69))
311(0,1,1,1,26,true)
ShowMessageFace("",0,0,2,7)
ShowMessage("More sticky silk coils around Luka's penis!")
ShowMessage("The sweet feeling of her silk assaults Luka!\\D")
ShowMessage("Luka takes \\V[26] damage!")
ChangeVariable(27,27,0,3,3,1,2)
If(1,27,0,0,0)
 JumpToLabel("射精1")
 0()
EndIf()
ShowMessageFace("mikoarachne_fc1",0,0,2,8)
ShowMessage("\\n<Miko Arachne>")
ShowMessage("This will make it tighter...")
ShowMessage("Ufufu, can you take much more of this?")
250(bytes(0x04,0x08,0x6f,0x3a,0x0c,0x52,0x50,0x47,0x3a,0x3a,0x53,0x45,0x08,0x3a,0x0a,0x40,0x6e,0x61,0x6d,0x65,0x49,0x22,0x16,0x6d,0x6f,0x6e,0x5f,0x65,0x72,0x6f,0x5f,0x6d,0x61,0x6b,0x69,0x74,0x75,0x6b,0x69,0x31,0x06,0x3a,0x06,0x45,0x54,0x3a,0x0b,0x40,0x70,0x69,0x74,0x63,0x68,0x69,0x69,0x3a,0x0c,0x40,0x76,0x6f,0x6c,0x75,0x6d,0x65,0x69,0x69))
311(0,1,1,1,26,true)
ShowMessageFace("",0,0,2,9)
ShowMessage("More silk coils around Luka's penis, tightening the cocoon!")
ShowMessage("The sticky silk spreads all over Luka's crotch!\\D")
ShowMessage("Luka takes \\V[26] damage!")
ChangeVariable(27,27,0,3,3,1,2)
If(1,27,0,0,0)
 JumpToLabel("射精1")
 0()
EndIf()
ShowMessageFace("mikoarachne_fc1",0,0,2,10)
ShowMessage("\\n<Miko Arachne>")
ShowMessage("Can you take much more?")
ShowMessage("Now to squeeze it extra tight. ♪")
250(bytes(0x04,0x08,0x6f,0x3a,0x0c,0x52,0x50,0x47,0x3a,0x3a,0x53,0x45,0x08,0x3a,0x0a,0x40,0x6e,0x61,0x6d,0x65,0x49,0x22,0x16,0x6d,0x6f,0x6e,0x5f,0x65,0x72,0x6f,0x5f,0x6d,0x61,0x6b,0x69,0x74,0x75,0x6b,0x69,0x31,0x06,0x3a,0x06,0x45,0x54,0x3a,0x0b,0x40,0x70,0x69,0x74,0x63,0x68,0x69,0x69,0x3a,0x0c,0x40,0x76,0x6f,0x6c,0x75,0x6d,0x65,0x69,0x69))
311(0,1,1,1,26,true)
ShowMessageFace("",0,0,2,11)
ShowMessage("The Miko Arachne tightens the cocoon around Luka's penis!")
ShowMessage("The sticky touch forces Luka to orgasm!\\D")
ShowMessage("Luka takes \\V[26] damage!")
ChangeVariable(27,27,0,3,3,1,2)
If(1,27,0,0,0)
 JumpToLabel("射精1")
 0()
EndIf()
DefineLabel("射精1")
ShowMessageFace("",0,0,2,12)
ShowMessage("\\n<Luka>")
ShowMessage("Oh no, I'm coming... Ahhh...")
RunCommonEvent(104)
RunCommonEvent(105)
ShowMessageFace("",0,0,2,13)
ShowMessage("As her sticky silk coils around me, I come.")
ShowMessage("The strange sensation of it was too much to take...")
ShowMessageFace("mikoarachne_fc1",0,0,2,14)
ShowMessage("\\n<Miko Arachne>")
ShowMessage("Yay, you came! ♪")
ShowMessage("Did you enjoy my sticky silk?")
RunCommonEvent(2000)
EndEventProcessing()
0()
