// EVENT 0007
Name "Orb of Life-Drain"

ChangeVariable(6,6,0,0,0)
ChangeVariable(7,7,0,3,3,1,2)
ShowMessageFace("",0,0,2,1)
ShowMessage("Luka currently has \\V[7] HP.")
ShowMessage("Drain how much HP?")
ShowMessage("(Luka cannot be drained below 1 HP.)")
NumericInput(6,4)
311(0,1,1,1,6,false)
250(bytes(0x04,0x08,0x6f,0x3a,0x0c,0x52,0x50,0x47,0x3a,0x3a,0x53,0x45,0x08,0x3a,0x0a,0x40,0x6e,0x61,0x6d,0x65,0x49,0x22,0x0e,0x6d,0x6f,0x6e,0x5f,0x64,0x6f,0x77,0x6e,0x34,0x06,0x3a,0x06,0x45,0x54,0x3a,0x0b,0x40,0x70,0x69,0x74,0x63,0x68,0x69,0x69,0x3a,0x0c,0x40,0x76,0x6f,0x6c,0x75,0x6d,0x65,0x69,0x69))
ShowMessageFace("",0,0,2,2)
ShowMessage("\\V[6] HP drained from Luka!")
EndEventProcessing()
0()
