// EVENT 4562
Name "Nefertiti Lamias 2"

If(0,25,1)
 221()
 PictureClear(5)
 PictureClear(6)
 ShowMessageFace("",0,0,2,0)
 ShowMessage("......")
 242(2)
 Wait(120)
 241(bytes(0x04,0x08,0x6f,0x3a,0x0d,0x52,0x50,0x47,0x3a,0x3a,0x42,0x47,0x4d,0x08,0x3a,0x0a,0x40,0x6e,0x61,0x6d,0x65,0x49,0x22,0x0c,0x63,0x61,0x73,0x74,0x6c,0x65,0x36,0x06,0x3a,0x06,0x45,0x54,0x3a,0x0c,0x40,0x76,0x6f,0x6c,0x75,0x6d,0x65,0x69,0x69,0x3a,0x0b,0x40,0x70,0x69,0x74,0x63,0x68,0x69,0x69))
 EndEventProcessing()
 0()
EndIf()
PictureDisplay(5,"80_lamias_st03",0,0,0,0,100,100,255,0)
ShowMessageFace("lamias_fc1",5,0,2,1)
ShowMessage("\\n<Second Oldest Lamia>Aha, you want me to coil around you?")
ShowMessageFace("",0,0,2,2)
ShowMessage("\\n<Luka>P-please...")
ShowMessageFace("lamias_fc1",5,0,2,3)
ShowMessage("\\n<Second Oldest Lamia>All right, I'll do as you wish. ♪")
241(bytes(0x04,0x08,0x6f,0x3a,0x0d,0x52,0x50,0x47,0x3a,0x3a,0x42,0x47,0x4d,0x08,0x3a,0x0a,0x40,0x6e,0x61,0x6d,0x65,0x49,0x22,0x09,0x65,0x72,0x6f,0x31,0x06,0x3a,0x06,0x45,0x54,0x3a,0x0c,0x40,0x76,0x6f,0x6c,0x75,0x6d,0x65,0x69,0x69,0x3a,0x0b,0x40,0x70,0x69,0x74,0x63,0x68,0x69,0x69))
250(bytes(0x04,0x08,0x6f,0x3a,0x0c,0x52,0x50,0x47,0x3a,0x3a,0x53,0x45,0x08,0x3a,0x0a,0x40,0x6e,0x61,0x6d,0x65,0x49,0x22,0x16,0x6d,0x6f,0x6e,0x5f,0x65,0x72,0x6f,0x5f,0x73,0x69,0x6d,0x65,0x74,0x75,0x6b,0x65,0x31,0x06,0x3a,0x06,0x45,0x54,0x3a,0x0b,0x40,0x70,0x69,0x74,0x63,0x68,0x69,0x69,0x3a,0x0c,0x40,0x76,0x6f,0x6c,0x75,0x6d,0x65,0x69,0x69))
PictureDisplay(5,"ev_lamias_hb1",0,0,0,0,100,100,255,0)
ShowMessageFace("",0,0,2,4)
ShowMessage("The second oldest lamia hugs me tightly.\nAt the same time, she coils me in her serpentine body.")
ShowMessageFace("",0,0,2,5)
ShowMessage("\\n<Luka>Ah, ahhg...!")
ShowMessageFace("",0,0,2,6)
ShowMessage("The terrible tightness forces me to groan.\nWith her snake body coiled around me, she's squeezing me incredibly tight.")
ShowMessageFace("",0,0,2,7)
ShowMessage("The tight binding makes me feel just like prey.\nIt makes me realize that's what they consider me...")
ShowMessageFace("lamias_fc1",5,0,2,8)
ShowMessage("\\n<Second Oldest Lamia>Let's mate...\nI think I'll violate you as I strangle you...")
ShowMessageFace("",0,0,2,9)
ShowMessage("\\n<Luka>Ah, aaaah...!!")
245(bytes(0x04,0x08,0x6f,0x3a,0x0d,0x52,0x50,0x47,0x3a,0x3a,0x42,0x47,0x53,0x08,0x3a,0x0a,0x40,0x6e,0x61,0x6d,0x65,0x49,0x22,0x1e,0x6d,0x6f,0x6e,0x5f,0x68,0x73,0x65,0x61,0x6e,0x30,0x34,0x5f,0x69,0x6e,0x6e,0x65,0x72,0x77,0x6f,0x72,0x6b,0x73,0x5f,0x61,0x34,0x06,0x3a,0x06,0x45,0x54,0x3a,0x0c,0x40,0x76,0x6f,0x6c,0x75,0x6d,0x65,0x69,0x55,0x3a,0x0b,0x40,0x70,0x69,0x74,0x63,0x68,0x69,0x69))
PictureDisplay(5,"ev_lamias_hb2",0,0,0,0,100,100,255,0)
ShowMessageFace("",0,0,2,10)
ShowMessage("My penis slips inside her as her snake body squeezes me.\nHer vagina is surprisingly soft, but incredibly tight.")
ShowMessageFace("",0,0,2,11)
ShowMessage("Her narrow walls press on me from every direction.")
ShowMessageFace("",0,0,2,12)
ShowMessage("\\n<Luka>Unnngh...! You're so tight inside...!!")
ShowMessageFace("lamias_fc1",5,0,2,13)
ShowMessage("\\n<Second Oldest Lamia>Ahahaha, it's not just inside...")
ShowMessageFace("",0,0,2,14)
ShowMessage("\\n<Luka>Ah, aaaah...!!")
ShowMessageFace("",0,0,2,15)
ShowMessage("Her tail squeezes down on my body even tighter.\nCaught in her coils, I'm tightly wound up in her tail.")
ShowMessageFace("",0,0,2,16)
ShowMessage("At the same time, she tightens around my penis in her vagina. I moan from the simultaneous tightening.")
ShowMessageFace("lamias_fc1",5,0,2,17)
ShowMessage("\\n<Second Oldest Lamia>Aha... I'll violate your mouth, too...")
PictureDisplay(5,"ev_lamias_hb3",0,0,0,0,100,100,255,0)
ShowMessageFace("",0,0,2,18)
ShowMessage("Saying that, she forces her tongue inside my mouth.\nHer wet tongue coils around my own, licking me inside my mouth.")
ShowMessageFace("lamias_fc1",5,0,2,19)
ShowMessage("\\n<Second Oldest Lamia>Well...? This is what mating with a lamia is like.\nIt's tight everywhere... It's irresistible, isn't it?")
ShowMessageFace("",0,0,2,20)
ShowMessage("\\n<Luka>Ahhggg...! Ah, aaaah...!!")
ShowMessageFace("",0,0,2,21)
ShowMessage("A feeling of restriction on my entire body.\nAnd the incredible pressure on my penis.")
ShowMessageFace("",0,0,2,22)
ShowMessage("But it's not just my physical body itself.\nEven in my mind, I'm being tortured.")
ShowMessageFace("",0,0,2,23)
ShowMessage("The feeling of being violated without being able to do anything. The feeling of hopelessness inside a lamia's tight embrace...")
ShowMessageFace("",0,0,2,24)
ShowMessage("Tightened in her coils, I let my body relax.\nSuccumbing to the physical and mental reality of my situation, I submit to this insult.")
ShowMessageFace("lamias_fc1",5,0,2,25)
ShowMessage("\\n<Second Oldest Lamia>Ahaha... Have you already given up?\nThe moment a man surrenders and goes slack is simply irresistible...")
ShowMessageFace("lamias_fc1",5,0,2,26)
ShowMessage("\\n<Second Oldest Lamia>I'll finish you quickly for now...\nBut it will get even tighter...")
ShowMessageFace("",0,0,2,27)
ShowMessage("With a tight squeeze, the lamia's vagina gets even tighter. Her vagina is far tighter than before.")
ShowMessageFace("",0,0,2,28)
ShowMessage("\\n<Luka>Aiyee...!")
ShowMessageFace("lamias_fc1",5,0,2,29)
ShowMessage("\\n<Second Oldest Lamia>It's getting tighter...\nSo you better come now.")
ShowMessageFace("",0,0,2,30)
ShowMessage("The muscles in the lamia's vagina mercilessly squeeze my penis. Her soft, hot flesh presses down hard on my penis.")
ShowMessageFace("",0,0,2,31)
ShowMessage("Before that intense tightness, I have no choice but to submit.")
ShowMessageFace("",0,0,2,32)
ShowMessage("\\n<Luka>Unnngh...")
RunCommonEvent(104)
PictureDisplay(5,"ev_lamias_hb4",0,0,0,0,100,100,255,0)
RunCommonEvent(105)
ShowMessageFace("",0,0,2,33)
ShowMessage("Going limp, my semen shoots into her tight body.\nA unique sensation of weakness fills me, as if I was squeezed by force.")
246(1)
ShowMessageFace("lamias_fc1",5,0,2,34)
ShowMessage("\\n<Second Oldest Lamia>Ahaha, did it feel good?\nYou need to share this delicious semen with my other sisters next.")
ShowMessageFace("",0,0,2,35)
ShowMessage("\\n<Luka>......")
ShowMessageFace("",0,0,2,36)
ShowMessage("I'm too weak to do anything else.\nThe other sisters around me giggle as they stare at me.")
ShowMessageFace("",0,0,2,37)
ShowMessage("These girls are looking at me as if I'm prey...\nI may have no choice but to feed them.")
221()
PictureClear(5)
ShowMessageFace("",0,0,2,38)
ShowMessage("......")
242(2)
Wait(120)
241(bytes(0x04,0x08,0x6f,0x3a,0x0d,0x52,0x50,0x47,0x3a,0x3a,0x42,0x47,0x4d,0x08,0x3a,0x0a,0x40,0x6e,0x61,0x6d,0x65,0x49,0x22,0x0c,0x63,0x61,0x73,0x74,0x6c,0x65,0x36,0x06,0x3a,0x06,0x45,0x54,0x3a,0x0c,0x40,0x76,0x6f,0x6c,0x75,0x6d,0x65,0x69,0x69,0x3a,0x0b,0x40,0x70,0x69,0x74,0x63,0x68,0x69,0x69))
0()
