// EVENT 1034
Name "Talk: Meda Girl"

If(1,20,0,1,0)
 JumpToLabel("情報")
 0()
EndIf()
If(1,20,0,2,0)
 JumpToLabel("質問")
 0()
EndIf()
If(1,20,0,3,0)
 JumpToLabel("要求")
 0()
EndIf()
If(1,20,0,4,0)
 JumpToLabel("贈与")
 0()
EndIf()
DefineLabel("情報")
ChangeVariable(13,13,0,2,1,100)
If(1,13,0,10,2)
 ShowMessageFace("meda_fc1",0,0,2,1)
 ShowMessage("\\n<Meda Girl>Bright light... No...\n*Rustle Rustle* *Creep Creep*.")
 EndEventProcessing()
 0()
EndIf()
If(1,13,0,20,2)
 ShowMessageFace("meda_fc1",0,0,2,2)
 ShowMessage("\\n<Meda Girl>*Creep Creep Creep*")
 EndEventProcessing()
 0()
EndIf()
If(1,13,0,30,2)
 ShowMessageFace("meda_fc1",0,0,2,3)
 ShowMessage("\\n<Meda Girl>Dark, love...\n*Rustle Rustle Rustle*.")
 EndEventProcessing()
 0()
EndIf()
If(1,13,0,40,2)
 ShowMessageFace("meda_fc1",0,0,2,4)
 ShowMessage("\\n<Meda Girl>My eyes have degenerated...\nBut my other senses are strong...")
 EndEventProcessing()
 0()
EndIf()
If(1,13,0,50,2)
 ShowMessageFace("meda_fc1",0,0,2,5)
 ShowMessage("\\n<Meda Girl>Sun, scary...")
 EndEventProcessing()
 0()
EndIf()
If(1,13,0,60,2)
 ShowMessageFace("meda_fc1",0,0,2,6)
 ShowMessage("\\n<Meda Girl>Large prey caught, suck the bodily fluids...\nHuman semen, nutritious...")
 EndEventProcessing()
 0()
EndIf()
If(1,13,0,70,2)
 ShowMessageFace("meda_fc1",0,0,2,7)
 ShowMessage("\\n<Meda Girl>My tentacles, extend far...\nThis is how prey is caught...")
 EndEventProcessing()
 0()
EndIf()
If(1,13,0,80,2)
 ShowMessageFace("meda_fc1",0,0,2,8)
 ShowMessage("\\n<Meda Girl>Dark, love...\nCave, like...")
 EndEventProcessing()
 0()
EndIf()
If(1,13,0,90,2)
 ShowMessageFace("meda_fc1",0,0,2,9)
 ShowMessage("\\n<Meda Girl>Corner, love...\n*Rustle Rustle* *Creep Creep*")
 EndEventProcessing()
 0()
EndIf()
If(1,13,0,100,2)
 ShowMessageFace("meda_fc1",0,0,2,10)
 ShowMessage("\\n<Meda Girl>We do not hate humans...\nBut semen is delicious so even comrades will be sucked dry.")
 ShowMessageFace("meda_fc1",0,0,2,11)
 ShowMessage("\\n<Meda Girl>I mean no harm...\nBut human semen is delicious... so I won't stop.")
 EndEventProcessing()
 0()
EndIf()
DefineLabel("質問")
ChangeVariable(13,13,0,2,1,50)
If(1,13,0,10,2)
 ShowMessageFace("meda_fc1",0,0,2,12)
 ShowMessage("\\n<Meda Girl>Humans are not afraid of bright places?")
 ShowChoices(strings("It doesn't bother us.","It bothers us."),0)
 IfPlayerPicksChoice(0,"平気")
  ShowMessageFace("meda_fc1",0,0,2,13)
  ShowMessage("\\n<Meda Girl>Jealous...\nHumans, amazing...")
  355("change_friend(10)")
  0()
 IfPlayerPicksChoice(1,"平気じゃない")
  ShowMessageFace("meda_fc1",0,0,2,14)
  ShowMessage("\\n<Meda Girl>Then humans want to live in a cave?")
  0()
 404()
 EndEventProcessing()
 0()
EndIf()
If(1,13,0,20,2)
 ShowMessageFace("meda_fc1",0,0,2,15)
 ShowMessage("\\n<Meda Girl>Sun or moon, like more?")
 ShowChoices(strings("Sun","Moon","Scorpio X-1"),0)
 IfPlayerPicksChoice(0,"おひさま")
  ShowMessageFace("meda_fc1",0,0,2,16)
  ShowMessage("\\n<Meda Girl>Sun, hate...")
  0()
 IfPlayerPicksChoice(1,"月")
  ShowMessageFace("meda_fc1",0,0,2,17)
  ShowMessage("\\n<Meda Girl>I also love the moon...\nAt night I leave the cave to look at the moon...")
  355("change_friend(10)")
  0()
 IfPlayerPicksChoice(2,"さそり座X-1")
  ShowMessageFace("meda_fc1",0,0,2,18)
  ShowMessage("\\n<Meda Girl>What is that...?\nSeems... scary.")
  355("change_friend(-5)")
  0()
 404()
 EndEventProcessing()
 0()
EndIf()
If(1,13,0,30,2)
 ShowMessageFace("meda_fc1",0,0,2,19)
 ShowMessage("\\n<Meda Girl>What am I...?")
 ShowChoices(strings("An insect","A plant","A giant water flea"),0)
 IfPlayerPicksChoice(0,"虫")
  ShowMessageFace("meda_fc1",0,0,2,20)
  ShowMessage("\\n<Meda Girl>I see... I am an insect...\n*Rustle Rustle* *Creep Creep*")
  355("change_friend(10)")
  0()
 IfPlayerPicksChoice(1,"植物")
  ShowMessageFace("meda_fc1",0,0,2,21)
  ShowMessage("\\n<Meda Girl>I am not grass...")
  0()
 IfPlayerPicksChoice(2,"でっかいミジンコ")
  ShowMessageFace("meda_fc1",0,0,2,22)
  ShowMessage("\\n<Meda Girl>Not small, but...\nI am not a water flea...")
  0()
 404()
 EndEventProcessing()
 0()
EndIf()
If(1,13,0,40,2)
 ShowMessageFace("meda_fc1",0,0,2,23)
 ShowMessage("\\n<Meda Girl>Recently, scholars came to study me...\nWhat did they say about me...?")
 ShowChoices(strings("You are an endangered species","You are an extinct species","You will destroy the world"),0)
 IfPlayerPicksChoice(0,"絶滅危惧種")
  ShowMessageFace("meda_fc1",0,0,2,24)
  ShowMessage("\\n<Meda Girl>So... I'm an endangered species...\nThen... be nice to me...")
  355("change_friend(10)")
  0()
 IfPlayerPicksChoice(1,"絶滅種")
  ShowMessageFace("meda_fc1",0,0,2,25)
  ShowMessage("\\n<Meda Girl>My kind has perished...?\nIf that is so, why am I here?")
  0()
 IfPlayerPicksChoice(2,"世界を滅ぼす者")
  ShowMessageFace("meda_fc1",0,0,2,26)
  ShowMessage("\\n<Meda Girl>I am going to destroy the world...\nThen I shall start my destruction with you...")
  0()
 404()
 EndEventProcessing()
 0()
EndIf()
If(1,13,0,50,2)
 ShowMessageFace("meda_fc1",0,0,2,27)
 ShowMessage("\\n<Meda Girl>Humans also get hungry...\nCan't they drink their own semen?")
 ShowChoices(strings("Humans don't get nutrition from semen","We do drink our own semen"),0)
 IfPlayerPicksChoice(0,"人間は精液から養分を採れない")
  ShowMessageFace("meda_fc1",0,0,2,28)
  ShowMessage("\\n<Meda Girl>Is that so...?\nHumans are strange...")
  355("change_friend(10)")
  0()
 IfPlayerPicksChoice(1,"よく自分の精液を飲んでる")
  ShowMessageFace("meda_fc1",0,0,2,29)
  ShowMessage("\\n<Meda Girl>I'm right...")
  ShowMessageFace("meda_fc1",0,0,2,30)
  ShowMessage("\\n<Meda Girl>...!?")
  ShowMessageFace("meda_fc1",0,0,2,31)
  ShowMessage("\\n<Meda Girl>You're like a perpetual motion machine...\nThat's scary.")
  355("change_friend(-5)")
  0()
 404()
 EndEventProcessing()
 0()
EndIf()
DefineLabel("要求")
ChangeVariable(13,13,0,2,1,30)
If(1,13,0,10,2)
 If(8,14)
  ShowMessageFace("meda_fc1",0,0,2,32)
  ShowMessage("\\n<Meda Girl>My eyes are blind...\nIf I use eye drops, maybe I could see?")
  ChangeVariable(24,24,0,3,0,14,0)
  ShowMessageFace("",0,0,2,33)
  ShowMessage("Do you want to give \\ii[14]? (Have:\\V[24])")
  ShowChoices(strings("Yes","No"),2)
  IfPlayerPicksChoice(0,"Yes")
   ShowMessageFace("meda_fc1",0,0,2,34)
   ShowMessage("\\n<Meda Girl>Thank you... I'm happy.")
   ChangeInventory_Item(14,1,0,1)
   355("change_friend(20)")
   EndEventProcessing()
   0()
  IfPlayerPicksChoice(1,"No")
   ShowMessageFace("meda_fc1",0,0,2,35)
   ShowMessage("\\n<Meda Girl>......")
   EndEventProcessing()
   0()
  404()
  0()
 Else()
  ChangeVariable(13,13,0,0,20)
  0()
 EndIf()
 0()
EndIf()
If(1,13,0,20,2)
 If(8,322)
  ShowMessageFace("meda_fc1",0,0,2,36)
  ShowMessage("\\n<Meda Girl>Fish from the sea, I have never seen...\nFluids from fish, I want to suck...")
  ChangeVariable(24,24,0,3,0,322,0)
  ShowMessageFace("",0,0,2,37)
  ShowMessage("Do you want to give a \\ii[322]? (Have:\\V[24])")
  ShowChoices(strings("Yes","No"),2)
  IfPlayerPicksChoice(0,"Yes")
   ShowMessageFace("meda_fc1",0,0,2,38)
   ShowMessage("\\n<Meda Girl>Thank you... I'm happy.")
   ChangeInventory_Item(322,1,0,1)
   355("change_friend(30)")
   EndEventProcessing()
   0()
  IfPlayerPicksChoice(1,"No")
   ShowMessageFace("meda_fc1",0,0,2,39)
   ShowMessage("\\n<Meda Girl>......")
   EndEventProcessing()
   0()
  404()
  0()
 Else()
  ChangeVariable(13,13,0,0,30)
  0()
 EndIf()
 0()
EndIf()
If(1,13,0,30,2)
 ShowMessageFace("meda_fc1",0,0,2,40)
 ShowMessage("\\n<Meda Girl>Money is... happiness?\nI want to be happy too...")
 If(7,201,0)
  ChangeVariable(24,24,0,3,7,2,0)
  ShowMessageFace("",0,0,2,41)
  ShowMessage("Do you want to give 201G? (Remaining: \\V[24])")
  ShowChoices(strings("Yes","No"),2)
  IfPlayerPicksChoice(0,"Yes")
   ShowMessageFace("meda_fc1",0,0,2,42)
   ShowMessage("\\n<Meda Girl>Thank you... I'm happy.")
   125(1,0,201)
   355("change_friend(25)")
   EndEventProcessing()
   0()
  IfPlayerPicksChoice(1,"No")
   ShowMessageFace("meda_fc1",0,0,2,43)
   ShowMessage("\\n<Meda Girl>......")
   EndEventProcessing()
   0()
  404()
  0()
 Else()
  ShowMessageFace("meda_fc1",0,0,2,44)
  ShowMessage("\\n<Meda Girl>...You don't have any...?")
  EndEventProcessing()
  0()
 EndIf()
 0()
EndIf()
DefineLabel("贈与")
ChangeVariable(13,13,0,2,1,30)
If(1,25,0,1,0)
 ChangeVariable(13,13,0,0,30)
 ChangeVariable(25,25,0,0,0)
 0()
EndIf()
If(1,25,0,2,0)
 ChangeVariable(13,13,0,2,1,20)
 ChangeVariable(25,25,0,0,0)
 0()
EndIf()
If(1,13,0,10,2)
 ShowMessageFace("meda_fc1",0,0,2,45)
 ShowMessage("\\n<Meda Girl>Dried meat, gift...\nWhat kind of meat? ...Secret.")
 250(bytes(0x04,0x08,0x6f,0x3a,0x0c,0x52,0x50,0x47,0x3a,0x3a,0x53,0x45,0x08,0x3a,0x0a,0x40,0x6e,0x61,0x6d,0x65,0x49,0x22,0x0a,0x49,0x74,0x65,0x6d,0x31,0x06,0x3a,0x06,0x45,0x54,0x3a,0x0b,0x40,0x70,0x69,0x74,0x63,0x68,0x69,0x69,0x3a,0x0c,0x40,0x76,0x6f,0x6c,0x75,0x6d,0x65,0x69,0x55))
 ChangeInventory_Item(432,0,0,1)
 ShowMessageFace("",0,0,2,46)
 ShowMessage("The Meda Girl gave you \\ii[432]!")
 EndEventProcessing()
 0()
EndIf()
If(1,13,0,20,2)
 ShowMessageFace("meda_fc1",0,0,2,47)
 ShowMessage("\\n<Meda Girl>Medicine, gift...")
 250(bytes(0x04,0x08,0x6f,0x3a,0x0c,0x52,0x50,0x47,0x3a,0x3a,0x53,0x45,0x08,0x3a,0x0a,0x40,0x6e,0x61,0x6d,0x65,0x49,0x22,0x0a,0x49,0x74,0x65,0x6d,0x31,0x06,0x3a,0x06,0x45,0x54,0x3a,0x0b,0x40,0x70,0x69,0x74,0x63,0x68,0x69,0x69,0x3a,0x0c,0x40,0x76,0x6f,0x6c,0x75,0x6d,0x65,0x69,0x55))
 ChangeInventory_Item(4,0,0,1)
 ShowMessageFace("",0,0,2,48)
 ShowMessage("The Meda Girl gave you a \\ii[4]!")
 EndEventProcessing()
 0()
EndIf()
If(1,13,0,30,2)
 ShowMessageFace("meda_fc1",0,0,2,49)
 ShowMessage("\\n<Meda Girl>Money, gift...\nIt was dropped in the cave...")
 250(bytes(0x04,0x08,0x6f,0x3a,0x0c,0x52,0x50,0x47,0x3a,0x3a,0x53,0x45,0x08,0x3a,0x0a,0x40,0x6e,0x61,0x6d,0x65,0x49,0x22,0x0a,0x49,0x74,0x65,0x6d,0x31,0x06,0x3a,0x06,0x45,0x54,0x3a,0x0b,0x40,0x70,0x69,0x74,0x63,0x68,0x69,0x69,0x3a,0x0c,0x40,0x76,0x6f,0x6c,0x75,0x6d,0x65,0x69,0x55))
 125(0,0,335)
 ShowMessageFace("",0,0,2,50)
 ShowMessage("The Meda Girl gave you 335G!")
 EndEventProcessing()
 0()
EndIf()
0()
