// EVENT 2221
Name "Seduction: Tezcatlipoca"

355("$game_troop.lose_event_id = 3221")
ChangeVariable(26,26,0,3,3,1,4)
ChangeVariable(26,26,4,0,10)
ShowMessageFace("tezcatlipoca_fc1",2,0,2,1)
ShowMessage("\\n<Tezcatlipoca>")
ShowMessage("Unyaaa! Big trouble!")
355("battler_graphic_hide")
PictureDisplay(5,"ev_tezcatlipoca_hb1",0,0,0,0,100,100,255,0)
ShowMessageFace("",0,0,2,2)
ShowMessage("Tezcatlipoca clings to Luka's crotch!")
ShowMessage("She starts rubbing her face against his penis!")
ShowMessageFace("tezcatlipoca_fc1",1,0,2,3)
ShowMessage("\\n<Tezcatlipoca>")
ShowMessage("I'll lick nyour penis!")
ShowMessage("So let me go~nya!")
ChangeSwitch(98,98,0)
ChangeSwitch(96,96,0)
ShowChoices(strings("Ignore","Give in to temptation"),1)
IfPlayerPicksChoice(0,"無視する")
 ShowMessageFace("",0,0,2,4)
 ShowMessage("But Luka shakes off her temptation!")
 RunCommonEvent(1999)
 EndEventProcessing()
 0()
IfPlayerPicksChoice(1,"誘惑に乗る")
 0()
404()
ShowMessageFace("tezcatlipoca_fc1",1,0,2,5)
ShowMessage("\\n<Tezcatlipoca>")
ShowMessage("Time to lick it~nya. ♪")
ChangeVariable(26,26,3,0,3)
250(bytes(0x04,0x08,0x6f,0x3a,0x0c,0x52,0x50,0x47,0x3a,0x3a,0x53,0x45,0x08,0x3a,0x0a,0x40,0x6e,0x61,0x6d,0x65,0x49,0x22,0x11,0x6d,0x6f,0x6e,0x5f,0x65,0x72,0x6f,0x5f,0x70,0x79,0x75,0x32,0x06,0x3a,0x06,0x45,0x54,0x3a,0x0b,0x40,0x70,0x69,0x74,0x63,0x68,0x69,0x69,0x3a,0x0c,0x40,0x76,0x6f,0x6c,0x75,0x6d,0x65,0x69,0x69))
PictureDisplay(5,"ev_tezcatlipoca_hb3",0,0,0,0,100,100,255,0)
311(0,1,1,1,26,true)
ShowMessageFace("",0,0,2,6)
ShowMessage("Tezcatlipoca licks Luka's penis!")
ShowMessage("Her rough tongue runs all over him!\\D")
ShowMessage("Luka takes \\V[26] damage!")
ChangeVariable(27,27,0,3,3,1,2)
If(1,27,0,0,0)
 JumpToLabel("射精1")
 0()
EndIf()
ShowMessageFace("tezcatlipoca_fc1",1,0,2,7)
ShowMessage("\\n<Tezcatlipoca>")
ShowMessage("Lick, lick, so tasty~nya. ♪")
250(bytes(0x04,0x08,0x6f,0x3a,0x0c,0x52,0x50,0x47,0x3a,0x3a,0x53,0x45,0x08,0x3a,0x0a,0x40,0x6e,0x61,0x6d,0x65,0x49,0x22,0x11,0x6d,0x6f,0x6e,0x5f,0x65,0x72,0x6f,0x5f,0x70,0x79,0x75,0x32,0x06,0x3a,0x06,0x45,0x54,0x3a,0x0b,0x40,0x70,0x69,0x74,0x63,0x68,0x69,0x69,0x3a,0x0c,0x40,0x76,0x6f,0x6c,0x75,0x6d,0x65,0x69,0x69))
311(0,1,1,1,26,true)
ShowMessageFace("",0,0,2,8)
ShowMessage("Tezcatlipoca continues licking Luka!")
ShowMessage("Concentrating on his tip, her tongue tickles him!\\D")
ShowMessage("Luka takes \\V[26] damage!")
ChangeVariable(27,27,0,3,3,1,2)
If(1,27,0,0,0)
 JumpToLabel("射精1")
 0()
EndIf()
ShowMessageFace("tezcatlipoca_fc1",1,0,2,9)
ShowMessage("\\n<Tezcatlipoca>")
ShowMessage("Time to chew on it~nya. ♪")
250(bytes(0x04,0x08,0x6f,0x3a,0x0c,0x52,0x50,0x47,0x3a,0x3a,0x53,0x45,0x08,0x3a,0x0a,0x40,0x6e,0x61,0x6d,0x65,0x49,0x22,0x13,0x6d,0x6f,0x6e,0x5f,0x65,0x72,0x6f,0x5f,0x62,0x75,0x63,0x68,0x75,0x33,0x06,0x3a,0x06,0x45,0x54,0x3a,0x0b,0x40,0x70,0x69,0x74,0x63,0x68,0x69,0x69,0x3a,0x0c,0x40,0x76,0x6f,0x6c,0x75,0x6d,0x65,0x69,0x69))
PictureDisplay(5,"ev_tezcatlipoca_hb4",0,0,0,0,100,100,255,0)
311(0,1,1,1,26,true)
ShowMessageFace("",0,0,2,10)
ShowMessage("Tezcatlipoca takes his glans into her mouth!")
ShowMessage("She sweetly chews on it!\\D")
ShowMessage("Luka takes \\V[26] damage!")
ChangeVariable(27,27,0,3,3,1,2)
If(1,27,0,0,0)
 JumpToLabel("射精1")
 0()
EndIf()
ShowMessageFace("tezcatlipoca_fc1",1,0,2,11)
ShowMessage("\\n<Tezcatlipoca>")
ShowMessage("Munch munch... ♪")
250(bytes(0x04,0x08,0x6f,0x3a,0x0c,0x52,0x50,0x47,0x3a,0x3a,0x53,0x45,0x08,0x3a,0x0a,0x40,0x6e,0x61,0x6d,0x65,0x49,0x22,0x11,0x6d,0x6f,0x6e,0x5f,0x65,0x72,0x6f,0x5f,0x70,0x79,0x75,0x32,0x06,0x3a,0x06,0x45,0x54,0x3a,0x0b,0x40,0x70,0x69,0x74,0x63,0x68,0x69,0x69,0x3a,0x0c,0x40,0x76,0x6f,0x6c,0x75,0x6d,0x65,0x69,0x69))
311(0,1,1,1,26,true)
ShowMessageFace("",0,0,2,12)
ShowMessage("Her sweet bite continues!")
ShowMessage("Luka's sensitive tip is stimulated by her sweet mouth!\\D")
ShowMessage("Luka takes \\V[26] damage!")
ChangeVariable(27,27,0,3,3,1,2)
If(1,27,0,0,0)
 JumpToLabel("射精1")
 0()
EndIf()
DefineLabel("射精1")
ShowMessageFace("",0,0,2,13)
ShowMessage("\\n<Luka>No, coming... Ahh...")
RunCommonEvent(104)
PictureDisplay(5,"ev_tezcatlipoca_hb7",0,0,0,0,100,100,255,0)
RunCommonEvent(105)
ShowMessageFace("",0,0,2,14)
ShowMessage("As she licks on my penis, I come.")
ShowMessage("My semen shoots out, covering her face and tongue...")
ShowMessageFace("tezcatlipoca_fc1",1,0,2,15)
ShowMessage("\\n<Tezcatlipoca>")
ShowMessage("Unyaaa! You came~nya!")
ShowMessage("Sooo delicious~nya. ♪")
RunCommonEvent(2000)
EndEventProcessing()
DefineLabel("射精2")
ShowMessageFace("",0,0,2,16)
ShowMessage("\\n<Luka>No, coming... Ahh...")
RunCommonEvent(104)
PictureDisplay(5,"ev_tezcatlipoca_hb5",0,0,0,0,100,100,255,0)
RunCommonEvent(105)
ShowMessageFace("",0,0,2,17)
ShowMessage("As she sucks on my tip, I reach my limit.")
ShowMessage("I explode, filling her mouth up with semen.")
ShowMessageFace("tezcatlipoca_fc1",1,0,2,18)
ShowMessage("\\n<Tezcatlipoca>")
ShowMessage("Unyaaa! You came~nya!")
ShowMessage("Sooo delicious~nya. ♪")
RunCommonEvent(2000)
EndEventProcessing()
0()
