// EVENT 7152
Name "Sara: Defeat"

RunCommonEvent(7000)
PictureDisplay(5,"80_sara_st12",0,0,0,0,100,100,255,0)
ShowMessageFace("sara_fc2",1,0,2,1)
ShowMessage("\\n<Sara>Fufu, too bad.\nAre you frustrated at only being able to come in my mouth?")
ShowMessageFace("sara_fc2",1,0,2,2)
ShowMessage("\\n<Sara>If you want to be sucked again, come back some other time.\nI'll suck you dry with this mouth of mine...")
PictureClear(5)
281(1)
If(1,1028,0,7,2)
 TeleportPlayer(0,378,24,10,2,0)
 0()
Else()
 TeleportPlayer(0,633,24,10,2,0)
 0()
EndIf()
241(bytes(0x04,0x08,0x6f,0x3a,0x0d,0x52,0x50,0x47,0x3a,0x3a,0x42,0x47,0x4d,0x08,0x3a,0x0a,0x40,0x6e,0x61,0x6d,0x65,0x49,0x22,0x0c,0x63,0x61,0x73,0x74,0x6c,0x65,0x32,0x06,0x3a,0x06,0x45,0x54,0x3a,0x0c,0x40,0x76,0x6f,0x6c,0x75,0x6d,0x65,0x69,0x69,0x3a,0x0b,0x40,0x70,0x69,0x74,0x63,0x68,0x69,0x69))
EndEventProcessing()
0()
