// EVENT 4476
Name "Elf"

If(0,25,1)
 221()
 PictureClear(5)
 PictureClear(6)
 ShowMessageFace("",0,0,2,0)
 ShowMessage("......")
 242(2)
 Wait(120)
 241(bytes(0x04,0x08,0x6f,0x3a,0x0d,0x52,0x50,0x47,0x3a,0x3a,0x42,0x47,0x4d,0x08,0x3a,0x0a,0x40,0x6e,0x61,0x6d,0x65,0x49,0x22,0x0c,0x63,0x61,0x73,0x74,0x6c,0x65,0x36,0x06,0x3a,0x06,0x45,0x54,0x3a,0x0c,0x40,0x76,0x6f,0x6c,0x75,0x6d,0x65,0x69,0x69,0x3a,0x0b,0x40,0x70,0x69,0x74,0x63,0x68,0x69,0x69))
 EndEventProcessing()
 0()
EndIf()
PictureDisplay(5,"80_elf_st01",0,0,0,0,100,100,255,0)
241(bytes(0x04,0x08,0x6f,0x3a,0x0d,0x52,0x50,0x47,0x3a,0x3a,0x42,0x47,0x4d,0x08,0x3a,0x0a,0x40,0x6e,0x61,0x6d,0x65,0x49,0x22,0x09,0x65,0x72,0x6f,0x31,0x06,0x3a,0x06,0x45,0x54,0x3a,0x0c,0x40,0x76,0x6f,0x6c,0x75,0x6d,0x65,0x69,0x69,0x3a,0x0b,0x40,0x70,0x69,0x74,0x63,0x68,0x69,0x69))
ShowMessageFace("elf_fc1",0,0,2,1)
ShowMessage("\\n<Claudia>You want to have sex with me...?\nWhat are you thinking, asking that to a friend?")
ShowMessageFace("",0,0,2,2)
ShowMessage("\\n<Luka>P-please...")
PictureDisplay(5,"80_elf_st02",0,0,0,0,100,100,255,0)
ShowMessageFace("elf_fc1",1,0,2,3)
ShowMessage("\\n<Claudia>Well, I guess I can be your partner for a short while.\nI'll finish you quickly with my vagina...")
ShowMessageFace("",0,0,2,4)
ShowMessage("Thus, I was invited to Claudia's room...")
221()
PictureDisplay(1,"bg195",0,0,0,0,100,100,255,0)
PictureDisplay(5,"ev_elf_h1",0,0,0,0,100,100,255,0)
222()
241(bytes(0x04,0x08,0x6f,0x3a,0x0d,0x52,0x50,0x47,0x3a,0x3a,0x42,0x47,0x4d,0x08,0x3a,0x0a,0x40,0x6e,0x61,0x6d,0x65,0x49,0x22,0x09,0x65,0x72,0x6f,0x31,0x06,0x3a,0x06,0x45,0x54,0x3a,0x0c,0x40,0x76,0x6f,0x6c,0x75,0x6d,0x65,0x69,0x69,0x3a,0x0b,0x40,0x70,0x69,0x74,0x63,0x68,0x69,0x69))
ShowMessageFace("elf_fc1",1,0,2,5)
ShowMessage("\\n<Claudia>Well then, I will violate you...")
ShowMessageFace("",0,0,2,6)
ShowMessage("Too weak to resist her, Claudia throws me to the ground.")
ShowMessage("Sitting on top of me, she puts the entrance of her vagina right next to my penis.")
ShowMessageFace("",0,0,2,7)
ShowMessage("\\n<Luka>Ah, aaah...")
ShowMessageFace("elf_fc1",1,0,2,8)
ShowMessage("\\n<Claudia>Fufu, a pitiful voice...\nThe moment you taste my vagina, you'll miserably come.") 
PictureDisplay(5,"ev_elf_h2",0,0,0,0,100,100,255,0)
245(bytes(0x04,0x08,0x6f,0x3a,0x0d,0x52,0x50,0x47,0x3a,0x3a,0x42,0x47,0x53,0x08,0x3a,0x0a,0x40,0x6e,0x61,0x6d,0x65,0x49,0x22,0x1e,0x6d,0x6f,0x6e,0x5f,0x68,0x73,0x65,0x61,0x6e,0x30,0x32,0x5f,0x69,0x6e,0x6e,0x65,0x72,0x77,0x6f,0x72,0x6b,0x73,0x5f,0x61,0x32,0x06,0x3a,0x06,0x45,0x54,0x3a,0x0c,0x40,0x76,0x6f,0x6c,0x75,0x6d,0x65,0x69,0x55,0x3a,0x0b,0x40,0x70,0x69,0x74,0x63,0x68,0x69,0x69))
ShowMessageFace("",0,0,2,9)
ShowMessage("Saying that, Claudia forces me all the way inside her!")
ShowMessageFace("",0,0,2,10)
ShowMessage("As soon as I'm inside her, I'm instantly attacked by the feeling of her soft walls!")
ShowMessage("Just like being forced into jelly, her soft walls tighten around me!")
ShowMessageFace("",0,0,2,11)
ShowMessage("The comforting pleasure of being slid inside her vagina makes me moan in pleasure.")
ShowMessage("Warm, sticky liquid starts to flow out from inside of her.")
ShowMessageFace("",0,0,2,12)
ShowMessage("\\n<Luka>Unnngh...!!")
ShowMessageFace("elf_fc1",1,0,2,13)
ShowMessage("\\n<Claudia>Haha... A female elf's genitals are unmatched.")
ShowMessageFace("",0,0,2,14)
ShowMessage("Letting out a sadistic laugh, Claudia looks down at me.")
245(bytes(0x04,0x08,0x6f,0x3a,0x0d,0x52,0x50,0x47,0x3a,0x3a,0x42,0x47,0x53,0x08,0x3a,0x0a,0x40,0x6e,0x61,0x6d,0x65,0x49,0x22,0x1e,0x6d,0x6f,0x6e,0x5f,0x68,0x73,0x65,0x61,0x6e,0x30,0x38,0x5f,0x69,0x6e,0x6e,0x65,0x72,0x77,0x6f,0x72,0x6b,0x73,0x5f,0x61,0x38,0x06,0x3a,0x06,0x45,0x54,0x3a,0x0c,0x40,0x76,0x6f,0x6c,0x75,0x6d,0x65,0x69,0x55,0x3a,0x0b,0x40,0x70,0x69,0x74,0x63,0x68,0x69,0x69))
ShowMessageFace("",0,0,2,15)
ShowMessage("And starts to grind her waist back and forth!")
ShowMessageFace("",0,0,2,16)
ShowMessage("\\n<Luka>Ah... Aaaaaah!!")
ShowMessageFace("",0,0,2,17)
ShowMessage("Erotic sounds fill the room as I'm forced in and out of her.")
ShowMessageFace("",0,0,2,18)
ShowMessage("My penis rubs against the walls in the neck of her vagina,")
ShowMessage("I feel a sense of oppression from glans to my tip...")
ShowMessageFace("elf_fc1",1,0,2,19)
ShowMessage("\\n<Claudia>Hehe... I just moved a little bit\nand you're already moaning that loudly?")
ShowMessageFace("",0,0,2,20)
ShowMessage("While bouncing her waist up and down, she looks at me with a triumphant face.")
ShowMessage("Underneath her, I bite my lip as I try to endure the pleasure.")
ShowMessageFace("",0,0,2,21)
ShowMessage("Mercilessly raping me, I have no way to stop her...")
ShowMessage("All I can do is endure...")
ShowMessageFace("elf_fc1",1,0,2,22)
ShowMessage("\\n<Claudia>Hehe... Are you humiliated?\nIt's pointless to try to endure... There's no escape.")
ShowMessageFace("",0,0,2,23)
ShowMessage("Claudia speeds up her pumping as she states that.")
ShowMessage("Strangled by her amazing pussy, I finally break down and give in.")
ShowMessageFace("",0,0,2,24)
ShowMessage("\\n<Luka>Haaaaaa!\nI'm going to come!")
ShowMessageFace("elf_fc1",1,0,2,25)
ShowMessage("\\n<Claudia>So pathetic! Let it out you wimp!\nI'll squeeze out every drop of your defeat!")
ShowMessageFace("",0,0,2,26)
ShowMessage("As if doing a killing move, the Claudia twists her hips around in a circle.")
ShowMessageFace("",0,0,2,27)
ShowMessage("As the obscene noise echoes through the room, my vision goes white.")
ShowMessageFace("",0,0,2,28)
ShowMessage("\\n<Luka>Ah, aaaaaah!!")
RunCommonEvent(104)
PictureDisplay(5,"ev_elf_h3",0,0,0,0,100,100,255,0)
RunCommonEvent(105)
ShowMessageFace("",0,0,2,29)
ShowMessage("I explode inside of Claudia, as if shooting out a white flag of surrender.")
ShowMessageFace("",0,0,2,30)
ShowMessage("\\n<Luka>Unnngh...")
ShowMessageFace("",0,0,2,31)
ShowMessage("I tremble in pleasure as I ejaculate.")
ShowMessage("In the end, I wasn't able to endure...")
ShowMessageFace("elf_fc1",1,0,2,32)
ShowMessage("\\n<Claudia>Hehe... Was it good?")
ShowMessageFace("",0,0,2,33)
ShowMessage("Claudia looks down at me with a sadistic smile as I bask in the feelings of the humiliating orgasm.")
ShowMessage("While being forced to look at her triumphant face, my ejaculation ends.")
ShowMessageFace("elf_fc1",1,0,2,34)
ShowMessage("\\n<Claudia>How pathetic.\nRaped by a female as you come helplessly.")
ShowMessageFace("elf_fc1",1,0,2,35)
ShowMessage("\\n<Claudia>Even though you're a man, you don't even try to fight back!")
ShowMessageFace("",0,0,2,36)
ShowMessage("As Claudia laughs at me, she starts to move her waist again.")
ShowMessage("Now moving around in a circle, the stimulation is twice as powerful as moments ago.")
ShowMessageFace("",0,0,2,37)
ShowMessage("\\n<Luka>Ah... Aaaaaah!!")
ShowMessageFace("elf_fc1",1,0,2,38)
ShowMessage("\\n<Claudia>Is it really that good?\nHahaha... Crying out in pleasure while being raped! How pathetic!")
ShowMessageFace("",0,0,2,39)
ShowMessage("\\n<Luka>Unnngh...!")
ShowMessageFace("",0,0,2,40)
ShowMessage("Even if I try to endure this, her movements are too intense.")
ShowMessageFace("",0,0,2,41)
ShowMessage("Too weak to move, I can't do anything but be flooded by the pleasure.")
ShowMessageFace("elf_fc1",1,0,2,42)
ShowMessage("\\n<Claudia>Hehe... So miserable.")
ShowMessageFace("",0,0,2,43)
ShowMessage("My penis is being mercilessly tortured by pleasure inside of her.")
ShowMessage("Whenever she stops moving her waist, she tightens around my penis instead.")
ShowMessageFace("",0,0,2,44)
ShowMessage("As her jelly-like walls close tighter around my penis, I can feel every inch of her soft walls.")
ShowMessageFace("",0,0,2,45)
ShowMessage("\\n<Luka>Faaaaa...")
ShowMessageFace("elf_fc1",1,0,2,46)
ShowMessage("\\n<Claudia>Hora, Hora, hora...!\nIt looks like you're going to come again.")
ShowMessageFace("",0,0,2,47)
ShowMessage("While squeezing me even tighter, Claudia starts to make small movements.")
ShowMessage("Squeezed tightly by her pussy, the small movements force pleasure into every inch of my penis.")
ShowMessageFace("elf_fc1",1,0,2,48)
ShowMessage("\\n<Claudia>You look like you're about to come...\nSuch a shameless Hero!")
ShowMessageFace("",0,0,2,49)
ShowMessage("Claudia starts to rhythmically contract her pussy.")
ShowMessage("As if milking me, she starts from the entrance of her pussy and moves all the way to the deepest point.")
ShowMessageFace("",0,0,2,50)
ShowMessage("Instantly cornered by this change in stimulation, I'm forced over the edge.")
ShowMessageFace("",0,0,2,51)
ShowMessage("\\n<Luka>Auu... I'm coming again!")
ShowMessageFace("elf_fc1",1,0,2,52)
ShowMessage("\\n<Claudia>Then I'll finish you...\nHora... Now... Come!")
ShowMessageFace("",0,0,2,53)
ShowMessage("Finishing me off just like she said, she clamps down around every inch of my penis, squeezing me with all her power.")
ShowMessage("Squeezed tighter than ever before, a powerful orgasm blows through my body.")
RunCommonEvent(104)
PictureDisplay(5,"ev_elf_h4",0,0,0,0,100,100,255,0)
RunCommonEvent(105)
ShowMessageFace("",0,0,2,54)
ShowMessage("\\n<Luka>Faaa!")
ShowMessageFace("",0,0,2,55)
ShowMessage("Flooded in ecstasy, I've finally surrendered my body and mind to Claudia.")
ShowMessageFace("",0,0,2,56)
ShowMessage("Broken by the pleasure, I can't think of anything but wanting to feel more of her...")
ShowMessageFace("elf_fc1",1,0,2,57)
ShowMessage("\\n<Claudia>Oh? Did you give in?\nAre you already a slave to my pussy?")
ShowMessageFace("",0,0,2,58)
ShowMessage("The Claudia shakes her waist as a triumphant smile flashes on her face.")
ShowMessageFace("",0,0,2,59)
ShowMessage("\\n<Luka>Ah, aaaah...!")
ShowMessageFace("",0,0,2,60)
ShowMessage("I tremble in joy at the merciless pleasure.")
ShowMessage("Rejoicing inside of her pussy, I accept my new role.")
ShowMessageFace("elf_fc1",1,0,2,61)
ShowMessage("\\n<Claudia>It can't be helped, I guess.\nIf you've become like this again, I have no choice but to take care of you.")
ShowMessageFace("elf_fc1",1,0,2,62)
ShowMessage("\\n<Claudia>Of course, that means you have to satisfy me as well.\nI won't let you go until you are totally enslaved by my rare vagina...")
ShowMessageFace("",0,0,2,63)
ShowMessage("\\n<Luka>Auu... Incredible...\nI'm coming again......")
RunCommonEvent(104)
PictureDisplay(5,"ev_elf_h5",0,0,0,0,100,100,255,0)
RunCommonEvent(105)
ShowMessageFace("",0,0,2,64)
ShowMessage("I come again quickly after my last orgasm.")
ShowMessage("Accepting the pleasure of this humiliation, I immerse myself in the sensations.")
ShowMessageFace("elf_fc1",1,0,2,65)
ShowMessage("\\n<Claudia>I will not let you rest yet.\nHorahorahora...")
ShowMessageFace("",0,0,2,66)
ShowMessage("\\n<Luka>Aaah... That feels so good...")
RunCommonEvent(104)
RunCommonEvent(105)
221()
PictureClear(5)
246(2)
ShowMessageFace("",0,0,2,67)
ShowMessage("Thus, my heart was stolen by Claudia's famous vagina.")
ShowMessage("I might be not able to leave her anymore...")
ShowMessageFace("",0,0,2,68)
ShowMessage("......")
242(2)
Wait(120)
241(bytes(0x04,0x08,0x6f,0x3a,0x0d,0x52,0x50,0x47,0x3a,0x3a,0x42,0x47,0x4d,0x08,0x3a,0x0a,0x40,0x6e,0x61,0x6d,0x65,0x49,0x22,0x0c,0x63,0x61,0x73,0x74,0x6c,0x65,0x36,0x06,0x3a,0x06,0x45,0x54,0x3a,0x0c,0x40,0x76,0x6f,0x6c,0x75,0x6d,0x65,0x69,0x69,0x3a,0x0b,0x40,0x70,0x69,0x74,0x63,0x68,0x69,0x69))
0()
