﻿// EVENT 4546
Name "Lamp Genie 1"

If(0,25,1)
 221()
 PictureClear(5)
 PictureClear(6)
 ShowMessageFace("",0,0,2,0)
 ShowMessage("......")
 242(2)
 Wait(120)
 241(bytes(0x04,0x08,0x6f,0x3a,0x0d,0x52,0x50,0x47,0x3a,0x3a,0x42,0x47,0x4d,0x08,0x3a,0x0a,0x40,0x6e,0x61,0x6d,0x65,0x49,0x22,0x0c,0x63,0x61,0x73,0x74,0x6c,0x65,0x36,0x06,0x3a,0x06,0x45,0x54,0x3a,0x0c,0x40,0x76,0x6f,0x6c,0x75,0x6d,0x65,0x69,0x69,0x3a,0x0b,0x40,0x70,0x69,0x74,0x63,0x68,0x69,0x69))
 EndEventProcessing()
 0()
EndIf()
PictureDisplay(5,"80_lamp_st22",0,0,0,0,100,100,255,0)
ShowMessageFace("lamp_fc1",1,0,2,1)
ShowMessage("\\n<Jeannie>You want to mate with me... Is that your wish?")
ShowMessageFace("",0,0,2,2)
ShowMessage("\\n<Luka>P-please...")
PictureDisplay(5,"80_lamp_st12",0,0,0,0,100,100,255,0)
ShowMessageFace("",0,0,2,3)
ShowMessage("Jeannie's lower body becomes exactly like a human's.\nShe immediately pushes me down and leans over me.")
ShowMessageFace("lamp_fc1",1,0,2,4)
ShowMessage("\\n<Jeannie>Let me grant your wish.\nI will take you to a world full of pleasure...")
241(bytes(0x04,0x08,0x6f,0x3a,0x0d,0x52,0x50,0x47,0x3a,0x3a,0x42,0x47,0x4d,0x08,0x3a,0x0a,0x40,0x6e,0x61,0x6d,0x65,0x49,0x22,0x09,0x65,0x72,0x6f,0x31,0x06,0x3a,0x06,0x45,0x54,0x3a,0x0c,0x40,0x76,0x6f,0x6c,0x75,0x6d,0x65,0x69,0x69,0x3a,0x0b,0x40,0x70,0x69,0x74,0x63,0x68,0x69,0x69))
245(bytes(0x04,0x08,0x6f,0x3a,0x0d,0x52,0x50,0x47,0x3a,0x3a,0x42,0x47,0x53,0x08,0x3a,0x0a,0x40,0x6e,0x61,0x6d,0x65,0x49,0x22,0x1e,0x6d,0x6f,0x6e,0x5f,0x68,0x73,0x65,0x61,0x6e,0x30,0x31,0x5f,0x69,0x6e,0x6e,0x65,0x72,0x77,0x6f,0x72,0x6b,0x73,0x5f,0x61,0x31,0x06,0x3a,0x06,0x45,0x54,0x3a,0x0c,0x40,0x76,0x6f,0x6c,0x75,0x6d,0x65,0x69,0x55,0x3a,0x0b,0x40,0x70,0x69,0x74,0x63,0x68,0x69,0x69))
PictureDisplay(5,"ev_lamp_h1",0,0,0,0,100,100,255,0)
ShowMessageFace("",0,0,2,5)
ShowMessage("In an instant, she drops her waist on me.\nForced into her, Jeannie's soft vagina wraps around me.")
ShowMessageFace("",0,0,2,6)
ShowMessage("With her sticky flesh rubbing against me, I'm instantly intoxicated. Just with insertion, it's already as if I'm in a world of pleasure...")
ShowMessageFace("",0,0,2,7)
ShowMessage("\\n<Luka>Faaa... Too good...")
ShowMessageFace("",0,0,2,8)
ShowMessage("The flesh inside of her starts to slowly wriggle as her sticky honey drips out onto me. Even though it's incredibly tight inside of her, the soft walls conform their shape to match my penis.")
ShowMessageFace("lamp_fc1",1,0,2,9)
ShowMessage("\\n<Jeannie>Shall I send you to heaven now?")
ShowMessageFace("",0,0,2,10)
ShowMessage("Jeannie floats a twisted smile as she starts to move her waist.")
245(bytes(0x04,0x08,0x6f,0x3a,0x0d,0x52,0x50,0x47,0x3a,0x3a,0x42,0x47,0x53,0x08,0x3a,0x0a,0x40,0x6e,0x61,0x6d,0x65,0x49,0x22,0x1e,0x6d,0x6f,0x6e,0x5f,0x68,0x73,0x65,0x61,0x6e,0x30,0x33,0x5f,0x69,0x6e,0x6e,0x65,0x72,0x77,0x6f,0x72,0x6b,0x73,0x5f,0x61,0x33,0x06,0x3a,0x06,0x45,0x54,0x3a,0x0c,0x40,0x76,0x6f,0x6c,0x75,0x6d,0x65,0x69,0x55,0x3a,0x0b,0x40,0x70,0x69,0x74,0x63,0x68,0x69,0x69))
ShowMessageFace("",0,0,2,11)
ShowMessage("At the same time, the walls of her vagina move and vibrate.")
ShowMessageFace("",0,0,2,12)
ShowMessage("\\n<Luka>Aiee!")
ShowMessageFace("",0,0,2,13)
ShowMessage("She tightens around me as she softly grinds against me, strangling my penis with her warm walls.")
ShowMessageFace("",0,0,2,14)
ShowMessage("Jeannie flashes a seductive smile at me as her devilish pussy floods my lower body with ecstasy.")
ShowMessageFace("",0,0,2,15)
ShowMessage("\\n<Luka>Ah... This...is amazing...\nI'm coming! Ahh!")
RunCommonEvent(104)
PictureDisplay(5,"ev_lamp_h2",0,0,0,0,100,100,255,0)
RunCommonEvent(105)
ShowMessageFace("",0,0,2,16)
ShowMessage("In the blink of an eye, I scatter my semen inside of Jeannie's vagina. Since she started to move, it was only around ten seconds...")
ShowMessageFace("",0,0,2,17)
ShowMessage("\\n<Luka>Auu... I already came...")
ShowMessageFace("",0,0,2,18)
ShowMessage("My lips quiver as I feel disgraced at coming so quickly.")
ShowMessageFace("lamp_fc1",1,0,2,19)
ShowMessage("\\n<Jeannie>...Don't be ashamed.\nThere is no man who can withstand my sexual skills.")
ShowMessageFace("lamp_fc1",1,0,2,20)
ShowMessage("\\n<Jeannie>Now... Abandon your pride and drown in my body...")
ShowMessageFace("",0,0,2,21)
ShowMessage("After my ejaculation was finished, she started contracting around my penis in a wave. Deep inside of her, she tightens up.")
ShowMessageFace("",0,0,2,22)
ShowMessage("The tightening continues until it reaches my base, then starts back at the tip. At the same time as her rhythmic tightening, the walls of her pussy wriggle and vibrate.")
ShowMessageFace("",0,0,2,23)
ShowMessage("The combined stimulations quickly cause me to become intoxicated in the pleasure. I've already become addicted to her...")
ShowMessageFace("",0,0,2,24)
ShowMessage("\\n<Luka>Faaa...")
ShowMessageFace("lamp_fc1",1,0,2,25)
ShowMessage("\\n<Jeannie>It feels good, right? Put out everything in me...\nLet out all of your semen without holding anything back...")
ShowMessageFace("",0,0,2,26)
ShowMessage("\\n<Luka>Auuu...")
RunCommonEvent(104)
RunCommonEvent(105)
ShowMessageFace("",0,0,2,27)
ShowMessage("Unable to resist her body, I pour more of the proof of my surrender in her. I'm already drowning in the overpowering pleasure...")
ShowMessageFace("",0,0,2,28)
ShowMessage("\\n<Luka>Faaa... Incredible...")
ShowMessageFace("lamp_fc1",1,0,2,29)
ShowMessage("\\n<Jeannie>Hehehe... Is it unbearable?")
ShowMessageFace("lamp_fc1",1,0,2,30)
ShowMessage("\\n<Jeannie>Shall I make it even better with something more...\nAmazing?")
ShowMessageFace("",0,0,2,31)
ShowMessage("\\n<Luka>Auu... Please...")
ShowMessageFace("",0,0,2,32)
ShowMessage("How can something be better than this...?\nI want to feel it...")
ShowMessageFace("lamp_fc1",1,0,2,33)
ShowMessage("\\n<Jeannie>Well then...")
245(bytes(0x04,0x08,0x6f,0x3a,0x0d,0x52,0x50,0x47,0x3a,0x3a,0x42,0x47,0x53,0x08,0x3a,0x0a,0x40,0x6e,0x61,0x6d,0x65,0x49,0x22,0x1e,0x6d,0x6f,0x6e,0x5f,0x68,0x73,0x65,0x61,0x6e,0x31,0x32,0x5f,0x69,0x6e,0x6e,0x65,0x72,0x77,0x6f,0x72,0x6b,0x73,0x5f,0x63,0x32,0x06,0x3a,0x06,0x45,0x54,0x3a,0x0c,0x40,0x76,0x6f,0x6c,0x75,0x6d,0x65,0x69,0x55,0x3a,0x0b,0x40,0x70,0x69,0x74,0x63,0x68,0x69,0x69))
PictureDisplay(5,"ev_lamp_h3",0,0,0,0,100,100,255,0)
ShowMessageFace("",0,0,2,34)
ShowMessage("Purple smoke covers the bottom half of her body.\nAt the same time, a strange feeling hits the lower half of my body!")
ShowMessageFace("",0,0,2,35)
ShowMessage("\\n<Luka>Auuu!!")
ShowMessageFace("",0,0,2,36)
ShowMessage("A warm, slimy feeling wraps around my penis.\nThe incredible pleasure causes my waist to shake.")
ShowMessageFace("",0,0,2,37)
ShowMessage("\\n<Luka>Auuu... What is this...?\nIt's too good...! Ahhh!")
ShowMessageFace("lamp_fc1",1,0,2,38)
ShowMessage("\\n<Jeannie>Haha... Isn't it wonderful?\nYou'll reach heaven for sure with this...")
ShowMessageFace("",0,0,2,39)
ShowMessage("\\n<Luka>This feels... Incredible...")
ShowMessageFace("",0,0,2,40)
ShowMessage("The soft, slimy feeling covers more of my penis.")
ShowMessageFace("",0,0,2,41)
ShowMessage("No... Not just there...\nThe pleasurable feeling is covering the entire lower half of my body.")
ShowMessageFace("",0,0,2,42)
ShowMessage("I can't see what she's doing because of the purple smoke...\nBut I'm too drunk on the pleasure to care...")
ShowMessageFace("lamp_fc1",1,0,2,43)
ShowMessage("\\n<Jeannie>That's good...\nGive everything to me...")
ShowMessageFace("",0,0,2,44)
ShowMessage("\\n<Luka>Auu... I'm coming!\nAaaah...!!")
RunCommonEvent(104)
PictureDisplay(5,"ev_lamp_h4",0,0,0,0,100,100,255,0)
RunCommonEvent(105)
246(1)
ShowMessageFace("",0,0,2,45)
ShowMessage("Unable to feel anything but the pleasure forced into me, I ejaculate inside of her again.")
ShowMessageFace("",0,0,2,46)
ShowMessage("\\n<Luka>Faaa... Incredible...")
ShowMessageFace("lamp_fc1",1,0,2,47)
ShowMessage("\\n<Jeannie>Fufufu... Do you want to see what I'm doing?\nNow... Take a close look...")
ShowMessageFace("",0,0,2,48)
ShowMessage("\\n<Luka>Eh...?")
PictureDisplay(5,"ev_lamp_h5",0,0,0,0,100,100,255,0)
ShowMessageFace("",0,0,2,49)
ShowMessage("The purple smoke covering her body starts to float away.\nAnd suddenly reveals what's happening!")
ShowMessageFace("",0,0,2,50)
ShowMessage("The lower half of my body is stuck inside of a huge mouth!")
ShowMessageFace("",0,0,2,51)
ShowMessage("\\n<Luka>Uwaaaa!!")
ShowMessageFace("",0,0,2,52)
ShowMessage("The pleasure from before was from this mouth...\nThis thing was what made me come?!")
ShowMessageFace("",0,0,2,53)
ShowMessage("\\n<Luka>Aiee! Get off!")
ShowMessageFace("",0,0,2,54)
ShowMessage("I start to struggle with all of my leftover power.\nBut with my feet already down this monster's throat, my movements don't do anything.")
ShowMessageFace("lamp_fc1",1,0,2,55)
ShowMessage("\\n<Jeannie>Why are you struggling?\nYou looked so happy a few moments ago.")
ShowMessageFace("",0,0,2,56)
ShowMessage("\\n<Luka>Stop... Auu!")
245(bytes(0x04,0x08,0x6f,0x3a,0x0d,0x52,0x50,0x47,0x3a,0x3a,0x42,0x47,0x53,0x08,0x3a,0x0a,0x40,0x6e,0x61,0x6d,0x65,0x49,0x22,0x1e,0x6d,0x6f,0x6e,0x5f,0x68,0x73,0x65,0x61,0x6e,0x31,0x32,0x5f,0x69,0x6e,0x6e,0x65,0x72,0x77,0x6f,0x72,0x6b,0x73,0x5f,0x63,0x32,0x06,0x3a,0x06,0x45,0x54,0x3a,0x0c,0x40,0x76,0x6f,0x6c,0x75,0x6d,0x65,0x69,0x55,0x3a,0x0b,0x40,0x70,0x69,0x74,0x63,0x68,0x69,0x69))
ShowMessageFace("",0,0,2,57)
ShowMessage("The rough tongue starts to lick me all over my lower body.\nAfter tasting my body, the tongue wraps around my penis.")
ShowMessageFace("",0,0,2,58)
ShowMessage("This is the same stimulation I was feeling before in the purple smoke...")
ShowMessageFace("",0,0,2,59)
ShowMessage("This huge tongue...\nDripping with saliva, it tightly wraps around my penis.")
ShowMessageFace("",0,0,2,60)
ShowMessage("\\n<Luka>Ahh... Ahhh!")
ShowMessageFace("",0,0,2,61)
ShowMessage("The pleasure from before attacks me again.\nBut now I know what's really causing it...")
ShowMessageFace("",0,0,2,62)
ShowMessage("Fear and disgust mixes in my body as the tongue attacks me.\nBut held in this giant mouth, I'm completely powerless to escape.")
ShowMessageFace("lamp_fc1",1,0,2,63)
ShowMessage("\\n<Jeannie>This is the payment for your wish...\nAs you wished, I gave you pleasure.")
ShowMessageFace("lamp_fc1",1,0,2,64)
ShowMessage("\\n<Jeannie>As compensation, I get you...")
ShowMessageFace("",0,0,2,65)
ShowMessage("While my body is covered in more saliva, I feel myself slowly being drawn further into her mouth. Each lick of her tongue seems to be pulling me deeper and deeper...")
ShowMessageFace("",0,0,2,66)
ShowMessage("\\n<Luka>Stop... Faaa!")
ShowMessageFace("",0,0,2,67)
ShowMessage("The horrifying pleasure forces me to another height.")
RunCommonEvent(104)
PictureDisplay(5,"ev_lamp_h6",0,0,0,0,100,100,255,0)
RunCommonEvent(105)
ShowMessageFace("",0,0,2,68)
ShowMessage("\\n<Luka>Stop... I don't want this!")
ShowMessageFace("lamp_fc1",1,0,2,69)
ShowMessage("\\n<Jeannie>Teehee... It's pointless even if you beg.\nThere's no escape from me any longer.")
ShowMessageFace("lamp_fc1",1,0,2,70)
ShowMessage("\\n<Jeannie>You need to compensate me for the pleasure I gave.\nYou have no choice but to be eaten by me...")
ShowMessageFace("",0,0,2,71)
ShowMessage("Too weak to resist, I'm slowly forced deeper into her mouth.")
ShowMessageFace("",0,0,2,72)
ShowMessage("I feel her throat wriggling around my feet as it slowly pulls me in.")
ShowMessageFace("",0,0,2,73)
ShowMessage("Covered in saliva, I slip down her throat as she swallows me.")
ShowMessageFace("",0,0,2,74)
ShowMessage("\\n<Luka>Ahh! Stop! Help!")
ShowMessageFace("lamp_fc1",1,0,2,75)
ShowMessage("\\n<Jeannie>Say goodbye to the outside world...\nI'll swallow you whole and send you to heaven!")
ShowMessageFace("",0,0,2,76)
ShowMessage("\\n<Luka>Ah, aaah...")
If(0,95,0)
 246(2)
 221()
 ShowMessageFace("",0,0,2,77)
 ShowMessage("＊＊＊The rest of the vore scene is being skipped.＊＊＊")
 JumpToLabel("zzz")
 0()
EndIf()
PictureDisplay(5,"ev_lamp_h7",0,0,0,0,100,100,255,0)
ShowMessageFace("",0,0,2,78)
ShowMessage("With a final pull, I'm forced all the way inside of her.")
PictureDisplay(6,"ev_lamp_ct01",0,0,0,0,100,100,255,0)
ShowMessageFace("",0,0,2,79)
ShowMessage("Pulled through her narrow throat, I'm forced into her stomach.")
ShowMessageFace("",0,0,2,80)
ShowMessage("\\n<Luka>No... No...")
245(bytes(0x04,0x08,0x6f,0x3a,0x0d,0x52,0x50,0x47,0x3a,0x3a,0x42,0x47,0x53,0x08,0x3a,0x0a,0x40,0x6e,0x61,0x6d,0x65,0x49,0x22,0x1e,0x6d,0x6f,0x6e,0x5f,0x68,0x73,0x65,0x61,0x6e,0x31,0x33,0x5f,0x69,0x6e,0x6e,0x65,0x72,0x77,0x6f,0x72,0x6b,0x73,0x5f,0x63,0x33,0x06,0x3a,0x06,0x45,0x54,0x3a,0x0c,0x40,0x76,0x6f,0x6c,0x75,0x6d,0x65,0x69,0x55,0x3a,0x0b,0x40,0x70,0x69,0x74,0x63,0x68,0x69,0x69))
ShowMessageFace("",0,0,2,81)
ShowMessage("The pink stomach wriggles and vibrates all around me.")
PictureDisplay(6,"ev_lamp_ct02",0,0,0,0,100,100,255,0)
ShowMessageFace("",0,0,2,82)
ShowMessage("Suddenly, digestive juices start to flow out into her stomach.")
ShowMessageFace("",0,0,2,83)
ShowMessage("The warm liquid splashes all over me.\nBut unexpectedly, with the warmth comes an unnatural ecstasy.")
ShowMessageFace("",0,0,2,84)
ShowMessage("\\n<Luka>Faaa...")
ShowMessageFace("",0,0,2,85)
ShowMessage("An artificial ecstasy starts to eat away at my body.\nFor some reason, these hateful juices are forcing my fear to go away.")
ShowMessageFace("",0,0,2,86)
ShowMessage("The strange pleasure finally reaches my groin.")
RunCommonEvent(104)
PictureDisplay(6,"ev_lamp_ct03",0,0,0,0,100,100,255,0)
RunCommonEvent(105)
ShowMessageFace("",0,0,2,87)
ShowMessage("Stuck in her stomach, I'm still being forced to ejaculate...")
ShowMessageFace("",0,0,2,88)
ShowMessage("\\n<Luka>Faa... I came...")
ShowMessageFace("",0,0,2,89)
ShowMessage("My body relaxes even more after that last orgasm.\nUnable to think clearly, I give in to the digestion.")
PictureDisplay(6,"ev_lamp_ct04",0,0,0,0,100,100,255,0)
ShowMessageFace("",0,0,2,90)
ShowMessage("\\n<Luka>Auu... I'm being dissolved...")
ShowMessageFace("",0,0,2,91)
ShowMessage("As the juices cover more of my body, so does the ecstasy.\nIt's as if I'm a baby being comforted in my mother's womb...")
ShowMessageFace("",0,0,2,92)
ShowMessage("This sweet, sweet intoxication is causing both my mind and body to melt.")
ShowMessageFace("",0,0,2,93)
ShowMessage("\\n<Luka>Aaah...")
ShowMessageFace("",0,0,2,94)
ShowMessage("I'm going to slowly dissolve away...\nFor some reason, the thought of being her food is making me happy...")
ShowMessageFace("",0,0,2,95)
ShowMessage("\\n<Luka>Ah...a...")
ShowMessageFace("",0,0,2,96)
ShowMessage("Fully drunk on that fake ecstasy, my body is digested by Jeannie.")
221()
PictureClear(5)
PictureClear(6)
246(2)
ShowMessageFace("",0,0,2,97)
ShowMessage("......")
DefineLabel("zzz")
242(2)
Wait(120)
ChangeVariable(1002,1002,0,0,0)
216(1)
355("forced_transfer(154,18,52)")
355("release_temp_actors")
355("$game_map.screen.clear")
0()
