﻿// EVENT 0804
Name "器速武器"

ChangeVariable(11,11,0,2,1,96)
If(1,11,0,1,0)
 ChangeInventoryWeapon(1001,0,0,1,false)
 EndEventProcessing()
 0()
EndIf()
If(1,11,0,2,0)
 ChangeInventoryWeapon(1002,0,0,1,false)
 EndEventProcessing()
 0()
EndIf()
If(1,11,0,3,0)
 ChangeInventoryWeapon(1003,0,0,1,false)
 EndEventProcessing()
 0()
EndIf()
If(1,11,0,4,0)
 ChangeInventoryWeapon(1004,0,0,1,false)
 EndEventProcessing()
 0()
EndIf()
If(1,11,0,5,0)
 ChangeInventoryWeapon(1005,0,0,1,false)
 EndEventProcessing()
 0()
EndIf()
If(1,11,0,6,0)
 ChangeInventoryWeapon(1006,0,0,1,false)
 EndEventProcessing()
 0()
EndIf()
If(1,11,0,7,0)
 ChangeInventoryWeapon(1011,0,0,1,false)
 EndEventProcessing()
 0()
EndIf()
If(1,11,0,8,0)
 ChangeInventoryWeapon(1012,0,0,1,false)
 EndEventProcessing()
 0()
EndIf()
If(1,11,0,9,0)
 ChangeInventoryWeapon(1013,0,0,1,false)
 EndEventProcessing()
 0()
EndIf()
If(1,11,0,10,0)
 ChangeInventoryWeapon(1014,0,0,1,false)
 EndEventProcessing()
 0()
EndIf()
If(1,11,0,11,0)
 ChangeInventoryWeapon(1015,0,0,1,false)
 EndEventProcessing()
 0()
EndIf()
If(1,11,0,12,0)
 ChangeInventoryWeapon(1016,0,0,1,false)
 EndEventProcessing()
 0()
EndIf()
If(1,11,0,13,0)
 ChangeInventoryWeapon(1351,0,0,1,false)
 EndEventProcessing()
 0()
EndIf()
If(1,11,0,14,0)
 ChangeInventoryWeapon(1352,0,0,1,false)
 EndEventProcessing()
 0()
EndIf()
If(1,11,0,15,0)
 ChangeInventoryWeapon(1353,0,0,1,false)
 EndEventProcessing()
 0()
EndIf()
If(1,11,0,16,0)
 ChangeInventoryWeapon(1354,0,0,1,false)
 EndEventProcessing()
 0()
EndIf()
If(1,11,0,17,0)
 ChangeInventoryWeapon(1355,0,0,1,false)
 EndEventProcessing()
 0()
EndIf()
If(1,11,0,18,0)
 ChangeInventoryWeapon(1356,0,0,1,false)
 EndEventProcessing()
 0()
EndIf()
If(1,11,0,19,0)
 ChangeInventoryWeapon(1361,0,0,1,false)
 EndEventProcessing()
 0()
EndIf()
If(1,11,0,20,0)
 ChangeInventoryWeapon(1362,0,0,1,false)
 EndEventProcessing()
 0()
EndIf()
If(1,11,0,21,0)
 ChangeInventoryWeapon(1363,0,0,1,false)
 EndEventProcessing()
 0()
EndIf()
If(1,11,0,22,0)
 ChangeInventoryWeapon(1364,0,0,1,false)
 EndEventProcessing()
 0()
EndIf()
If(1,11,0,23,0)
 ChangeInventoryWeapon(1365,0,0,1,false)
 EndEventProcessing()
 0()
EndIf()
If(1,11,0,24,0)
 ChangeInventoryWeapon(1366,0,0,1,false)
 EndEventProcessing()
 0()
EndIf()
If(1,11,0,25,0)
 ChangeInventoryWeapon(1651,0,0,1,false)
 EndEventProcessing()
 0()
EndIf()
If(1,11,0,26,0)
 ChangeInventoryWeapon(1652,0,0,1,false)
 EndEventProcessing()
 0()
EndIf()
If(1,11,0,27,0)
 ChangeInventoryWeapon(1653,0,0,1,false)
 EndEventProcessing()
 0()
EndIf()
If(1,11,0,28,0)
 ChangeInventoryWeapon(1654,0,0,1,false)
 EndEventProcessing()
 0()
EndIf()
If(1,11,0,29,0)
 ChangeInventoryWeapon(1655,0,0,1,false)
 EndEventProcessing()
 0()
EndIf()
If(1,11,0,30,0)
 ChangeInventoryWeapon(1656,0,0,1,false)
 EndEventProcessing()
 0()
EndIf()
If(1,11,0,31,0)
 ChangeInventoryWeapon(1657,0,0,1,false)
 EndEventProcessing()
 0()
EndIf()
If(1,11,0,32,0)
 ChangeInventoryWeapon(1658,0,0,1,false)
 EndEventProcessing()
 0()
EndIf()
If(1,11,0,33,0)
 ChangeInventoryWeapon(1659,0,0,1,false)
 EndEventProcessing()
 0()
EndIf()
If(1,11,0,34,0)
 ChangeInventoryWeapon(1660,0,0,1,false)
 EndEventProcessing()
 0()
EndIf()
If(1,11,0,35,0)
 ChangeInventoryWeapon(1661,0,0,1,false)
 EndEventProcessing()
 0()
EndIf()
If(1,11,0,36,0)
 ChangeInventoryWeapon(1662,0,0,1,false)
 EndEventProcessing()
 0()
EndIf()
If(1,11,0,37,0)
 ChangeInventoryWeapon(1751,0,0,1,false)
 EndEventProcessing()
 0()
EndIf()
If(1,11,0,38,0)
 ChangeInventoryWeapon(1752,0,0,1,false)
 EndEventProcessing()
 0()
EndIf()
If(1,11,0,39,0)
 ChangeInventoryWeapon(1753,0,0,1,false)
 EndEventProcessing()
 0()
EndIf()
If(1,11,0,40,0)
 ChangeInventoryWeapon(1754,0,0,1,false)
 EndEventProcessing()
 0()
EndIf()
If(1,11,0,41,0)
 ChangeInventoryWeapon(1755,0,0,1,false)
 EndEventProcessing()
 0()
EndIf()
If(1,11,0,42,0)
 ChangeInventoryWeapon(1756,0,0,1,false)
 EndEventProcessing()
 0()
EndIf()
If(1,11,0,43,0)
 ChangeInventoryWeapon(1757,0,0,1,false)
 EndEventProcessing()
 0()
EndIf()
If(1,11,0,44,0)
 ChangeInventoryWeapon(1758,0,0,1,false)
 EndEventProcessing()
 0()
EndIf()
If(1,11,0,45,0)
 ChangeInventoryWeapon(1759,0,0,1,false)
 EndEventProcessing()
 0()
EndIf()
If(1,11,0,46,0)
 ChangeInventoryWeapon(1760,0,0,1,false)
 EndEventProcessing()
 0()
EndIf()
If(1,11,0,47,0)
 ChangeInventoryWeapon(1761,0,0,1,false)
 EndEventProcessing()
 0()
EndIf()
If(1,11,0,48,0)
 ChangeInventoryWeapon(1762,0,0,1,false)
 EndEventProcessing()
 0()
EndIf()
If(1,11,0,49,0)
 ChangeInventoryWeapon(2551,0,0,1,false)
 EndEventProcessing()
 0()
EndIf()
If(1,11,0,50,0)
 ChangeInventoryWeapon(2552,0,0,1,false)
 EndEventProcessing()
 0()
EndIf()
If(1,11,0,51,0)
 ChangeInventoryWeapon(2553,0,0,1,false)
 EndEventProcessing()
 0()
EndIf()
If(1,11,0,52,0)
 ChangeInventoryWeapon(2554,0,0,1,false)
 EndEventProcessing()
 0()
EndIf()
If(1,11,0,53,0)
 ChangeInventoryWeapon(2555,0,0,1,false)
 EndEventProcessing()
 0()
EndIf()
If(1,11,0,54,0)
 ChangeInventoryWeapon(2556,0,0,1,false)
 EndEventProcessing()
 0()
EndIf()
If(1,11,0,55,0)
 ChangeInventoryWeapon(2561,0,0,1,false)
 EndEventProcessing()
 0()
EndIf()
If(1,11,0,56,0)
 ChangeInventoryWeapon(2562,0,0,1,false)
 EndEventProcessing()
 0()
EndIf()
If(1,11,0,57,0)
 ChangeInventoryWeapon(2563,0,0,1,false)
 EndEventProcessing()
 0()
EndIf()
If(1,11,0,58,0)
 ChangeInventoryWeapon(2564,0,0,1,false)
 EndEventProcessing()
 0()
EndIf()
If(1,11,0,59,0)
 ChangeInventoryWeapon(2565,0,0,1,false)
 EndEventProcessing()
 0()
EndIf()
If(1,11,0,60,0)
 ChangeInventoryWeapon(2566,0,0,1,false)
 EndEventProcessing()
 0()
EndIf()
If(1,11,0,61,0)
 ChangeInventoryWeapon(2651,0,0,1,false)
 EndEventProcessing()
 0()
EndIf()
If(1,11,0,62,0)
 ChangeInventoryWeapon(2652,0,0,1,false)
 EndEventProcessing()
 0()
EndIf()
If(1,11,0,63,0)
 ChangeInventoryWeapon(2653,0,0,1,false)
 EndEventProcessing()
 0()
EndIf()
If(1,11,0,64,0)
 ChangeInventoryWeapon(2654,0,0,1,false)
 EndEventProcessing()
 0()
EndIf()
If(1,11,0,65,0)
 ChangeInventoryWeapon(2655,0,0,1,false)
 EndEventProcessing()
 0()
EndIf()
If(1,11,0,66,0)
 ChangeInventoryWeapon(2656,0,0,1,false)
 EndEventProcessing()
 0()
EndIf()
If(1,11,0,67,0)
 ChangeInventoryWeapon(2661,0,0,1,false)
 EndEventProcessing()
 0()
EndIf()
If(1,11,0,68,0)
 ChangeInventoryWeapon(2662,0,0,1,false)
 EndEventProcessing()
 0()
EndIf()
If(1,11,0,69,0)
 ChangeInventoryWeapon(2663,0,0,1,false)
 EndEventProcessing()
 0()
EndIf()
If(1,11,0,70,0)
 ChangeInventoryWeapon(2664,0,0,1,false)
 EndEventProcessing()
 0()
EndIf()
If(1,11,0,71,0)
 ChangeInventoryWeapon(2665,0,0,1,false)
 EndEventProcessing()
 0()
EndIf()
If(1,11,0,72,0)
 ChangeInventoryWeapon(2666,0,0,1,false)
 EndEventProcessing()
 0()
EndIf()
If(1,11,0,73,0)
 ChangeInventoryWeapon(2851,0,0,1,false)
 EndEventProcessing()
 0()
EndIf()
If(1,11,0,74,0)
 ChangeInventoryWeapon(2852,0,0,1,false)
 EndEventProcessing()
 0()
EndIf()
If(1,11,0,75,0)
 ChangeInventoryWeapon(2853,0,0,1,false)
 EndEventProcessing()
 0()
EndIf()
If(1,11,0,76,0)
 ChangeInventoryWeapon(2854,0,0,1,false)
 EndEventProcessing()
 0()
EndIf()
If(1,11,0,77,0)
 ChangeInventoryWeapon(2855,0,0,1,false)
 EndEventProcessing()
 0()
EndIf()
If(1,11,0,78,0)
 ChangeInventoryWeapon(2856,0,0,1,false)
 EndEventProcessing()
 0()
EndIf()
If(1,11,0,79,0)
 ChangeInventoryWeapon(2861,0,0,1,false)
 EndEventProcessing()
 0()
EndIf()
If(1,11,0,80,0)
 ChangeInventoryWeapon(2862,0,0,1,false)
 EndEventProcessing()
 0()
EndIf()
If(1,11,0,81,0)
 ChangeInventoryWeapon(2863,0,0,1,false)
 EndEventProcessing()
 0()
EndIf()
If(1,11,0,82,0)
 ChangeInventoryWeapon(2864,0,0,1,false)
 EndEventProcessing()
 0()
EndIf()
If(1,11,0,83,0)
 ChangeInventoryWeapon(2865,0,0,1,false)
 EndEventProcessing()
 0()
EndIf()
If(1,11,0,84,0)
 ChangeInventoryWeapon(2866,0,0,1,false)
 EndEventProcessing()
 0()
EndIf()
If(1,11,0,85,0)
 ChangeInventoryWeapon(3751,0,0,1,false)
 EndEventProcessing()
 0()
EndIf()
If(1,11,0,86,0)
 ChangeInventoryWeapon(3752,0,0,1,false)
 EndEventProcessing()
 0()
EndIf()
If(1,11,0,87,0)
 ChangeInventoryWeapon(3753,0,0,1,false)
 EndEventProcessing()
 0()
EndIf()
If(1,11,0,88,0)
 ChangeInventoryWeapon(3754,0,0,1,false)
 EndEventProcessing()
 0()
EndIf()
If(1,11,0,89,0)
 ChangeInventoryWeapon(3755,0,0,1,false)
 EndEventProcessing()
 0()
EndIf()
If(1,11,0,90,0)
 ChangeInventoryWeapon(3756,0,0,1,false)
 EndEventProcessing()
 0()
EndIf()
If(1,11,0,91,0)
 ChangeInventoryWeapon(3761,0,0,1,false)
 EndEventProcessing()
 0()
EndIf()
If(1,11,0,92,0)
 ChangeInventoryWeapon(3762,0,0,1,false)
 EndEventProcessing()
 0()
EndIf()
If(1,11,0,93,0)
 ChangeInventoryWeapon(3763,0,0,1,false)
 EndEventProcessing()
 0()
EndIf()
If(1,11,0,94,0)
 ChangeInventoryWeapon(3764,0,0,1,false)
 EndEventProcessing()
 0()
EndIf()
If(1,11,0,95,0)
 ChangeInventoryWeapon(3765,0,0,1,false)
 EndEventProcessing()
 0()
EndIf()
If(1,11,0,96,0)
 ChangeInventoryWeapon(3766,0,0,1,false)
 EndEventProcessing()
 0()
EndIf()
0()
