// EVENT 5132
Name "Black Golem 2"

PictureDisplay(5,"80_bgolem_st02",0,0,0,0,100,100,0,0)
PictureMove(5,null,0,0,0,0,100,100,255,0,30,true)
ShowMessageFace("bgolem_fc1",1,0,2,1)
ShowMessage("\\n<Maiss>")
ShowMessage("Ahaha, you want me to make you feel good?")
ShowMessageFace("",0,0,2,2)
ShowMessage("\\n<Luka>")
ShowMessage("P-please...")
ShowMessageFace("bgolem_fc1",1,0,2,3)
ShowMessage("\\n<Maiss>")
ShowMessage("Well then, let's do it...♪")
ShowMessageFace("",0,0,2,4)
ShowMessage("Maiss grabs me and tears my clothes off.")
ShowMessage("On her abdomen, a large mouth quickly opens up.")
ShowMessageFace("",0,0,2,5)
ShowMessage("\\n<Luka>")
ShowMessage("W-wait... What...!?")
ShowMessageFace("bgolem_fc1",1,0,2,6)
ShowMessage("\\n<Maiss>")
ShowMessage("A golem is powered by living organisms' energy...")
ShowMessage("We keep the living beings inside our power reactor and squeeze out their semen.")
ShowMessageFace("bgolem_fc1",1,0,2,7)
ShowMessage("\\n<Maiss>")
ShowMessage("You seem to be strong, so I'll be able to squeeze out a lot from you.")
ShowMessage("I'll squeeze you, until you're all dried up...♪")
ShowMessageFace("",0,0,2,8)
ShowMessage("\\n<Luka>")
ShowMessage("S-stop...Aaaaaah...!!")
241(bytes(0x04,0x08,0x6f,0x3a,0x0d,0x52,0x50,0x47,0x3a,0x3a,0x42,0x47,0x4d,0x08,0x3a,0x0a,0x40,0x6e,0x61,0x6d,0x65,0x49,0x22,0x09,0x65,0x72,0x6f,0x31,0x06,0x3a,0x06,0x45,0x54,0x3a,0x0c,0x40,0x76,0x6f,0x6c,0x75,0x6d,0x65,0x69,0x69,0x3a,0x0b,0x40,0x70,0x69,0x74,0x63,0x68,0x69,0x69))
245(bytes(0x04,0x08,0x6f,0x3a,0x0d,0x52,0x50,0x47,0x3a,0x3a,0x42,0x47,0x53,0x08,0x3a,0x0a,0x40,0x6e,0x61,0x6d,0x65,0x49,0x22,0x1e,0x6d,0x6f,0x6e,0x5f,0x68,0x73,0x65,0x61,0x6e,0x31,0x31,0x5f,0x69,0x6e,0x6e,0x65,0x72,0x77,0x6f,0x72,0x6b,0x73,0x5f,0x63,0x31,0x06,0x3a,0x06,0x45,0x54,0x3a,0x0c,0x40,0x76,0x6f,0x6c,0x75,0x6d,0x65,0x69,0x55,0x3a,0x0b,0x40,0x70,0x69,0x74,0x63,0x68,0x69,0x69))
PictureDisplay(5,"ev_bgolem_h1",0,0,0,0,100,100,0,0)
PictureMove(5,null,0,0,0,0,100,100,255,0,30,true)
ShowMessageFace("",0,0,2,9)
ShowMessage("It's as if a snake is swallowing me...")
ShowMessage("She shoves my head inside the mouth in her abdomen.")
ShowMessageFace("",0,0,2,10)
ShowMessage("In an instant, my body is enveloped by a hot slimy feeling.")
ShowMessage("Her soft meat sucks and rubs against my entire upper half.")
ShowMessageFace("",0,0,2,11)
ShowMessage("\\n<Luka>")
ShowMessage("Aaaah... What, is this...")
ShowMessageFace("",0,0,2,12)
ShowMessage("It feels strange, as if I'm sinking in a slimy swamp of wriggling flesh.")
ShowMessage("Energy leaks out from every place that touches her black meat.")
ShowMessageFace("",0,0,2,13)
ShowMessage("While tasting the sweet ecstasy...")
ShowMessage("I feel my energy being drained out of me.")
ShowMessageFace("",0,0,2,14)
ShowMessage("\\n<Luka>")
ShowMessage("Ah... Haaa...")
ShowMessageFace("bgolem_fc1",1,0,2,15)
ShowMessage("\\n<Maiss>")
ShowMessage("Does it feel good to have your energy drained?")
ShowMessage("I should just drag you fully inside my reactor but...")
PictureDisplay(5,"ev_bgolem_h2",0,0,0,0,100,100,255,0)
ShowMessageFace("bgolem_fc1",1,0,2,16)
ShowMessage("\\n<Maiss>")
ShowMessage("...But, why did your penis grow so big?")
ShowMessage("It looks like, you want me to play with it. ♪")
ShowMessageFace("",0,0,2,17)
ShowMessage("Maiss says that happily.")
ShowMessage("Her face approaches my enlarged member...")
PictureDisplay(5,"ev_bgolem_h3",0,0,0,0,100,100,255,0)
ShowMessageFace("bgolem_fc1",1,0,2,18)
ShowMessage("\\n<Maiss>")
ShowMessage("Nn... Mchp ♪")
ShowMessageFace("",0,0,2,19)
ShowMessage("\\n<Luka>")
ShowMessage("A-aaaaau!")
ShowMessageFace("",0,0,2,20)
ShowMessage("Soon after that, my penis is encased in a slippery hot feeling.")
ShowMessage("Maiss puts my penis in her mouth.")
ShowMessageFace("bgolem_fc1",1,0,2,21)
ShowMessage("\\n<Maiss>")
ShowMessage("Before I put you inside my power reactor, I'll make you come once.")
ShowMessage("You should be grateful, this is a special service, just for you~♪")
ShowMessageFace("bgolem_fc1",1,0,2,22)
ShowMessage("\\n<Maiss>")
ShowMessage("Nn...sssspt, chmp...")
ShowMessageFace("",0,0,2,23)
ShowMessage("\\n<Luka>")
ShowMessage("Ah... Auuuuu...!")
ShowMessageFace("",0,0,2,24)
ShowMessage("Her tongue crawls over my penis and all over my glans...")
ShowMessage("Her sweet mouth attacks my penis.")
ShowMessageFace("",0,0,2,25)
ShowMessage("My upper body is also pleasured by the feeling of being drained...")
ShowMessage("I feel myself getting weaker and I can't struggle.")
ShowMessageFace("bgolem_fc1",1,0,2,26)
ShowMessage("\\n<Maiss>")
ShowMessage("Ahaha, how does it feel?")
ShowMessage("I'll suck both the top and the bottom half of your body...chfp, sssspt...")
PictureDisplay(5,"ev_bgolem_h4",0,0,0,0,100,100,255,0)
ShowMessageFace("",0,0,2,27)
ShowMessage("Her sticky meat crawls all over my crotch, slowly wrapping around my waist.")
ShowMessage("After I ejaculate, she'll swallow me just like this in her abdomen...")
ShowMessageFace("",0,0,2,28)
ShowMessage("And I'll be nothing but energy for her power generator.")
ShowMessage("If that happens, she'll squeeze the life out of me...")
ShowMessageFace("",0,0,2,29)
ShowMessage("\\n<Luka>")
ShowMessage("Noo... A-auuuuu...")
ShowMessageFace("",0,0,2,30)
ShowMessage("Even though I know what awaits me, I can only writhe in pleasure.")
ShowMessage("The pleasure I feel makes my whole body melt and prevents me from even struggling...")
ShowMessageFace("bgolem_fc1",1,0,2,31)
ShowMessage("\\n<Maiss>")
ShowMessage("Your penis is twitching... Are you about to come?")
ShowMessage("You're going to shoot out your semen while having your energy drained?")
ShowMessageFace("",0,0,2,32)
ShowMessage("\\n<Luka>")
ShowMessage("Haaaa...")
ShowMessageFace("",0,0,2,33)
ShowMessage("The pleasure and ecstasy are so strong that I can't even reply.")
ShowMessage("A sweet ache spreads all over and I feel the sense of ejaculation rising from the back of my waist.")
ShowMessageFace("bgolem_fc1",1,0,2,34)
ShowMessage("\\n<Maiss>")
ShowMessage("Hora, let it out quickly...!")
ShowMessage("Shhhhlurp!!")
ShowMessageFace("",0,0,2,35)
ShowMessage("\\n<Luka>")
ShowMessage("A-aaaaaah...!!")
ShowMessageFace("",0,0,2,36)
ShowMessage("My hips tremble as a strong sucking attacks my glans.")
ShowMessage("With this sucking, the feeling of release becomes impossible to hold back...")
RunCommonEvent(104)
PictureDisplay(5,"ev_bgolem_h5",0,0,0,0,100,100,255,0)
RunCommonEvent(105)
ShowMessageFace("",0,0,2,37)
ShowMessage("Just like that, I start shooting out my semen.")
ShowMessage("I come in the Maiss' mouth as I taste this sweet feeling of weakness...")
ShowMessageFace("",0,0,2,38)
ShowMessage("\\n<Luka>")
ShowMessage("Auuu...")
ShowMessageFace("bgolem_fc1",1,0,2,39)
ShowMessage("\\n<Maiss>")
ShowMessage("Nn... Gulp, gulp...")
PictureDisplay(5,"ev_bgolem_h6",0,0,0,0,100,100,255,0)
ShowMessageFace("bgolem_fc1",1,0,2,40)
ShowMessage("\\n<Maiss>")
ShowMessage("...Fuu, thanks for the snack. ♪")
ShowMessage("It feels good to drink semen with my mouth directly like this.")
ShowMessageFace("bgolem_fc1",1,0,2,41)
ShowMessage("\\n<Maiss>")
ShowMessage("Well, I did it once...")
ShowMessage("Now come inside my reactor~♪")
ShowMessageFace("",0,0,2,42)
ShowMessage("\\n<Luka>")
ShowMessage("S-stop... Hyaaaa...!!")
PictureDisplay(5,"ev_bgolem_h7",0,0,0,0,100,100,255,0)
ShowMessageFace("",0,0,2,43)
ShowMessage("Her black meat encases even more of my lower body.")
ShowMessage("Like that, she continues to pull my body inside her...")
ShowMessageFace("",0,0,2,44)
ShowMessage("\\n<Luka>")
ShowMessage("N-no way...Aaaah...!")
ShowMessageFace("bgolem_fc1",1,0,2,45)
ShowMessage("\\n<Maiss>")
ShowMessage("Ahaha, come inside.")
ShowMessage("Once you're inside my reactor, you'll drown in ecstasy.")
ShowMessageFace("",0,0,2,46)
ShowMessage("\\n<Luka>")
ShowMessage("Aaaaaah...")
ShowMessageFace("",0,0,2,47)
ShowMessage("My body is pulled inside and swallowed by her power reactor...")
ShowMessage("And...")
221()
PictureClear(5)
PictureClear(6)
ShowMessageFace("",0,0,2,48)
ShowMessage("\\n<Luka>")
ShowMessage("A-aaaaah...")
ShowMessageFace("",0,0,2,49)
ShowMessage("My body sinks in her black undulating meat.")
ShowMessage("Ecstasy instantly erodes away my reasoning and I feel completely weak.")
ShowMessageFace("",0,0,2,50)
ShowMessage("After that, my energy starts being drained...")
ShowMessage("Until I'll dry out into a pitiful corpse...")
ShowMessageFace("",0,0,2,51)
ShowMessage("\\n<Luka>")
ShowMessage("a... a...")
ShowMessageFace("",0,0,2,52)
ShowMessage("In the sweet ecstasy, my consciousness dissolves...")
ShowMessage("All the power in my body is gone...")
246(2)
ShowMessageFace("",0,0,2,53)
ShowMessage("\\n<Luka>")
ShowMessage("............")
ShowMessageFace("",0,0,2,54)
ShowMessage("My energy is finally squeezed out till the last drop.")
ShowMessage("There's nothing left of me but a pitiful corpse inside Maiss' reactor.")
ShowMessageFace("",0,0,2,55)
ShowMessage("...")
RunCommonEvent(3999)
0()
