﻿// EVENT 2135
Name "Seduction: Vetala"

If(0,25,1)
 EndEventProcessing()
 0()
EndIf()
355("$game_troop.lose_event_id = 3135")
ChangeVariable(26,26,0,3,3,1,4)
ChangeVariable(26,26,4,0,10)
ShowMessageFace("vetala_fc1",2,0,2,1)
ShowMessage("\\n<Vetala>Aaah, I've been driven into a corner...\nI wonder if I should beg for my life?")
ShowMessageFace("vetala_fc1",0,0,2,2)
ShowMessage("\\n<Vetala>Hey, boy... Won't you overlook what's happened?\nI'll give you a special reward...♪")
ShowMessageFace("",0,0,2,3)
ShowMessage("Vetala displays her crotch, inviting Luka!\nA hole for insertion resembling a vertical mouth opens up there!")
ChangeSwitch(98,98,0)
ChangeSwitch(96,96,0)
ShowChoices(strings("Ignore her","Give in to temptation"),1)
IfPlayerPicksChoice(0,"Ignore her")
 ShowMessageFace("",0,0,2,4)
 ShowMessage("Luka resists her temptation!")
 RunCommonEvent(1999)
 EndEventProcessing()
 0()
IfPlayerPicksChoice(1,"Give in to temptation")
 0()
404()
ShowMessageFace("vetala_fc1",0,0,2,5)
ShowMessage("\\n<Vetala>That's right, come...")
ShowMessage("Hooora, I welcome you...♪")
ChangeVariable(26,26,3,0,4)
250(bytes(0x04,0x08,0x6f,0x3a,0x0c,0x52,0x50,0x47,0x3a,0x3a,0x53,0x45,0x08,0x3a,0x0a,0x40,0x6e,0x61,0x6d,0x65,0x49,0x22,0x11,0x6d,0x6f,0x6e,0x5f,0x65,0x72,0x6f,0x5f,0x70,0x79,0x75,0x33,0x06,0x3a,0x06,0x45,0x54,0x3a,0x0b,0x40,0x70,0x69,0x74,0x63,0x68,0x69,0x69,0x3a,0x0c,0x40,0x76,0x6f,0x6c,0x75,0x6d,0x65,0x69,0x69))
311(0,1,1,1,26,true)
ShowMessageFace("",0,0,2,6)
ShowMessage("Luka's penis gets trapped inside the mouth on Vetala's crotch! A tongue-like feeling twines around his dick!\\D")
ShowMessage("Luka takes \\V[26] damage!")
ChangeVariable(27,27,0,3,3,1,2)
If(1,27,0,0,0)
 JumpToLabel("射精1")
 0()
EndIf()
ShowMessageFace("vetala_fc1",1,0,2,7)
ShowMessage("\\n<Vetala>Ahaha, you inserted into me. ♪\nI'll provide you with a great service, boy...♪")
250(bytes(0x04,0x08,0x6f,0x3a,0x0c,0x52,0x50,0x47,0x3a,0x3a,0x53,0x45,0x08,0x3a,0x0a,0x40,0x6e,0x61,0x6d,0x65,0x49,0x22,0x16,0x6d,0x6f,0x6e,0x5f,0x65,0x72,0x6f,0x5f,0x6d,0x61,0x6b,0x69,0x74,0x75,0x6b,0x69,0x32,0x06,0x3a,0x06,0x45,0x54,0x3a,0x0b,0x40,0x70,0x69,0x74,0x63,0x68,0x69,0x69,0x3a,0x0c,0x40,0x76,0x6f,0x6c,0x75,0x6d,0x65,0x69,0x69))
311(0,1,1,1,26,true)
ShowMessageFace("",0,0,2,8)
ShowMessage("Vetala's lower mouth sucks on Luka's penis, giving a sweet stimulation! It's as if it was made to suck on his dick!\\D")
ShowMessage("Luka takes \\V[26] damage!")
ChangeVariable(27,27,0,3,3,1,2)
If(1,27,0,0,0)
 JumpToLabel("射精2")
 0()
EndIf()
ShowMessageFace("vetala_fc1",1,0,2,9)
ShowMessage("\\n<Vetala>Now, shoot it out.\nWhile Big Sister sucks on your penis...♪")
250(bytes(0x04,0x08,0x6f,0x3a,0x0c,0x52,0x50,0x47,0x3a,0x3a,0x53,0x45,0x08,0x3a,0x0a,0x40,0x6e,0x61,0x6d,0x65,0x49,0x22,0x16,0x6d,0x6f,0x6e,0x5f,0x65,0x72,0x6f,0x5f,0x6d,0x61,0x6b,0x69,0x74,0x75,0x6b,0x69,0x32,0x06,0x3a,0x06,0x45,0x54,0x3a,0x0b,0x40,0x70,0x69,0x74,0x63,0x68,0x69,0x69,0x3a,0x0c,0x40,0x76,0x6f,0x6c,0x75,0x6d,0x65,0x69,0x69))
311(0,1,1,1,26,true)
ShowMessageFace("",0,0,2,10)
ShowMessage("Vetala's lower mouth greedily sucks on Luka's penis!\nThe sweet, forced stimulation pushes him towards an ejaculation!\\D")
ShowMessage("Luka takes \\V[26] damage!")
ChangeVariable(27,27,0,3,3,1,2)
If(1,27,0,0,0)
 JumpToLabel("射精2")
 0()
EndIf()
DefineLabel("射精1")
ShowMessageFace("",0,0,2,11)
ShowMessage("\\n<Luka>Wh-what is this... Aaah...!")
RunCommonEvent(104)
RunCommonEvent(105)
ShowMessageFace("",0,0,2,12)
ShowMessage("A warm, swelling feeling wraps around my penis.\nThe overwhelming pleasure causes me to accidentally ejaculate instantly.")
ShowMessageFace("vetala_fc1",0,0,2,13)
ShowMessage("\\n<Vetala>You came already...?\nHow pathetic, boy...♪")
RunCommonEvent(2000)
EndEventProcessing()
DefineLabel("射精2")
ShowMessageFace("",0,0,2,14)
ShowMessage("\\n<Luka>Th-this is... Aaaah...!")
RunCommonEvent(104)
RunCommonEvent(105)
ShowMessageFace("",0,0,2,15)
ShowMessage("My penis is stimulated by her determined sucking while caught in her lower mouth. The overwhelming pleasure causes me to miserably ejaculate.")
ShowMessageFace("vetala_fc1",1,0,2,16)
ShowMessage("\\n<Vetala>You let out a lot in my lower mouth...\nI hope it felt good, boy...♪")
RunCommonEvent(2000)
EndEventProcessing()
0()
