// EVENT 7182
Name "Witch: Match"

ShowMessageFace("mob_majyo1_fc1",0,0,2,1)
ShowMessage("\\n<Witchy>Let's get started, then. I'll squeeze it all out!")
ChangeSwitch(96,96,0)
ChangeSwitch(98,98,0)
ShowMessageFace("mob_majyo1_fc1",0,0,2,2)
ShowMessage("\\n<Witchy>Hihihi, first I need to make it big. I'll use my hands for that.")
250(bytes(0x04,0x08,0x6f,0x3a,0x0c,0x52,0x50,0x47,0x3a,0x3a,0x53,0x45,0x08,0x3a,0x0a,0x40,0x6e,0x61,0x6d,0x65,0x49,0x22,0x12,0x6d,0x6f,0x6e,0x5f,0x65,0x72,0x6f,0x5f,0x6b,0x6f,0x6b,0x69,0x31,0x06,0x3a,0x06,0x45,0x54,0x3a,0x0b,0x40,0x70,0x69,0x74,0x63,0x68,0x69,0x69,0x3a,0x0c,0x40,0x76,0x6f,0x6c,0x75,0x6d,0x65,0x69,0x69))
PictureDisplay(5,"80_mob_majyo1_st01",0,0,-190,0,100,100,255,0)
PictureDisplay(6,"ev_mob_majyo1_ct21",0,0,240,50,100,100,255,0)
ChangeVariable(11,11,0,2,82,88)
311(0,1,1,1,11,true)
ShowMessageFace("",0,0,2,3)
ShowMessage("Witchy casually reaches towards my cock. Her palm feels soft and warm as it envelops my penis.\\D")
ShowMessage("Luka takes \\V[11] damage!")
ChangeVariable(27,27,0,3,3,1,2)
If(1,27,0,0,0)
 RunCommonEvent(7185)
 EndEventProcessing()
 0()
EndIf()
250(bytes(0x04,0x08,0x6f,0x3a,0x0c,0x52,0x50,0x47,0x3a,0x3a,0x53,0x45,0x08,0x3a,0x0a,0x40,0x6e,0x61,0x6d,0x65,0x49,0x22,0x12,0x6d,0x6f,0x6e,0x5f,0x65,0x72,0x6f,0x5f,0x6b,0x6f,0x6b,0x69,0x31,0x06,0x3a,0x06,0x45,0x54,0x3a,0x0b,0x40,0x70,0x69,0x74,0x63,0x68,0x69,0x69,0x3a,0x0c,0x40,0x76,0x6f,0x6c,0x75,0x6d,0x65,0x69,0x69))
ChangeVariable(11,11,0,2,82,88)
311(0,1,1,1,11,true)
ShowMessageFace("",0,0,2,4)
ShowMessage("Witchy quickly moves her hand up and down the shaft. Her fingers glide and bump over the glans, and it stiffens!\\D")
ShowMessage("Luka takes \\V[11] damage!")
ChangeVariable(27,27,0,3,3,1,2)
If(1,27,0,0,0)
 RunCommonEvent(7185)
 EndEventProcessing()
 0()
EndIf()
ShowMessageFace("mob_majyo1_fc1",0,0,2,5)
ShowMessage("\\n<Witchy>All right, it got bigger! Well then, it's about time for you to come.")
PictureDisplay(6,"ev_mob_majyo1_h1",0,0,0,0,100,100,255,0)
250(bytes(0x04,0x08,0x6f,0x3a,0x0c,0x52,0x50,0x47,0x3a,0x3a,0x53,0x45,0x08,0x3a,0x0a,0x40,0x6e,0x61,0x6d,0x65,0x49,0x22,0x12,0x6d,0x6f,0x6e,0x5f,0x65,0x72,0x6f,0x5f,0x6b,0x6f,0x6b,0x69,0x31,0x06,0x3a,0x06,0x45,0x54,0x3a,0x0b,0x40,0x70,0x69,0x74,0x63,0x68,0x69,0x69,0x3a,0x0c,0x40,0x76,0x6f,0x6c,0x75,0x6d,0x65,0x69,0x69))
ChangeVariable(11,11,0,2,82,88)
311(0,1,1,1,11,true)
ShowMessageFace("",0,0,2,6)
ShowMessage("Witchy suddenly brings her feet up, wrapping them around my shaft, now wet with precum.\\D")
ShowMessage("Luka takes \\V[11] damage!")
ChangeVariable(27,27,0,3,3,1,2)
If(1,27,0,0,0)
 RunCommonEvent(7186)
 EndEventProcessing()
 0()
EndIf()
ShowMessageFace("mob_majyo1_fc1",0,0,2,7)
ShowMessage("\\n<Witchy>I haven't met any man who can endure my ten little toes!")
250(bytes(0x04,0x08,0x6f,0x3a,0x0c,0x52,0x50,0x47,0x3a,0x3a,0x53,0x45,0x08,0x3a,0x0a,0x40,0x6e,0x61,0x6d,0x65,0x49,0x22,0x12,0x6d,0x6f,0x6e,0x5f,0x65,0x72,0x6f,0x5f,0x6b,0x6f,0x6b,0x69,0x31,0x06,0x3a,0x06,0x45,0x54,0x3a,0x0b,0x40,0x70,0x69,0x74,0x63,0x68,0x69,0x69,0x3a,0x0c,0x40,0x76,0x6f,0x6c,0x75,0x6d,0x65,0x69,0x69))
ChangeVariable(11,11,0,2,82,88)
311(0,1,1,1,11,true)
ShowMessageFace("",0,0,2,8)
ShowMessage("Witchy grasps my penis between her feet. Her soft soles feel amazing!\\D")
ShowMessage("Luka takes \\V[11] damage!")
ChangeVariable(27,27,0,3,3,1,2)
If(1,27,0,0,0)
 RunCommonEvent(7186)
 EndEventProcessing()
 0()
EndIf()
ShowMessageFace("mob_majyo1_fc1",0,0,2,9)
ShowMessage("\\n<Witchy>Do you actually like my feet on your penis? They'll make you squirm, hehehe!")
250(bytes(0x04,0x08,0x6f,0x3a,0x0c,0x52,0x50,0x47,0x3a,0x3a,0x53,0x45,0x08,0x3a,0x0a,0x40,0x6e,0x61,0x6d,0x65,0x49,0x22,0x12,0x6d,0x6f,0x6e,0x5f,0x65,0x72,0x6f,0x5f,0x6b,0x6f,0x6b,0x69,0x31,0x06,0x3a,0x06,0x45,0x54,0x3a,0x0b,0x40,0x70,0x69,0x74,0x63,0x68,0x69,0x69,0x3a,0x0c,0x40,0x76,0x6f,0x6c,0x75,0x6d,0x65,0x69,0x69))
ChangeVariable(11,11,0,2,82,88)
311(0,1,1,1,11,true)
ShowMessageFace("",0,0,2,10)
ShowMessage("Witchy suddenly squeezes my cock hard between both her feet!\\D")
ShowMessage("Luka takes \\V[11] damage!")
ChangeVariable(27,27,0,3,3,1,2)
If(1,27,0,0,0)
 RunCommonEvent(7186)
 EndEventProcessing()
 0()
EndIf()
If(1,27,0,425,4)
 ShowMessageFace("ruka_fc1",0,0,2,11)
 ShowMessage("\\n<Luka>Ah, aaaah...")
 ShowMessageFace("mob_majyo1_fc1",0,0,2,12)
 ShowMessage("\\n<Witchy>Hehehe, you can't stand it any longer, can you? You'll end up coming on my feet at this rate...")
 0()
Else()
 ShowMessageFace("mob_majyo1_fc1",0,0,2,13)
 ShowMessage("\\n<Witchy>Is your stamina running out yet? Well, I'll torture you more, then!")
 0()
EndIf()
250(bytes(0x04,0x08,0x6f,0x3a,0x0c,0x52,0x50,0x47,0x3a,0x3a,0x53,0x45,0x08,0x3a,0x0a,0x40,0x6e,0x61,0x6d,0x65,0x49,0x22,0x12,0x6d,0x6f,0x6e,0x5f,0x65,0x72,0x6f,0x5f,0x6b,0x6f,0x6b,0x69,0x31,0x06,0x3a,0x06,0x45,0x54,0x3a,0x0b,0x40,0x70,0x69,0x74,0x63,0x68,0x69,0x69,0x3a,0x0c,0x40,0x76,0x6f,0x6c,0x75,0x6d,0x65,0x69,0x69))
ChangeVariable(11,11,0,2,82,88)
311(0,1,1,1,11,true)
ShowMessageFace("",0,0,2,14)
ShowMessage("Witchy squeezes it as hard as she can with her heels! My trapped penis is blissfully stimulated by the increased pressure!\\D")
ShowMessage("Luka takes \\V[11] damage!")
ChangeVariable(27,27,0,3,3,1,2)
If(1,27,0,0,0)
 RunCommonEvent(7186)
 EndEventProcessing()
 0()
EndIf()
250(bytes(0x04,0x08,0x6f,0x3a,0x0c,0x52,0x50,0x47,0x3a,0x3a,0x53,0x45,0x08,0x3a,0x0a,0x40,0x6e,0x61,0x6d,0x65,0x49,0x22,0x12,0x6d,0x6f,0x6e,0x5f,0x65,0x72,0x6f,0x5f,0x6b,0x6f,0x6b,0x69,0x31,0x06,0x3a,0x06,0x45,0x54,0x3a,0x0b,0x40,0x70,0x69,0x74,0x63,0x68,0x69,0x69,0x3a,0x0c,0x40,0x76,0x6f,0x6c,0x75,0x6d,0x65,0x69,0x69))
ChangeVariable(11,11,0,2,82,88)
311(0,1,1,1,11,true)
ShowMessageFace("",0,0,2,15)
ShowMessage("Witchy's feet skillfully maneuver and wrap around the shaft. Her soft soles gently compress and contract, slowly bringing me closer to the edge...\\D")
ShowMessage("Luka takes \\V[11] damage!")
ChangeVariable(27,27,0,3,3,1,2)
If(1,27,0,0,0)
 RunCommonEvent(7186)
 EndEventProcessing()
 0()
EndIf()
ShowMessageFace("mob_majyo1_fc1",0,0,2,16)
ShowMessage("\\n<Witchy>I'll finish you now! Let's see if you can bear my toes wrapped around the tip!")
250(bytes(0x04,0x08,0x6f,0x3a,0x0c,0x52,0x50,0x47,0x3a,0x3a,0x53,0x45,0x08,0x3a,0x0a,0x40,0x6e,0x61,0x6d,0x65,0x49,0x22,0x12,0x6d,0x6f,0x6e,0x5f,0x65,0x72,0x6f,0x5f,0x6b,0x6f,0x6b,0x69,0x31,0x06,0x3a,0x06,0x45,0x54,0x3a,0x0b,0x40,0x70,0x69,0x74,0x63,0x68,0x69,0x69,0x3a,0x0c,0x40,0x76,0x6f,0x6c,0x75,0x6d,0x65,0x69,0x69))
ChangeVariable(11,11,0,2,82,88)
311(0,1,1,1,11,true)
ShowMessageFace("",0,0,2,17)
ShowMessage("Witchy expertly wiggles her cute toes, while still keeping the shaft between her soles! They tickle and gently squeeze the head of my penis...\\D")
ShowMessage("Luka takes \\V[11] damage!")
ChangeVariable(27,27,0,3,3,1,2)
If(1,27,0,0,0)
 RunCommonEvent(7186)
 EndEventProcessing()
 0()
EndIf()
ShowMessageFace("mob_majyo1_fc1",0,0,2,18)
ShowMessage("\\n<Witchy>All right, you're off to a good start. Can you take any more of my toes?")
250(bytes(0x04,0x08,0x6f,0x3a,0x0c,0x52,0x50,0x47,0x3a,0x3a,0x53,0x45,0x08,0x3a,0x0a,0x40,0x6e,0x61,0x6d,0x65,0x49,0x22,0x12,0x6d,0x6f,0x6e,0x5f,0x65,0x72,0x6f,0x5f,0x6b,0x6f,0x6b,0x69,0x31,0x06,0x3a,0x06,0x45,0x54,0x3a,0x0b,0x40,0x70,0x69,0x74,0x63,0x68,0x69,0x69,0x3a,0x0c,0x40,0x76,0x6f,0x6c,0x75,0x6d,0x65,0x69,0x69))
ChangeVariable(11,11,0,2,82,88)
311(0,1,1,1,11,true)
ShowMessageFace("",0,0,2,19)
ShowMessage("Witchy's toes continue to dance around the tip of my penis! They feel amazing as she gradually tightens her soles around the shaft.\\D")
ShowMessage("Luka takes \\V[11] damage!")
ChangeVariable(27,27,0,3,3,1,2)
If(1,27,0,0,0)
 RunCommonEvent(7186)
 EndEventProcessing()
 0()
EndIf()
ShowMessageFace("mob_majyo1_fc1",0,0,2,20)
ShowMessage("\\n<Witchy>Come quickly! Finish shamefully on my feet!")
250(bytes(0x04,0x08,0x6f,0x3a,0x0c,0x52,0x50,0x47,0x3a,0x3a,0x53,0x45,0x08,0x3a,0x0a,0x40,0x6e,0x61,0x6d,0x65,0x49,0x22,0x12,0x6d,0x6f,0x6e,0x5f,0x65,0x72,0x6f,0x5f,0x6b,0x6f,0x6b,0x69,0x31,0x06,0x3a,0x06,0x45,0x54,0x3a,0x0b,0x40,0x70,0x69,0x74,0x63,0x68,0x69,0x69,0x3a,0x0c,0x40,0x76,0x6f,0x6c,0x75,0x6d,0x65,0x69,0x69))
ChangeVariable(11,11,0,2,82,88)
311(0,1,1,1,11,true)
ShowMessageFace("",0,0,2,21)
ShowMessage("Witchy's toes quickly knead and massage the head of my penis while she jacks me off with her soles at the same time!\\D")
ShowMessage("Luka takes \\V[11] damage!")
ChangeVariable(27,27,0,3,3,1,2)
If(1,27,0,0,0)
 RunCommonEvent(7186)
 EndEventProcessing()
 0()
EndIf()
RunCommonEvent(7184)
EndEventProcessing()
0()
