// EVENT 2004
Name "Seduction: Slug Girl"

If(0,25,1)
 EndEventProcessing()
 0()
EndIf()
355("$game_troop.lose_event_id = 3004")
ChangeVariable(26,26,0,3,3,1,4)
ChangeVariable(26,26,4,0,10)
ShowMessageFace("name_fc1",0,0,2,1)
ShowMessage("\\n<Slug Girl>At this rate, I'll lose...\nCould you let me go? I'll service you.")
ShowMessageFace("",0,0,2,2)
ShowMessage("The Slug Girl is sneaking closer.")
355("battler_graphic_hide")
PictureDisplay(5,"ev_name_ct01",0,0,0,0,100,100,0,0)
PictureMove(5,null,0,0,0,0,100,100,255,0,60,true)
ShowMessageFace("name_fc1",0,0,2,3)
ShowMessage("\\n<Slug Girl>Doesn't my dripping tongue entice you?\nIf you want, I can coil it around your penis...")
ChangeSwitch(98,98,0)
ChangeSwitch(96,96,0)
ShowChoices(strings("Ignore her","Get a lick"),1)
IfPlayerPicksChoice(0,"Ignore her")
 ShowMessageFace("",0,0,2,4)
 ShowMessage("Luka resists her temptation!")
 RunCommonEvent(1999)
 EndEventProcessing()
 0()
IfPlayerPicksChoice(1,"Get a lick")
 0()
404()
ShowMessageFace("name_fc1",0,0,2,5)
ShowMessage("\\n<Slug Girl>So you want me to lick you...\nThen... *lick*")
250(bytes(0x04,0x08,0x6f,0x3a,0x0c,0x52,0x50,0x47,0x3a,0x3a,0x53,0x45,0x08,0x3a,0x0a,0x40,0x6e,0x61,0x6d,0x65,0x49,0x22,0x11,0x6d,0x6f,0x6e,0x5f,0x65,0x72,0x6f,0x5f,0x70,0x79,0x75,0x31,0x06,0x3a,0x06,0x45,0x54,0x3a,0x0b,0x40,0x70,0x69,0x74,0x63,0x68,0x69,0x69,0x3a,0x0c,0x40,0x76,0x6f,0x6c,0x75,0x6d,0x65,0x69,0x69))
311(0,1,1,1,26,true)
ShowMessageFace("",0,0,2,6)
ShowMessage("The Slug Girl sticks her tongue, dripping with threads of mucus, to Luka's glans!")
ShowMessage("Then, moving like a slug, her tongue licks the underside of his glans!\\D")
ShowMessage("Luka takes \\V[26] damage!")
ChangeVariable(27,27,0,3,3,1,2)
If(1,27,0,0,0)
 JumpToLabel("射精1")
 0()
EndIf()
ShowMessageFace("",0,0,2,7)
ShowMessage("\\n<Luka>Aaah! It's so slimy!")
ShowMessageFace("name_fc1",0,0,2,8)
ShowMessage("\\n<Slug Girl>It feels good, right?\n*lick* *lick* *slurp*")
250(bytes(0x04,0x08,0x6f,0x3a,0x0c,0x52,0x50,0x47,0x3a,0x3a,0x53,0x45,0x08,0x3a,0x0a,0x40,0x6e,0x61,0x6d,0x65,0x49,0x22,0x11,0x6d,0x6f,0x6e,0x5f,0x65,0x72,0x6f,0x5f,0x70,0x79,0x75,0x32,0x06,0x3a,0x06,0x45,0x54,0x3a,0x0b,0x40,0x70,0x69,0x74,0x63,0x68,0x69,0x69,0x3a,0x0c,0x40,0x76,0x6f,0x6c,0x75,0x6d,0x65,0x69,0x69))
311(0,1,1,1,26,true)
ShowMessageFace("",0,0,2,9)
ShowMessage("The Slug Girl's tongue is slowly coating the surface of Luka's glans!")
ShowMessage("The viscous threads produced feel slimy!\\D")
ShowMessage("Luka takes \\V[26] damage!")
ChangeVariable(27,27,0,3,3,1,2)
If(1,27,0,0,0)
 JumpToLabel("射精1")
 0()
EndIf()
ShowMessageFace("",0,0,2,10)
ShowMessage("\\n<Luka>Haaa... It's good...")
ShowMessageFace("name_fc1",0,0,2,11)
ShowMessage("\\n<Slug Girl>Are you okay with just licking?\nDon't you want me to wrap it with my tongue?")
ShowMessageFace("name_fc1",0,0,2,12)
ShowMessage("\\n<Slug Girl>Stay still just a little longer...\nand I'll roll my sticky tongue around your glans.")
ShowChoices(strings("Resist her temptation","Let her continue"),1)
IfPlayerPicksChoice(0,"Resist her temptation")
 ShowMessageFace("",0,0,2,13)
 ShowMessage("Luka resists her temptation!")
 RunCommonEvent(1999)
 EndEventProcessing()
 0()
IfPlayerPicksChoice(1,"Let her continue")
 0()
404()
ShowMessageFace("",0,0,2,14)
ShowMessage("Luka lets her do what she wants.")
ShowMessageFace("name_fc1",3,0,2,15)
ShowMessage("\\n<Slug Girl>I see you're not resisting. Now...")
250(bytes(0x04,0x08,0x6f,0x3a,0x0c,0x52,0x50,0x47,0x3a,0x3a,0x53,0x45,0x08,0x3a,0x0a,0x40,0x6e,0x61,0x6d,0x65,0x49,0x22,0x12,0x6d,0x6f,0x6e,0x5f,0x65,0x72,0x6f,0x5f,0x6e,0x61,0x6d,0x65,0x32,0x06,0x3a,0x06,0x45,0x54,0x3a,0x0b,0x40,0x70,0x69,0x74,0x63,0x68,0x69,0x69,0x3a,0x0c,0x40,0x76,0x6f,0x6c,0x75,0x6d,0x65,0x69,0x69))
PictureDisplay(5,"ev_name_hb01",0,0,0,0,100,100,255,0)
ShowMessageFace("",0,0,2,16)
ShowMessage("The Slug Girl pushes Luka down and leans on him!")
ShowMessage("Luka is being restrained!")
ShowMessageFace("",0,0,2,17)
ShowMessage("\\n<Luka>Ugh!")
ShowMessageFace("name_fc1",3,0,2,18)
ShowMessage("\\n<Slug Girl>Even my simply mounting you feels good, don't you think?\nAs promised, I'll make your penis all slippery...")
ChangeVariable(26,26,3,0,2)
250(bytes(0x04,0x08,0x6f,0x3a,0x0c,0x52,0x50,0x47,0x3a,0x3a,0x53,0x45,0x08,0x3a,0x0a,0x40,0x6e,0x61,0x6d,0x65,0x49,0x22,0x11,0x6d,0x6f,0x6e,0x5f,0x65,0x72,0x6f,0x5f,0x70,0x79,0x75,0x32,0x06,0x3a,0x06,0x45,0x54,0x3a,0x0b,0x40,0x70,0x69,0x74,0x63,0x68,0x69,0x69,0x3a,0x0c,0x40,0x76,0x6f,0x6c,0x75,0x6d,0x65,0x69,0x69))
311(0,1,1,1,26,true)
PictureDisplay(5,"ev_name_hb06",0,0,0,0,100,100,255,0)
ShowMessageFace("",0,0,2,19)
ShowMessage("The Slug Girl's tongue grows longer and ensnares the head of Luka's penis!")
ShowMessage("Crawling slowly, it twines around his member!\\D")
ShowMessage("Luka takes \\V[26] damage!")
ChangeVariable(27,27,0,3,3,1,2)
If(1,27,0,0,0)
 JumpToLabel("射精2")
 0()
EndIf()
ShowMessageFace("name_fc1",3,0,2,20)
ShowMessage("\\n<Slug Girl>*lick* *slurp*")
250(bytes(0x04,0x08,0x6f,0x3a,0x0c,0x52,0x50,0x47,0x3a,0x3a,0x53,0x45,0x08,0x3a,0x0a,0x40,0x6e,0x61,0x6d,0x65,0x49,0x22,0x11,0x6d,0x6f,0x6e,0x5f,0x65,0x72,0x6f,0x5f,0x70,0x79,0x75,0x32,0x06,0x3a,0x06,0x45,0x54,0x3a,0x0b,0x40,0x70,0x69,0x74,0x63,0x68,0x69,0x69,0x3a,0x0c,0x40,0x76,0x6f,0x6c,0x75,0x6d,0x65,0x69,0x69))
311(0,1,1,1,26,true)
ShowMessageFace("",0,0,2,21)
ShowMessage("The dripping tongue slowly wraps around Luka's glans!")
ShowMessage("As it's subjected to a slippery feeling, it gets completely engulfed!\\D")
ShowMessage("Luka takes \\V[26] damage!")
ChangeVariable(27,27,0,3,3,1,2)
If(1,27,0,0,0)
 JumpToLabel("射精2")
 0()
EndIf()
ShowMessageFace("name_fc1",3,0,2,22)
ShowMessage("\\n<Slug Girl>I'll tease your penis with my slimy tongue.\nSo just spurt out your white stuff for me...")
ShowChoices(strings("Struggle","Let her continue"),2)
IfPlayerPicksChoice(0,"Struggle")
 ShowMessageFace("",0,0,2,23)
 ShowMessage("Luka struggles violently!")
 ShowMessage("However, the Slug Girl holds him down!")
 ShowMessageFace("name_fc1",3,0,2,24)
 ShowMessage("\\n<Slug Girl>Oh no, you won't escape...\nCome while you experience my slimy body...")
 0()
IfPlayerPicksChoice(1,"Let her continue")
 ShowMessageFace("",0,0,2,25)
 ShowMessage("Luka lets her do what she wants.")
 ShowMessageFace("name_fc1",3,0,2,26)
 ShowMessage("\\n<Slug Girl>Fufu! You resigned yourself...\nCome while you experience my slimy body...")
 0()
404()
250(bytes(0x04,0x08,0x6f,0x3a,0x0c,0x52,0x50,0x47,0x3a,0x3a,0x53,0x45,0x08,0x3a,0x0a,0x40,0x6e,0x61,0x6d,0x65,0x49,0x22,0x11,0x6d,0x6f,0x6e,0x5f,0x65,0x72,0x6f,0x5f,0x70,0x79,0x75,0x32,0x06,0x3a,0x06,0x45,0x54,0x3a,0x0b,0x40,0x70,0x69,0x74,0x63,0x68,0x69,0x69,0x3a,0x0c,0x40,0x76,0x6f,0x6c,0x75,0x6d,0x65,0x69,0x69))
311(0,1,1,1,26,true)
ShowMessageFace("",0,0,2,27)
ShowMessage("Her tongue carefully crawls around Luka's glans. Its surface is getting completely swallowed!")
ShowMessage("Luka's whole glans has been wrapped up by her slimy tongue!\\D")
ShowMessage("Luka takes \\V[26] damage!")
ChangeVariable(27,27,0,3,3,1,2)
If(1,27,0,0,0)
 JumpToLabel("射精2")
 0()
EndIf()
ShowMessageFace("name_fc1",3,0,2,28)
ShowMessage("\\n<Slug Girl>I'll finish you now... come...\n *slurp* *slurp*")
250(bytes(0x04,0x08,0x6f,0x3a,0x0c,0x52,0x50,0x47,0x3a,0x3a,0x53,0x45,0x08,0x3a,0x0a,0x40,0x6e,0x61,0x6d,0x65,0x49,0x22,0x16,0x6d,0x6f,0x6e,0x5f,0x65,0x72,0x6f,0x5f,0x6d,0x61,0x6b,0x69,0x74,0x75,0x6b,0x69,0x32,0x06,0x3a,0x06,0x45,0x54,0x3a,0x0b,0x40,0x70,0x69,0x74,0x63,0x68,0x69,0x69,0x3a,0x0c,0x40,0x76,0x6f,0x6c,0x75,0x6d,0x65,0x69,0x69))
311(0,1,1,1,26,true)
ShowMessageFace("",0,0,2,29)
ShowMessage("The tongue wrapped around the head of Luka's penis rolls, making wet noises!")
ShowMessage("The sliminess assaults him with waves of pleasure!\\D")
ShowMessage("Luka takes \\V[26] damage!")
ChangeVariable(27,27,0,3,3,1,2)
If(1,27,0,0,0)
 JumpToLabel("射精2")
 0()
EndIf()
DefineLabel("射精1")
ShowMessageFace("",0,0,2,30)
ShowMessage("\\n<Luka>This wetness... feels so good...\nAh! It's coming out...")
RunCommonEvent(104)
PictureDisplay(5,"ev_name_ct02",0,0,0,0,100,100,255,0)
RunCommonEvent(105)
ShowMessageFace("",0,0,2,31)
ShowMessage("The slimy tongue playing with Luka's penis makes him come pathetically.")
ShowMessage("The Slug Girl's tongue is stained white.")
ShowMessageFace("name_fc1",3,0,2,32)
ShowMessage("\\n<Slug Girl>I only licked you a little, and you already came...\nYou're an impatient one... Fufufu.")
RunCommonEvent(2000)
EndEventProcessing()
DefineLabel("射精2")
ShowMessageFace("",0,0,2,33)
ShowMessage("\\n<Luka>This wetness... feels so good...\nAh! It's coming out...")
RunCommonEvent(104)
PictureDisplay(5,"ev_name_hb08",0,0,0,0,100,100,255,0)
RunCommonEvent(105)
ShowMessageFace("",0,0,2,34)
ShowMessage("The slimy tongue playing with Luka's penis makes him come pathetically.")
ShowMessage("The Slug Girl's tongue is stained white.")
ShowMessageFace("name_fc1",3,0,2,35)
ShowMessage("\\n<Slug Girl>My tongue felt good, right?\nWith that, you too are my slimy slave...")
RunCommonEvent(2000)
EndEventProcessing()
0()
