// EVENT 2041
Name "Seduction: Fairy"

If(0,25,1)
 EndEventProcessing()
 0()
EndIf()
355("$game_troop.lose_event_id = 3041")
ChangeVariable(26,26,0,3,3,1,4)
ChangeVariable(26,26,4,0,10)
ShowMessageFace("fairy_fc1",0,0,2,1)
ShowMessage("\\n<Fairy>Hey, hey...\nLet's stop fighting, and play instead♪")
ShowMessageFace("",0,0,2,2)
ShowMessage("The Fairy flies around Luka's groin.")
ShowMessageFace("fairy_fc1",0,0,2,3)
ShowMessage("\\n<Fairy>Can I play with your penis?\nI'll make tons of white stuff come out~♪")
ChangeSwitch(98,98,0)
ChangeSwitch(96,96,0)
ShowChoices(strings("Ignore her","Give in to temptation"),1)
IfPlayerPicksChoice(0,"Ignore her")
 ShowMessageFace("",0,0,2,4)
 ShowMessage("Luka resists her temptation!")
 RunCommonEvent(1999)
 EndEventProcessing()
 0()
IfPlayerPicksChoice(1,"誘惑に乗る")
 0()
404()
ShowMessageFace("",0,0,2,5)
ShowMessage("Luka doesn't shake off the Fairy.")
ShowMessageFace("fairy_fc1",0,0,2,6)
ShowMessage("\\n<Fairy>Ehehe... I caught your penis~♪")
ChangeVariable(26,26,3,0,2)
PictureDisplay(6,"ev_fairy_ct11",0,0,0,0,100,100,255,0)
311(0,1,1,1,26,true)
ShowMessageFace("",0,0,2,7)
ShowMessage("The Fairy clings to Luka's penis!\\D")
ShowMessage("Luka takes \\V[26] damage!")
ChangeVariable(27,27,0,3,3,1,2)
If(1,27,0,0,0)
 JumpToLabel("射精1")
 0()
EndIf()
ShowMessageFace("fairy_fc1",1,0,2,8)
ShowMessage("\\n<Fairy>I'm going to play with it a lot~♪\nI want lots of white pee to come out~♪")
250(bytes(0x04,0x08,0x6f,0x3a,0x0c,0x52,0x50,0x47,0x3a,0x3a,0x53,0x45,0x08,0x3a,0x0a,0x40,0x6e,0x61,0x6d,0x65,0x49,0x22,0x12,0x6d,0x6f,0x6e,0x5f,0x65,0x72,0x6f,0x5f,0x6b,0x6f,0x6b,0x69,0x31,0x06,0x3a,0x06,0x45,0x54,0x3a,0x0b,0x40,0x70,0x69,0x74,0x63,0x68,0x69,0x69,0x3a,0x0c,0x40,0x76,0x6f,0x6c,0x75,0x6d,0x65,0x69,0x69))
311(0,1,1,1,26,true)
ShowMessageFace("",0,0,2,9)
ShowMessage("The Fairy clings firmly to Luka's penis!")
ShowMessage("She tightens her embrace as she hugs it!\\D")
ShowMessage("Luka takes \\V[26] damage!")
ChangeVariable(27,27,0,3,3,1,2)
If(1,27,0,0,0)
 JumpToLabel("射精1")
 0()
EndIf()
ShowMessageFace("",0,0,2,10)
ShowMessage("\\n<Luka>Aaah...")
ShowMessageFace("",0,0,2,11)
ShowMessage("It feels better than a thought to have a tiny body hugging my penis.")
ShowMessage("If I came like this...")
ShowChoices(strings("Resist Temptation","Let her continue"),1)
IfPlayerPicksChoice(0,"誘惑を振り払う")
 ShowMessageFace("",0,0,2,12)
 ShowMessage("Luka resists her temptation!")
 RunCommonEvent(1999)
 EndEventProcessing()
 0()
IfPlayerPicksChoice(1,"なすがままになる")
 ShowMessageFace("",0,0,2,13)
 ShowMessage("Luka surrenders to the pleasure...")
 0()
404()
ShowMessageFace("fairy_fc1",1,0,2,14)
ShowMessage("\\n<Fairy>Ehehe... The tip is so squishy~♪")
250(bytes(0x04,0x08,0x6f,0x3a,0x0c,0x52,0x50,0x47,0x3a,0x3a,0x53,0x45,0x08,0x3a,0x0a,0x40,0x6e,0x61,0x6d,0x65,0x49,0x22,0x12,0x6d,0x6f,0x6e,0x5f,0x65,0x72,0x6f,0x5f,0x6b,0x6f,0x6b,0x69,0x31,0x06,0x3a,0x06,0x45,0x54,0x3a,0x0b,0x40,0x70,0x69,0x74,0x63,0x68,0x69,0x69,0x3a,0x0c,0x40,0x76,0x6f,0x6c,0x75,0x6d,0x65,0x69,0x69))
311(0,1,1,1,26,true)
ShowMessageFace("",0,0,2,15)
ShowMessage("The Fairy caresses the tip of Luka's penis with both hands!")
ShowMessage("Sweet pleasure fills Luka as she toys with him!\\D")
ShowMessage("Luka takes \\V[26] damage!")
ChangeVariable(27,27,0,3,3,1,2)
If(1,27,0,0,0)
 JumpToLabel("射精1")
 0()
EndIf()
ShowMessageFace("fairy_fc1",1,0,2,16)
ShowMessage("\\n<Fairy>If I squeeze you suuuuper tight, white pee comes out right?\nOk then... *Squeeze*~♪")
250(bytes(0x04,0x08,0x6f,0x3a,0x0c,0x52,0x50,0x47,0x3a,0x3a,0x53,0x45,0x08,0x3a,0x0a,0x40,0x6e,0x61,0x6d,0x65,0x49,0x22,0x12,0x6d,0x6f,0x6e,0x5f,0x65,0x72,0x6f,0x5f,0x6b,0x6f,0x6b,0x69,0x31,0x06,0x3a,0x06,0x45,0x54,0x3a,0x0b,0x40,0x70,0x69,0x74,0x63,0x68,0x69,0x69,0x3a,0x0c,0x40,0x76,0x6f,0x6c,0x75,0x6d,0x65,0x69,0x69))
311(0,1,1,1,26,true)
ShowMessageFace("",0,0,2,17)
ShowMessage("The Fairy hugs Luka's penis as tight as she can!")
ShowMessage("Her tiny body rubs against Luka's penis!\\D")
ShowMessage("Luka takes \\V[26] damage!")
ChangeVariable(27,27,0,3,3,1,2)
If(1,27,0,0,0)
 JumpToLabel("射精1")
 0()
EndIf()
ShowMessageFace("fairy_fc1",1,0,2,18)
ShowMessage("\\n<Fairy>Your penis is twitching.\nPee it out~♪")
250(bytes(0x04,0x08,0x6f,0x3a,0x0c,0x52,0x50,0x47,0x3a,0x3a,0x53,0x45,0x08,0x3a,0x0a,0x40,0x6e,0x61,0x6d,0x65,0x49,0x22,0x12,0x6d,0x6f,0x6e,0x5f,0x65,0x72,0x6f,0x5f,0x6b,0x6f,0x6b,0x69,0x31,0x06,0x3a,0x06,0x45,0x54,0x3a,0x0b,0x40,0x70,0x69,0x74,0x63,0x68,0x69,0x69,0x3a,0x0c,0x40,0x76,0x6f,0x6c,0x75,0x6d,0x65,0x69,0x69))
311(0,1,1,1,26,true)
ShowMessageFace("",0,0,2,19)
ShowMessage("The Fairy kneads Luka's penis with her tiny hands!")
ShowMessage("With his sensitive areas played with, Luka climaxes!\\D")
ShowMessage("Luka takes \\V[26] damage!")
ChangeVariable(27,27,0,3,3,1,2)
If(1,27,0,0,0)
 JumpToLabel("射精1")
 0()
EndIf()
DefineLabel("射精1")
ShowMessageFace("",0,0,2,20)
ShowMessage("\\n<Luka>Oh no, I'm coming... Aaah...")
RunCommonEvent(104)
PictureDisplay(6,"ev_fairy_ct12",0,0,0,0,100,100,255,0)
RunCommonEvent(105)
PictureDisplay(6,"ev_fairy_ct13",0,0,0,0,100,100,255,0)
ShowMessageFace("",0,0,2,21)
ShowMessage("Toyed with by the tiny Fairy, I finally reach a climax.")
ShowMessage("Her tiny body is covered in semen.")
ShowMessageFace("fairy_fc1",1,0,2,22)
ShowMessage("\\n<Fairy>Ahaha, it came out. ♪\nMy body is all slimy now. ♪")
RunCommonEvent(2000)
EndEventProcessing()
0()
