﻿// EVENT 2200
Name "Seduction: Magical Pixie"

355("$game_troop.lose_event_id = 3200")
ChangeVariable(26,26,0,3,3,1,4)
ChangeVariable(26,26,4,0,10)
ShowMessageFace("m_fairy_fc1",2,0,2,1)
ShowMessage("\\n<Magical Pixie>I'm being driven into a corner...\nIf it's come to this, I'll torture his penis.")
355("battler_graphic_hide")
PictureDisplay(5,"ev_m_fairy_ha1",0,0,0,0,100,100,255,0)
ShowMessageFace("",0,0,2,2)
ShowMessage("The Magical Pixie approaches Luka's crotch!")
ShowMessageFace("m_fairy_fc1",1,0,2,3)
ShowMessage("\\n<Magical Pixie>Hora, just stay still like that.\nI'll let you experience a fairy's small pussy. ♪")
ChangeSwitch(98,98,0)
ChangeSwitch(96,96,0)
ShowChoices(strings("Drive her away","Let her continue"),1)
IfPlayerPicksChoice(0,"追い払う")
 ShowMessageFace("",0,0,2,4)
 ShowMessage("Luka drives the Magical Pixie away!")
 RunCommonEvent(1999)
 EndEventProcessing()
 0()
IfPlayerPicksChoice(1,"Let her continue")
 0()
404()
ShowMessageFace("m_fairy_fc1",1,0,2,5)
ShowMessage("\\n<Magical Pixie>In that case, I'll violate you! ♪")
ChangeVariable(26,26,3,0,4)
250(bytes(0x04,0x08,0x6f,0x3a,0x0c,0x52,0x50,0x47,0x3a,0x3a,0x53,0x45,0x08,0x3a,0x0a,0x40,0x6e,0x61,0x6d,0x65,0x49,0x22,0x11,0x6d,0x6f,0x6e,0x5f,0x65,0x72,0x6f,0x5f,0x70,0x79,0x75,0x33,0x06,0x3a,0x06,0x45,0x54,0x3a,0x0b,0x40,0x70,0x69,0x74,0x63,0x68,0x69,0x69,0x3a,0x0c,0x40,0x76,0x6f,0x6c,0x75,0x6d,0x65,0x69,0x69))
PictureDisplay(5,"ev_m_fairy_ha4",0,0,0,0,100,100,255,0)
311(0,1,1,1,26,true)
ShowMessageFace("",0,0,2,6)
ShowMessage("The Magical Pixie packs Luka's penis into her small vagina! Her vagina tightly squeezes as it is holds onto his dick!\\D")
ShowMessage("Luka takes \\V[26] damage!")
ChangeVariable(27,27,0,3,3,1,2)
If(1,27,0,0,0)
 JumpToLabel("射精1")
 0()
EndIf()
ShowMessageFace("m_fairy_fc1",1,0,2,7)
ShowMessage("\\n<Magical Pixie>Hora hora, isn't it amazing? ♪")
250(bytes(0x04,0x08,0x6f,0x3a,0x0c,0x52,0x50,0x47,0x3a,0x3a,0x53,0x45,0x08,0x3a,0x0a,0x40,0x6e,0x61,0x6d,0x65,0x49,0x22,0x13,0x6d,0x6f,0x6e,0x5f,0x65,0x72,0x6f,0x5f,0x63,0x68,0x75,0x70,0x61,0x33,0x06,0x3a,0x06,0x45,0x54,0x3a,0x0b,0x40,0x70,0x69,0x74,0x63,0x68,0x69,0x69,0x3a,0x0c,0x40,0x76,0x6f,0x6c,0x75,0x6d,0x65,0x69,0x69))
PictureDisplay(5,"ev_m_fairy_ha5",0,0,0,0,100,100,255,0)
311(0,1,1,1,26,true)
ShowMessageFace("",0,0,2,8)
ShowMessage("The Magical Pixie shakes her waist violently while holding Luka's penis in her vagina! Her vaginal flesh rubs against his dick as she continues torturing him!\\D")
ShowMessage("Luka takes \\V[26] damage!")
ChangeVariable(27,27,0,3,3,1,2)
If(1,27,0,0,0)
 JumpToLabel("射精1")
 0()
EndIf()
ShowMessageFace("m_fairy_fc1",1,0,2,9)
ShowMessage("\\n<Magical Pixie>Come, come! ♪")
250(bytes(0x04,0x08,0x6f,0x3a,0x0c,0x52,0x50,0x47,0x3a,0x3a,0x53,0x45,0x08,0x3a,0x0a,0x40,0x6e,0x61,0x6d,0x65,0x49,0x22,0x13,0x6d,0x6f,0x6e,0x5f,0x65,0x72,0x6f,0x5f,0x63,0x68,0x75,0x70,0x61,0x33,0x06,0x3a,0x06,0x45,0x54,0x3a,0x0b,0x40,0x70,0x69,0x74,0x63,0x68,0x69,0x69,0x3a,0x0c,0x40,0x76,0x6f,0x6c,0x75,0x6d,0x65,0x69,0x69))
311(0,1,1,1,26,true)
ShowMessageFace("",0,0,2,10)
ShowMessage("The Magical Pixie bounces up and down violently!\nLuka's penis is rubbed inside her vagina as she tightens firmly!\\D")
ShowMessage("Luka takes \\V[26] damage!")
ChangeVariable(27,27,0,3,3,1,2)
If(1,27,0,0,0)
 JumpToLabel("射精1")
 0()
EndIf()
DefineLabel("射精1")
ShowMessageFace("",0,0,2,11)
ShowMessage("\\n<Luka>No, I'm coming... Aaaah...")
RunCommonEvent(104)
PictureDisplay(5,"ev_m_fairy_ha6",0,0,0,0,100,100,255,0)
RunCommonEvent(105)
ShowMessageFace("",0,0,2,12)
ShowMessage("I miserably shoot out my semen inside of the Magical Pixie's tight vagina. I bask in the ecstasy of release as my waist trembles.")
ShowMessageFace("m_fairy_fc1",1,0,2,13)
ShowMessage("\\n<Magical Pixie>Ahaha, you leaked! ♪\nMy pussy was very cramped, wasn't it?")
RunCommonEvent(2000)
EndEventProcessing()
0()
