﻿
DisplayName "Snow Shrine B1F"



EVENT   1
 PAGE   1
  250(bytes(0x04,0x08,0x6f,0x3a,0x0c,0x52,0x50,0x47,0x3a,0x3a,0x53,0x45,0x08,0x3a,0x0a,0x40,0x6e,0x61,0x6d,0x65,0x49,0x22,0x09,0x4d,0x6f,0x76,0x65,0x06,0x3a,0x06,0x45,0x54,0x3a,0x0b,0x40,0x70,0x69,0x74,0x63,0x68,0x69,0x69,0x3a,0x0c,0x40,0x76,0x6f,0x6c,0x75,0x6d,0x65,0x69,0x55))
  TeleportPlayer(0,216,16,8,0,0)
  0()



EVENT   2
 PAGE   1
  250(bytes(0x04,0x08,0x6f,0x3a,0x0c,0x52,0x50,0x47,0x3a,0x3a,0x53,0x45,0x08,0x3a,0x0a,0x40,0x6e,0x61,0x6d,0x65,0x49,0x22,0x09,0x4d,0x6f,0x76,0x65,0x06,0x3a,0x06,0x45,0x54,0x3a,0x0b,0x40,0x70,0x69,0x74,0x63,0x68,0x69,0x69,0x3a,0x0c,0x40,0x76,0x6f,0x6c,0x75,0x6d,0x65,0x69,0x55))
  TeleportPlayer(0,216,17,8,0,0)
  0()



EVENT   3
 PAGE   1
  250(bytes(0x04,0x08,0x6f,0x3a,0x0c,0x52,0x50,0x47,0x3a,0x3a,0x53,0x45,0x08,0x3a,0x0a,0x40,0x6e,0x61,0x6d,0x65,0x49,0x22,0x09,0x4d,0x6f,0x76,0x65,0x06,0x3a,0x06,0x45,0x54,0x3a,0x0b,0x40,0x70,0x69,0x74,0x63,0x68,0x69,0x69,0x3a,0x0c,0x40,0x76,0x6f,0x6c,0x75,0x6d,0x65,0x69,0x55))
  TeleportPlayer(0,216,18,8,0,0)
  0()



EVENT   4
 PAGE   1
  250(bytes(0x04,0x08,0x6f,0x3a,0x0c,0x52,0x50,0x47,0x3a,0x3a,0x53,0x45,0x08,0x3a,0x0a,0x40,0x6e,0x61,0x6d,0x65,0x49,0x22,0x09,0x4d,0x6f,0x76,0x65,0x06,0x3a,0x06,0x45,0x54,0x3a,0x0b,0x40,0x70,0x69,0x74,0x63,0x68,0x69,0x69,0x3a,0x0c,0x40,0x76,0x6f,0x6c,0x75,0x6d,0x65,0x69,0x55))
  TeleportPlayer(0,181,58,37,0,0)
  0()



EVENT   5
 PAGE   1
  250(bytes(0x04,0x08,0x6f,0x3a,0x0c,0x52,0x50,0x47,0x3a,0x3a,0x53,0x45,0x08,0x3a,0x0a,0x40,0x6e,0x61,0x6d,0x65,0x49,0x22,0x09,0x4d,0x6f,0x76,0x65,0x06,0x3a,0x06,0x45,0x54,0x3a,0x0b,0x40,0x70,0x69,0x74,0x63,0x68,0x69,0x69,0x3a,0x0c,0x40,0x76,0x6f,0x6c,0x75,0x6d,0x65,0x69,0x55))
  TeleportPlayer(0,181,59,37,0,0)
  0()



EVENT   6
 PAGE   1
  250(bytes(0x04,0x08,0x6f,0x3a,0x0c,0x52,0x50,0x47,0x3a,0x3a,0x53,0x45,0x08,0x3a,0x0a,0x40,0x6e,0x61,0x6d,0x65,0x49,0x22,0x09,0x4d,0x6f,0x76,0x65,0x06,0x3a,0x06,0x45,0x54,0x3a,0x0b,0x40,0x70,0x69,0x74,0x63,0x68,0x69,0x69,0x3a,0x0c,0x40,0x76,0x6f,0x6c,0x75,0x6d,0x65,0x69,0x55))
  TeleportPlayer(0,181,60,37,0,0)
  0()



EVENT   7
 PAGE   1
  250(bytes(0x04,0x08,0x6f,0x3a,0x0c,0x52,0x50,0x47,0x3a,0x3a,0x53,0x45,0x08,0x3a,0x0a,0x40,0x6e,0x61,0x6d,0x65,0x49,0x22,0x09,0x4d,0x6f,0x76,0x65,0x06,0x3a,0x06,0x45,0x54,0x3a,0x0b,0x40,0x70,0x69,0x74,0x63,0x68,0x69,0x69,0x3a,0x0c,0x40,0x76,0x6f,0x6c,0x75,0x6d,0x65,0x69,0x55))
  TeleportPlayer(0,181,18,5,0,0)
  0()



EVENT   8
 PAGE   1
  250(bytes(0x04,0x08,0x6f,0x3a,0x0c,0x52,0x50,0x47,0x3a,0x3a,0x53,0x45,0x08,0x3a,0x0a,0x40,0x6e,0x61,0x6d,0x65,0x49,0x22,0x09,0x4d,0x6f,0x76,0x65,0x06,0x3a,0x06,0x45,0x54,0x3a,0x0b,0x40,0x70,0x69,0x74,0x63,0x68,0x69,0x69,0x3a,0x0c,0x40,0x76,0x6f,0x6c,0x75,0x6d,0x65,0x69,0x55))
  TeleportPlayer(0,181,19,5,0,0)
  0()



EVENT   9
 PAGE   1
  250(bytes(0x04,0x08,0x6f,0x3a,0x0c,0x52,0x50,0x47,0x3a,0x3a,0x53,0x45,0x08,0x3a,0x0a,0x40,0x6e,0x61,0x6d,0x65,0x49,0x22,0x09,0x4d,0x6f,0x76,0x65,0x06,0x3a,0x06,0x45,0x54,0x3a,0x0b,0x40,0x70,0x69,0x74,0x63,0x68,0x69,0x69,0x3a,0x0c,0x40,0x76,0x6f,0x6c,0x75,0x6d,0x65,0x69,0x55))
  TeleportPlayer(0,181,20,5,0,0)
  0()



EVENT   10
 PAGE   1
  // condition: switch 4 is ON
  // condition: variable 1076 >= 4
  If(1,1076,0,4,0)
   PictureDisplay(5,"80_eden_st22",0,0,0,0,100,100,0,0)
   PictureMove(5,null,0,0,0,0,100,100,255,0,60,true)
   ShowMessageFace("eden_fc1",1,0,2,1)
   ShowMessage("\\n<Eden>Oh, so cold...")
   ShowMessageFace("sonia_fc2",2,0,2,2)
   ShowMessage("\\n<Sonya>Put on some clothes?")
   ShowMessageFace("eden_fc1",1,0,2,3)
   ShowMessage("\\n<Eden>It is not my body, but my heart which is cold.\nIt pains me that I can do nothing but await the return of Ilias.")
   If(4,45,0)
    ShowMessageFace("alicetromeria_fc1",4,0,2,4)
    ShowMessage("\\n<Alicetroemeria>Ufufu, what a delightful angel...\nWe could be good friends...")
    0()
   EndIf()
   ShowMessageFace("eden_fc1",1,0,2,5)
   ShowMessage("\\n<Eden>Anyway, who are you people?\nIf you interfere with my prayers to Ilias, I shall burn you to ash.")
   ShowMessageFace("alice_fc5",0,0,2,6)
   ShowMessage("\\n<Alice>We won't get in your way, pray all you like.\nBut we have one request...")
   ShowMessageFace("alice_fc5",2,0,2,7)
   ShowMessage("\\n<Alice>First, I just want be sure, but are you the head angel?")
   PictureDisplay(5,"80_eden_st21",0,0,0,0,100,100,255,0)
   ShowMessageFace("eden_fc1",0,0,2,8)
   ShowMessage("\\n<Eden>I am the Seraph Eden...\nIlias' first and foremost.")
   ShowMessageFace("eden_fc1",0,0,2,9)
   ShowMessage("\\n<Eden>I've been managing the lost angels since Heaven fell to earth. Before I knew it, they began calling me the head angel.")
   ShowMessageFace("alice_fc5",0,0,2,10)
   ShowMessage("\\n<Alice>Hmm, there's no mistaking you're the head angel. Then, as for our request, can we get you to release the barrier around Ilias Temple?")
   ShowMessageFace("ruka_fc1",0,0,2,11)
   ShowMessage("\\n<Luka>We have to go to Ilias Temple.\nPlease, grant us this request.")
   PictureDisplay(5,"80_eden_st23",0,0,0,0,100,100,255,0)
   ShowMessageFace("eden_fc1",2,0,2,12)
   ShowMessage("\\n<Eden>How disrespectful...!\nYou intend to thoughtlessly trample upon the most sacred place in the world?!")
   PictureClear(5)
   Wait(30)
   241(bytes(0x04,0x08,0x6f,0x3a,0x0d,0x52,0x50,0x47,0x3a,0x3a,0x42,0x47,0x4d,0x08,0x3a,0x0a,0x40,0x6e,0x61,0x6d,0x65,0x49,0x22,0x0a,0x62,0x6f,0x73,0x73,0x30,0x06,0x3a,0x06,0x45,0x54,0x3a,0x0c,0x40,0x76,0x6f,0x6c,0x75,0x6d,0x65,0x69,0x69,0x3a,0x0b,0x40,0x70,0x69,0x74,0x63,0x68,0x69,0x69))
   250(bytes(0x04,0x08,0x6f,0x3a,0x0c,0x52,0x50,0x47,0x3a,0x3a,0x53,0x45,0x08,0x3a,0x0a,0x40,0x6e,0x61,0x6d,0x65,0x49,0x22,0x0f,0x6d,0x6f,0x6e,0x5f,0x65,0x61,0x72,0x74,0x68,0x31,0x06,0x3a,0x06,0x45,0x54,0x3a,0x0b,0x40,0x70,0x69,0x74,0x63,0x68,0x69,0x69,0x3a,0x0c,0x40,0x76,0x6f,0x6c,0x75,0x6d,0x65,0x69,0x55))
   225(7,7,120,true)
   Wait(120)
   PictureDisplay(5,"80_eden_st23",0,0,0,0,100,100,0,0)
   PictureMove(5,null,0,0,0,0,100,100,255,0,30,true)
   ShowMessageFace("eden_fc1",2,0,2,13)
   ShowMessage("\\n<Eden>Sinners who would defile the land of the Goddess...! I shall punish you here and now!")
   ShowMessageFace("alice_fc5",6,0,2,14)
   ShowMessage("\\n<Alice>Hey, wait a minute! Hear us out!")
   ShowMessageFace("sonia_fc2",0,0,2,15)
   ShowMessage("\\n<Sonya>This is bad, she's incredibly angry!")
   ShowMessageFace("eden_fc1",2,0,2,16)
   ShowMessage("\\n<Eden>Now, perish...!\nRepent your sins...!")
   If(4,383,0)
    ShowMessageFace("eden_fc1",0,0,2,17)
    ShowMessage("\\n<Eden’>Calm down, other me...")
    ShowMessageFace("eden_fc1",2,0,2,18)
    ShowMessage("\\n<Eden>What, another me?!\nIs this some evil trick to fool me?!")
    ShowMessageFace("eden_fc1",1,0,2,19)
    ShowMessage("\\n<Eden’>No, hear our explanation.\nI am another y--")
    ShowMessageFace("eden_fc1",2,0,2,20)
    ShowMessage("\\n<Eden>I shall break this evil spell with my raw power! Prepare yourself!")
    ShowMessageFace("eden_fc1",2,0,2,21)
    ShowMessage("\\n<Eden’>Eei! I shall crush this blockhead with my raw power! Prepare yourself!")
    0()
   EndIf()
   ShowMessageFace("ruka_fc1",0,0,2,22)
   ShowMessage("\\n<Luka>It's no use talking, she's attacking!\nWe have no choice but to fight!")
   If(4,45,0)
    ShowMessageFace("alicetromeria_fc1",4,0,2,23)
    ShowMessage("\\n<Alicetroemeria>Oh dear, what a fool...")
    0()
   EndIf()
   PictureClear(5)
   SetBattleBGM(bytes(0x04,0x08,0x6f,0x3a,0x0d,0x52,0x50,0x47,0x3a,0x3a,0x42,0x47,0x4d,0x08,0x3a,0x0a,0x40,0x6e,0x61,0x6d,0x65,0x49,0x22,0x0e,0x62,0x6f,0x73,0x73,0x5f,0x65,0x64,0x65,0x6e,0x06,0x3a,0x06,0x45,0x54,0x3a,0x0c,0x40,0x76,0x6f,0x6c,0x75,0x6d,0x65,0x69,0x69,0x3a,0x0b,0x40,0x70,0x69,0x74,0x63,0x68,0x69,0x69))
   ChangeSwitch(22,22,0)
   Battle(0,854,false,false)
   ChangeSwitch(22,22,1)
   241(bytes(0x04,0x08,0x6f,0x3a,0x0d,0x52,0x50,0x47,0x3a,0x3a,0x42,0x47,0x4d,0x08,0x3a,0x0a,0x40,0x6e,0x61,0x6d,0x65,0x49,0x22,0x12,0x64,0x75,0x6e,0x67,0x65,0x6f,0x6e,0x5f,0x73,0x69,0x6e,0x70,0x69,0x06,0x3a,0x06,0x45,0x54,0x3a,0x0c,0x40,0x76,0x6f,0x6c,0x75,0x6d,0x65,0x69,0x69,0x3a,0x0b,0x40,0x70,0x69,0x74,0x63,0x68,0x69,0x69))
   SetBattleBGM(bytes(0x04,0x08,0x6f,0x3a,0x0d,0x52,0x50,0x47,0x3a,0x3a,0x42,0x47,0x4d,0x08,0x3a,0x0a,0x40,0x6e,0x61,0x6d,0x65,0x49,0x22,0x0b,0x62,0x61,0x74,0x74,0x6c,0x65,0x06,0x3a,0x06,0x45,0x54,0x3a,0x0c,0x40,0x76,0x6f,0x6c,0x75,0x6d,0x65,0x69,0x69,0x3a,0x0b,0x40,0x70,0x69,0x74,0x63,0x68,0x69,0x69))
   ChangeSwitch(1915,1915,0)
   PictureDisplay(5,"80_eden_st23",0,0,0,0,100,100,0,0)
   PictureMove(5,null,0,0,0,0,100,100,255,0,30,true)
   ShowMessageFace("eden_fc1",2,0,2,24)
   ShowMessage("\\n<Eden>Impossible, to think I would lose to mere surface-dwellers... Has thirty years on the surface truly weakened me this much...?")
   ShowMessageFace("ruka_fc1",0,0,2,25)
   ShowMessage("\\n<Luka>Listen to us...\nWe don't want to lay waste to the temple.")
   PictureDisplay(5,"80_eden_st22",0,0,0,0,100,100,255,0)
   ShowMessageFace("eden_fc1",1,0,2,26)
   ShowMessage("\\n<Eden>As I was fighting you, I understood.\nYoung hero... You appear to bear the blood of an angel.")
   ShowMessageFace("eden_fc1",1,0,2,27)
   ShowMessage("\\n<Eden>I can assess she must have been a high-ranking angel, but what was your mother's name?")
   ShowMessageFace("ruka_fc1",0,0,2,28)
   ShowMessage("\\n<Luka>My mother's name? It was Lucifina, but...")
   PictureDisplay(5,"80_eden_st23",0,0,0,0,100,100,255,0)
   ShowMessageFace("eden_fc1",2,0,2,29)
   ShowMessage("\\n<Eden>Lu-Lucifina...?!\nTh-th-then that means...")
   241(bytes(0x04,0x08,0x6f,0x3a,0x0d,0x52,0x50,0x47,0x3a,0x3a,0x42,0x47,0x4d,0x08,0x3a,0x0a,0x40,0x6e,0x61,0x6d,0x65,0x49,0x22,0x10,0x73,0x63,0x65,0x6e,0x65,0x5f,0x63,0x6f,0x6d,0x69,0x32,0x06,0x3a,0x06,0x45,0x54,0x3a,0x0c,0x40,0x76,0x6f,0x6c,0x75,0x6d,0x65,0x69,0x69,0x3a,0x0b,0x40,0x70,0x69,0x74,0x63,0x68,0x69,0x69))
   PictureDisplay(5,"80_eden_st21",0,0,0,0,100,100,255,0)
   ShowMessageFace("eden_fc1",0,0,2,30)
   ShowMessage("\\n<Eden>You remembered your duty to serve Ilias, and you're heading to the temple to cleanse your soul?!")
   ShowMessageFace("alice_fc5",0,0,2,31)
   ShowMessage("\\n<Alice>(I don't really understand, but say yes.)")
   ShowMessageFace("ruka_fc1",0,0,2,32)
   ShowMessage("\\n<Luka>That's right.\nI would like to offer my heartfelt prayers to Ilias.")
   ShowMessageFace("eden_fc1",0,0,2,33)
   ShowMessage("\\n<Eden>I see, Lucifina's son has made a pilgrimage... Ilias herself would surely be pleased...")
   ShowMessageFace("eden_fc1",0,0,2,34)
   ShowMessage("\\n<Eden>Very well, I shall now release the barrier around the temple. This will be somewhat bright, so please shield your eyes.")
   PictureClear(5)
   212(0,556,false)
   Wait(60)
   ShowMessageFace("eden_fc1",0,0,2,35)
   ShowMessage("\\n<Eden>...Haa!")
   Wait(30)
   241(bytes(0x04,0x08,0x6f,0x3a,0x0d,0x52,0x50,0x47,0x3a,0x3a,0x42,0x47,0x4d,0x08,0x3a,0x0a,0x40,0x6e,0x61,0x6d,0x65,0x49,0x22,0x12,0x64,0x75,0x6e,0x67,0x65,0x6f,0x6e,0x5f,0x73,0x69,0x6e,0x70,0x69,0x06,0x3a,0x06,0x45,0x54,0x3a,0x0c,0x40,0x76,0x6f,0x6c,0x75,0x6d,0x65,0x69,0x69,0x3a,0x0b,0x40,0x70,0x69,0x74,0x63,0x68,0x69,0x69))
   PictureDisplay(5,"80_eden_st21",0,0,0,0,100,100,0,0)
   PictureMove(5,null,0,0,0,0,100,100,255,0,30,true)
   ShowMessageFace("eden_fc1",0,0,2,36)
   ShowMessage("\\n<Eden>I've lifted the barrier around Ilias Temple. You may now enter.")
   ShowMessageFace("ruka_fc1",0,0,2,37)
   ShowMessage("\\n<Luka>Thank you very much!")
   PictureDisplay(5,"80_eden_st22",0,0,0,0,100,100,255,0)
   ShowMessageFace("eden_fc1",1,0,2,38)
   ShowMessage("\\n<Eden>However...something I don't fully understand has been eroding the temple.  Even I have never seen anything like it, and it deeply confounds me.")
   ShowMessageFace("sonia_fc2",2,0,2,39)
   ShowMessage("\\n<Sonya>Something you don't fully understand...? What do you mean?")
   ShowMessageFace("eden_fc1",1,0,2,40)
   ShowMessage("\\n<Eden>As its true nature is unknown, all I could do was seal it off with a barrier. Maintaining that barrier continually for thirty years is a large part of why I have lost so much of my power.")
   If(4,41,0)
    ShowMessageFace("stein_fc2",0,0,2,41)
    ShowMessage("\\n<Promestein>It's most likely erosion by chaos.\nIf that phenomenon occurred at Ilias Temple on the day of the Great Disaster...")
    0()
   EndIf()
   ShowMessageFace("alice_fc5",0,0,2,42)
   ShowMessage("\\n<Alice>So there's something inside Ilias Temple after all. An answer at the core of the crisis facing this world...")
   PictureDisplay(5,"80_eden_st21",0,0,0,0,100,100,255,0)
   ShowMessageFace("eden_fc1",0,0,2,43)
   ShowMessage("\\n<Eden>Be very careful, son of Lucifina.\nMay Ilias watch over you...")
   355("gain_medal(61)")
   PictureClear(5)
   ChangeVariable(1076,1076,0,0,5)
   314(0,0)
   EndEventProcessing()
   0()
  EndIf()
  If(1,1076,0,5,1)
   If(1,1076,0,6,2)
    PictureDisplay(5,"80_eden_st22",0,0,0,0,100,100,0,0)
    PictureMove(5,null,0,0,0,0,100,100,255,0,30,true)
    ShowMessageFace("eden_fc1",1,0,2,44)
    ShowMessage("\\n<Eden>Something I don't fully understand has been eroding the temple.  Even I have never seen anything like it, and it deeply confounds me.")
    ShowMessageFace("eden_fc1",1,0,2,45)
    ShowMessage("\\n<Eden>As its true nature is unknown, all I could do was seal it off with a barrier. Maintaining that barrier continually for thirty years is a large part of why I have lost so much of my power.")
    PictureDisplay(5,"80_eden_st21",0,0,0,0,100,100,255,0)
    ShowMessageFace("eden_fc1",0,0,2,46)
    ShowMessage("\\n<Eden>Be very careful, son of Lucifina.\nMay Ilias watch over you...")
    PictureClear(5)
    EndEventProcessing()
    0()
   EndIf()
   0()
  EndIf()
  If(1,1076,0,7,1)
   PictureDisplay(5,"80_eden_st21",0,0,0,0,100,100,0,0)
   PictureMove(5,null,0,0,0,0,100,100,255,0,30,true)
   ShowMessageFace("eden_fc1",0,0,2,47)
   ShowMessage("\\n<Eden>Did you offer suitable prayer?\nWhen Ilias returns, I'm sure she'll praise me.")
   ShowMessageFace("ruka_fc1",0,0,2,48)
   ShowMessage("\\n<Luka>Y-yes..")
   ShowMessageFace("",0,0,2,49)
   ShowMessage("It would be best if we didn't tell her what happened at Ilias Temple. We don't want her to get angry again.")
   PictureClear(5)
   EndEventProcessing()
   0()
  EndIf()
  0()
 PAGE   2
  // condition: switch 5 is ON
  // condition: variable 1076 >= 4
  PictureDisplay(5,"80_eden_st22",0,0,0,0,100,100,0,0)
  PictureMove(5,null,0,0,0,0,100,100,255,0,60,true)
  ShowMessageFace("eden_fc1",1,0,2,1)
  ShowMessage("\\n<Eden>Oh, so cold...")
  ShowMessageFace("sonia_fc2",2,0,2,2)
  ShowMessage("\\n<Sonya>Put on some clothes?")
  ShowMessageFace("eden_fc1",1,0,2,3)
  ShowMessage("\\n<Eden>It is not my body, but my heart which is cold.\nIt pains me that I can do nothing but await the return of Ilias.")
  ShowMessageFace("eden_fc1",1,0,2,4)
  ShowMessage("\\n<Eden>Anyway, who are you people?\nIf you interfere with my prayers to Ilias, I shall burn you to ash.")
  ShowMessageFace("iriasu_fc4",2,0,2,5)
  ShowMessage("\\n<Ilias>Eden... So you're the head angel, after all.\nYou've been leading the angels this whole time since Heaven fell to the surface, haven't you?")
  PictureDisplay(5,"80_eden_st23",0,0,0,0,100,100,255,0)
  ShowMessageFace("eden_fc1",2,0,2,6)
  ShowMessage("\\n<Eden>...Are you the fake Ilias mentioned in the reports? I'll bring you a swift death for impersonating her before me!")
  PictureDisplay(5,"80_eden_st22",0,0,0,0,100,100,255,0)
  ShowMessageFace("eden_fc1",1,0,2,7)
  ShowMessage("\\n<Eden>............")
  ShowMessageFace("iriasu_fc4",2,0,2,8)
  ShowMessage("\\n<Ilias>............")
  ShowMessageFace("eden_fc1",1,0,2,9)
  ShowMessage("\\n<Eden>Impossible, this is...")
  241(bytes(0x04,0x08,0x6f,0x3a,0x0d,0x52,0x50,0x47,0x3a,0x3a,0x42,0x47,0x4d,0x08,0x3a,0x0a,0x40,0x6e,0x61,0x6d,0x65,0x49,0x22,0x13,0x73,0x63,0x65,0x6e,0x65,0x5f,0x6f,0x64,0x61,0x79,0x61,0x6b,0x61,0x32,0x06,0x3a,0x06,0x45,0x54,0x3a,0x0c,0x40,0x76,0x6f,0x6c,0x75,0x6d,0x65,0x69,0x69,0x3a,0x0b,0x40,0x70,0x69,0x74,0x63,0x68,0x69,0x69))
  PictureDisplay(5,"80_eden_st21",0,0,0,0,100,100,255,0)
  ShowMessageFace("eden_fc1",0,0,2,10)
  ShowMessage("\\n<Eden>I have long awaited the arrival of this day...\nOh Ilias, it is you, isn't it?!")
  ShowMessageFace("iriasu_fc4",5,0,2,11)
  ShowMessage("\\n<Ilias>Do you recognize me, Eden...?!")
  ShowMessageFace("eden_fc1",0,0,2,12)
  ShowMessage("\\n<Eden>Those other angels around here are one thing, but for this Eden...I could not possibly mistake your identity, Ilias!!")
  ShowMessageFace("iriasu_fc4",3,0,2,13)
  ShowMessage("\\n<Ilias>Eden...\nI have never thought you more reliable than I do at this very moment.")
  ShowMessageFace("eden_fc1",0,0,2,14)
  ShowMessage("\\n<Eden>I am honored to receive your praise!\nThis day shall be the most glorious day in my life.")
  PictureDisplay(5,"80_eden_st22",0,0,0,0,100,100,255,0)
  ShowMessageFace("eden_fc1",1,0,2,15)
  ShowMessage("\\n<Eden>However, your appearance is...\nIlias, has some sort of misfortune befallen you?")
  ShowMessageFace("iriasu_fc4",2,0,2,16)
  ShowMessage("\\n<Ilias>It's a rather long story, but...")
  ShowMessageFace("",0,0,2,17)
  ShowMessage("Ilias explained the situation...")
  PictureDisplay(5,"80_eden_st23",0,0,0,0,100,100,255,0)
  ShowMessageFace("eden_fc1",2,0,2,18)
  ShowMessage("\\n<Eden>Ah, how heartrending...\nFor you to have walked such a path of hardship to arrive here...")
  241(bytes(0x04,0x08,0x6f,0x3a,0x0d,0x52,0x50,0x47,0x3a,0x3a,0x42,0x47,0x4d,0x08,0x3a,0x0a,0x40,0x6e,0x61,0x6d,0x65,0x49,0x22,0x14,0x73,0x63,0x65,0x6e,0x65,0x5f,0x65,0x70,0x69,0x6c,0x6f,0x67,0x75,0x65,0x32,0x06,0x3a,0x06,0x45,0x54,0x3a,0x0c,0x40,0x76,0x6f,0x6c,0x75,0x6d,0x65,0x69,0x69,0x3a,0x0b,0x40,0x70,0x69,0x74,0x63,0x68,0x69,0x69))
  PictureDisplay(5,"80_eden_st21",0,0,0,0,100,100,255,0)
  ShowMessageFace("eden_fc1",0,0,2,19)
  ShowMessage("\\n<Eden>From here on, this Eden shall devote herself to Ilias. I shall stay by your side until this world's end!")
  PictureClear(5)
  205(0,bytes(0x04,0x08,0x6f,0x3a,0x13,0x52,0x50,0x47,0x3a,0x3a,0x4d,0x6f,0x76,0x65,0x52,0x6f,0x75,0x74,0x65,0x09,0x3a,0x0c,0x40,0x72,0x65,0x70,0x65,0x61,0x74,0x46,0x3a,0x0f,0x40,0x73,0x6b,0x69,0x70,0x70,0x61,0x62,0x6c,0x65,0x46,0x3a,0x0a,0x40,0x77,0x61,0x69,0x74,0x54,0x3a,0x0a,0x40,0x6c,0x69,0x73,0x74,0x5b,0x09,0x6f,0x3a,0x15,0x52,0x50,0x47,0x3a,0x3a,0x4d,0x6f,0x76,0x65,0x43,0x6f,0x6d,0x6d,0x61,0x6e,0x64,0x07,0x3a,0x0a,0x40,0x63,0x6f,0x64,0x65,0x69,0x2a,0x3a,0x10,0x40,0x70,0x61,0x72,0x61,0x6d,0x65,0x74,0x65,0x72,0x73,0x5b,0x00,0x6f,0x3b,0x0a,0x07,0x3b,0x0b,0x69,0x0f,0x3b,0x0c,0x5b,0x00,0x6f,0x3b,0x0a,0x07,0x3b,0x0b,0x69,0x2c,0x3b,0x0c,0x5b,0x00,0x6f,0x3b,0x0a,0x07,0x3b,0x0b,0x69,0x00,0x3b,0x0c,0x5b,0x00))
  355("add_actor_ex(383)")
  249(bytes(0x04,0x08,0x6f,0x3a,0x0c,0x52,0x50,0x47,0x3a,0x3a,0x4d,0x45,0x08,0x3a,0x0a,0x40,0x6e,0x61,0x6d,0x65,0x49,0x22,0x0c,0x66,0x61,0x6e,0x66,0x61,0x6c,0x65,0x06,0x3a,0x06,0x45,0x54,0x3a,0x0b,0x40,0x70,0x69,0x74,0x63,0x68,0x69,0x69,0x3a,0x0c,0x40,0x76,0x6f,0x6c,0x75,0x6d,0x65,0x69,0x69))
  ShowMessageFace("",0,0,2,20)
  ShowMessage("Eden joined the party!")
  Wait(60)
  ChangeSwitch(2167,2167,0)
  ShowMessageFace("iriasu_fc4",0,0,2,21)
  ShowMessage("\\n<Ilias>Eden... As I explained earlier, there is a key within Ilias Temple. Release the barrier around the temple.")
  ShowMessageFace("eden_fc1",0,0,2,22)
  ShowMessage("\\n<Eden>Understood, I shall unseal the temple immediately. This will be somewhat bright, so please shield your eyes.")
  212(0,556,false)
  ShowMessageFace("eden_fc1",0,0,2,23)
  ShowMessage("\\n<Eden>...Haa!")
  ShowMessageFace("eden_fc1",0,0,2,24)
  ShowMessage("\\n<Eden>I've lifted the barrier around Ilias Temple. You may now enter.")
  ShowMessageFace("ruka_fc1",0,0,2,25)
  ShowMessage("\\n<Luka>Thank you very much!")
  ShowMessageFace("eden_fc1",1,0,2,26)
  ShowMessage("\\n<Eden> However...something I don't fully understand has been eroding the temple. It is most likely the chaos phenomenon you mentioned earlier.")
  ShowMessageFace("iriasu_fc4",2,0,2,27)
  ShowMessage("\\n<Ilias>So the otherworldly transformation was the erosion of chaos, after all. A huge Tartarus Rift opened in the place where Heaven once was.")
  ShowMessageFace("eden_fc1",1,0,2,28)
  ShowMessage("\\n<Eden>I had been maintaining that barrier ever since the Great Disaster. It was all I could do. Continually maintaining it for thirty years is a large part of why I have lost so much of my power.")
  ShowMessageFace("iriasu_fc4",0,0,2,29)
  ShowMessage("\\n<Ilias>It appears you can no longer integrate with Heaven to assume your ultimate form. But despite being weakened, having your power is still very reassuring.")
  ShowMessageFace("iriasu_fc4",0,0,2,30)
  ShowMessage("\\n<Ilias>If you combine your powers with my own...\nWe just might be able to perform the Seraph Rebirth Ceremony!")
  ShowMessageFace("eden_fc1",1,0,2,31)
  ShowMessage("\\n<Eden>The Seraph Rebirth Ceremony...?!\nCan we truly bring Micaela and Lucifina into this world again...?!")
  ShowMessageFace("ruka_fc1",0,0,2,32)
  ShowMessage("\\n<Luka>You can bring Mother and Micaela back to life...?!")
  ShowMessageFace("iriasu_fc4",2,0,2,33)
  ShowMessage("\\n<Ilias>Luka... It pains me to say this, but I cannot fulfill your wish. I cannot revive the dead exactly as they once were.")
  ShowMessageFace("iriasu_fc4",2,0,2,34)
  ShowMessage("\\n<Ilias>Lucifina lived out a full life raising her beloved son. That life was invaluable precisely because it can't be brought back.")
  ShowMessageFace("ruka_fc1",0,0,2,35)
  ShowMessage("\\n<Luka>............")
  ShowMessageFace("iriasu_fc4",2,0,2,36)
  ShowMessage("\\n<Ilias>What I will perform is the ceremony that originally created Micaela and Lucifina. As a result, the two will born in their purest state.")
  ShowMessageFace("iriasu_fc4",2,0,2,37)
  ShowMessage("\\n<Ilias>Do you understand, Luka...?\nThe memories of your mother, Lucifina, belong only to the one that passed away.")
  ShowMessageFace("ruka_fc1",0,0,2,38)
  ShowMessage("\\n<Luka>It's a little complicated, but I understand.\nShe'll have the same body as my mother, but won't have her memories.")
  ShowMessageFace("eden_fc1",1,0,2,39)
  ShowMessage("\\n<Eden>Will the \"Hall of Creation\" be the ritual site?\nIt was one of the few buildings spared from destruction during Heaven's collapse.")
  ShowMessageFace("iriasu_fc4",0,0,2,40)
  ShowMessage("\\n<Ilias>Yes. As I recall, the Hall of Creation was located to the south of Snow Heaven. Before we head to Ilias Temple, we should welcome the two of them as reassuring companions.")
  ShowMessageFace("eden_fc1",1,0,2,41)
  ShowMessage("\\n<Eden>The two, as companions...")
  ShowMessageFace("sonia_fc2",2,0,2,42)
  ShowMessage("\\n<Sonya>Is this okay with you, Luka...?")
  ShowMessageFace("ruka_fc1",0,0,2,43)
  ShowMessage("\\n<Luka>My mother reborn, huh...?\nI'm not sure how to feel about this, but I'd definitely like to meet her.")
  ShowMessageFace("iriasu_fc4",0,0,2,44)
  ShowMessage("\\n<Ilias>For now, let's leave this cold place right away. Praying naked in a place like this... Are you an idiot, Eden?")
  ShowMessageFace("eden_fc1",0,0,2,45)
  ShowMessage("\\n<Eden>Ahh... Ilias' words echo so warmly in my ears...")
  ShowMessageFace("sonia_fc4",0,0,2,46)
  ShowMessage("\\n<Sonya>She's been trained perfectly...")
  355("gain_medal(61)")
  ChangeVariable(1076,1076,0,0,5)
  ChangeVariable(1077,1077,0,0,1)
  241(bytes(0x04,0x08,0x6f,0x3a,0x0d,0x52,0x50,0x47,0x3a,0x3a,0x42,0x47,0x4d,0x08,0x3a,0x0a,0x40,0x6e,0x61,0x6d,0x65,0x49,0x22,0x12,0x64,0x75,0x6e,0x67,0x65,0x6f,0x6e,0x5f,0x73,0x69,0x6e,0x70,0x69,0x06,0x3a,0x06,0x45,0x54,0x3a,0x0c,0x40,0x76,0x6f,0x6c,0x75,0x6d,0x65,0x69,0x69,0x3a,0x0b,0x40,0x70,0x69,0x74,0x63,0x68,0x69,0x69))
  314(0,0)
  EndEventProcessing()
  0()
 PAGE   3
  // condition: switch 2167 is ON
  0()



EVENT   11
 PAGE   1
  // condition: variable 1076 >= 4
  ShowMessageFace("ruka_fc1",0,0,2,1)
  ShowMessage("\\n<Luka>The head angel...isn't here.")
  If(0,4,0)
   ShowMessageFace("alice_fc5",0,0,2,2)
   ShowMessage("\\n<Alice>Is she deeper inside?")
   0()
  EndIf()
  If(0,5,0)
   ShowMessageFace("iriasu_fc4",2,0,2,3)
   ShowMessage("\\n<Ilias>Perhaps she is further inside?")
   0()
  EndIf()
  0()
 PAGE   2
  // condition: variable 1076 >= 5
  0()



EVENT   12
 PAGE   1
  // condition: variable 1076 >= 4
  ShowMessageFace("ruka_fc1",0,0,2,1)
  ShowMessage("\\n<Luka>The head angel...doesn't seem to be here.")
  If(0,4,0)
   ShowMessageFace("alice_fc5",0,0,2,2)
   ShowMessage("\\n<Alice>No, this place runs deeper.\nKeep going.")
   0()
  EndIf()
  If(0,5,0)
   ShowMessageFace("iriasu_fc4",2,0,2,3)
   ShowMessage("\\n<Ilias>No, this place runs deeper.\nLet us press on.")
   0()
  EndIf()
  0()
 PAGE   2
  // condition: variable 1076 >= 5
  0()
