


EVENT   1
 PAGE   1
  0()



EVENT   2
 PAGE   1
  0()



EVENT   3
 PAGE   1
  0()



EVENT   4
 PAGE   1
  0()



EVENT   5
 PAGE   1
  0()



EVENT   6
 PAGE   1
  0()



EVENT   7
 PAGE   1
  0()



EVENT   8
 PAGE   1
  0()



EVENT   9
 PAGE   1
  0()



EVENT   10
 PAGE   1
  0()



EVENT   11
 PAGE   1
  0()



EVENT   12
 PAGE   1
  0()



EVENT   13
 PAGE   1
  0()



EVENT   14
 PAGE   1
  0()



EVENT   15
 PAGE   1
  0()



EVENT   16
 PAGE   1
  0()



EVENT   17
 PAGE   1
  0()



EVENT   18
 PAGE   1
  0()



EVENT   19
 PAGE   1
  0()



EVENT   20
 PAGE   1
  0()



EVENT   21
 PAGE   1
  // condition: switch 661 is ON
  241(bytes(0x04,0x08,0x6f,0x3a,0x0d,0x52,0x50,0x47,0x3a,0x3a,0x42,0x47,0x4d,0x08,0x3a,0x0a,0x40,0x6e,0x61,0x6d,0x65,0x49,0x22,0x10,0x73,0x63,0x65,0x6e,0x65,0x5f,0x63,0x6f,0x6d,0x69,0x32,0x06,0x3a,0x06,0x45,0x54,0x3a,0x0c,0x40,0x76,0x6f,0x6c,0x75,0x6d,0x65,0x69,0x69,0x3a,0x0b,0x40,0x70,0x69,0x74,0x63,0x68,0x69,0x69))
  ShowMessageFace("poseidones_fc1",1,0,2,1)
  ShowMessage("\\n<Poseidoness>Sounds like you've been dragged into all kinds of trouble, lately. It's been forever since we last drank like this...")
  ShowMessageFace("kraken_fc1",1,0,2,2)
  ShowMessage("\\n<Kraken>Well, at least it's over with now. Things have settled down, more or less... Oh, tentacle's ready.")
  ShowMessageFace("poseidones_fc1",1,0,2,3)
  ShowMessage("\\n<Poseidoness>Mmm, your tentacles go wonderfully with alcohol. We haven't gotten together like this in a while, so why not treat ourselves to some crab? It's on me.")
  ShowMessageFace("kraken_fc1",1,0,2,4)
  ShowMessage("\\n<Kraken>Oooh, your claws are always so meaty...")
  ShowMessageFace("poseidones_fc1",1,0,2,5)
  ShowMessage("\\n<Poseidoness>Delicious, right?")
  ShowMessageFace("kraken_fc1",1,0,2,6)
  ShowMessage("\\n<Kraken>*chomp* *chomp*")
  ShowMessageFace("poseidones_fc1",1,0,2,7)
  ShowMessage("\\n<Poseidoness>*munch* *munch*")
  ShowMessageFace("kraken_fc1",1,0,2,8)
  ShowMessage("\\n<Kraken>Things always go quiet when we're eating crab, for some reason...")
  ShowMessageFace("poseidones_fc1",1,0,2,9)
  ShowMessage("\\n<Poseidoness>Indeed. It's quite strange...")
  ShowMessageFace("",0,0,2,10)
  ShowMessage("\\n<Audience A>I think it's stranger that they can eat themselves like it's totally normal...")
  ShowMessageFace("",0,0,2,11)
  ShowMessage("\\n<Audience B>I'm getting kinda hungry...")
  ShowMessageFace("",0,0,2,12)
  ShowMessage("The audience was wrapped in a bizarre atmosphere...")
  Wait(30)
  221()
  242(1)
  Wait(60)
  211(1)
  281(1)
  TeleportPlayer(0,624,63,27,6,2)
  ChangeSwitch(2119,2119,0)
  222()
  ShowMessageFace("",0,0,2,13)
  ShowMessage("\\n<Manager>Alcohol with squid is the best, isn't it?")
  ShowMessageFace("kraken_fc1",2,0,2,14)
  ShowMessage("\\n<Kraken>Are you mocking me!?")
  ShowMessageFace("",0,0,2,15)
  ShowMessage("\\n<Manager>Huh...? After all that,\\*\\fi now\\*\\fi you get mad...?")
  If(2,"A",1)
   ChangeSelfSwitch("A",0)
   250(bytes(0x04,0x08,0x6f,0x3a,0x0c,0x52,0x50,0x47,0x3a,0x3a,0x53,0x45,0x08,0x3a,0x0a,0x40,0x6e,0x61,0x6d,0x65,0x49,0x22,0x0a,0x49,0x74,0x65,0x6d,0x31,0x06,0x3a,0x06,0x45,0x54,0x3a,0x0b,0x40,0x70,0x69,0x74,0x63,0x68,0x69,0x69,0x3a,0x0c,0x40,0x76,0x6f,0x6c,0x75,0x6d,0x65,0x69,0x55))
   ChangeInventory_Item(431,0,0,3)
   ChangeInventory_Item(433,0,0,10)
   0()
  EndIf()
  ChangeSwitch(2119,2119,1)
  EndEventProcessing()
  0()



EVENT   22
 PAGE   1
  // condition: switch 662 is ON
  241(bytes(0x04,0x08,0x6f,0x3a,0x0d,0x52,0x50,0x47,0x3a,0x3a,0x42,0x47,0x4d,0x08,0x3a,0x0a,0x40,0x6e,0x61,0x6d,0x65,0x49,0x22,0x10,0x73,0x63,0x65,0x6e,0x65,0x5f,0x63,0x6f,0x6d,0x69,0x32,0x06,0x3a,0x06,0x45,0x54,0x3a,0x0c,0x40,0x76,0x6f,0x6c,0x75,0x6d,0x65,0x69,0x69,0x3a,0x0b,0x40,0x70,0x69,0x74,0x63,0x68,0x69,0x69))
  ShowMessageFace("eva_fc1",0,0,2,1)
  ShowMessage("\\n<Eva>I could get addicted to being on stage like this. Feels like I'm ruling the ignorant masses...♪")
  205(34,bytes(0x04,0x08,0x6f,0x3a,0x13,0x52,0x50,0x47,0x3a,0x3a,0x4d,0x6f,0x76,0x65,0x52,0x6f,0x75,0x74,0x65,0x09,0x3a,0x0c,0x40,0x72,0x65,0x70,0x65,0x61,0x74,0x46,0x3a,0x0f,0x40,0x73,0x6b,0x69,0x70,0x70,0x61,0x62,0x6c,0x65,0x46,0x3a,0x0a,0x40,0x77,0x61,0x69,0x74,0x54,0x3a,0x0a,0x40,0x6c,0x69,0x73,0x74,0x5b,0x07,0x6f,0x3a,0x15,0x52,0x50,0x47,0x3a,0x3a,0x4d,0x6f,0x76,0x65,0x43,0x6f,0x6d,0x6d,0x61,0x6e,0x64,0x07,0x3a,0x0a,0x40,0x63,0x6f,0x64,0x65,0x69,0x16,0x3a,0x10,0x40,0x70,0x61,0x72,0x61,0x6d,0x65,0x74,0x65,0x72,0x73,0x5b,0x00,0x6f,0x3b,0x0a,0x07,0x3b,0x0b,0x69,0x00,0x3b,0x0c,0x5b,0x00))
  ShowMessageFace("succubus_fc1",3,0,2,2)
  ShowMessage("\\n<Succubus>Eva... just when are you going to get your act together? I can't believe you're this twisted, even after I fed you so many potatoes...")
  205(33,bytes(0x04,0x08,0x6f,0x3a,0x13,0x52,0x50,0x47,0x3a,0x3a,0x4d,0x6f,0x76,0x65,0x52,0x6f,0x75,0x74,0x65,0x09,0x3a,0x0c,0x40,0x72,0x65,0x70,0x65,0x61,0x74,0x46,0x3a,0x0f,0x40,0x73,0x6b,0x69,0x70,0x70,0x61,0x62,0x6c,0x65,0x46,0x3a,0x0a,0x40,0x77,0x61,0x69,0x74,0x54,0x3a,0x0a,0x40,0x6c,0x69,0x73,0x74,0x5b,0x07,0x6f,0x3a,0x15,0x52,0x50,0x47,0x3a,0x3a,0x4d,0x6f,0x76,0x65,0x43,0x6f,0x6d,0x6d,0x61,0x6e,0x64,0x07,0x3a,0x0a,0x40,0x63,0x6f,0x64,0x65,0x69,0x17,0x3a,0x10,0x40,0x70,0x61,0x72,0x61,0x6d,0x65,0x74,0x65,0x72,0x73,0x5b,0x00,0x6f,0x3b,0x0a,0x07,0x3b,0x0b,0x69,0x00,0x3b,0x0c,0x5b,0x00))
  ShowMessageFace("eva_fc1",2,0,2,3)
  ShowMessage("\\n<Eva>It's\\*\\fi because\\*\\fi you fed me so many damn potatoes that I ended up like this!")
  ShowMessageFace("succubus_fc1",3,0,2,4)
  ShowMessage("\\n<Succubus>And then you set fire to both my crops\\*\\fi and\\*\\fi my house before trying to escape... You were so thorough, too. It was as if you were trying to kill me, rather than simply committing arson.")
  ShowMessageFace("eva_fc1",2,0,2,5)
  ShowMessage("\\n<Eva>Yeah, but you caught me almost right away and buried me out in the fields...")
  ShowMessageFace("succubus_fc1",3,0,2,6)
  ShowMessage("\\n<Succubus>After that, you blew up my house as revenge...")
  ShowMessageFace("eva_fc1",0,0,2,7)
  ShowMessage("\\n<Eva>That was just me being a little tsundere.")
  ShowMessageFace("succubus_fc1",3,0,2,8)
  ShowMessage("\\n<Succubus>That's not tsundere. That's terrorism.")
  ShowMessageFace("",0,0,2,9)
  ShowMessage("\\n<Audience A>You're both kind of awful...")
  ShowMessageFace("",0,0,2,10)
  ShowMessage("\\n<Audience B>Well, whatever. I still want to visit Succubus Village sometime...")
  ShowMessageFace("",0,0,2,11)
  ShowMessage("The audience was wrapped in a strange atmosphere...")
  Wait(30)
  221()
  242(1)
  Wait(60)
  211(1)
  281(1)
  TeleportPlayer(0,624,63,27,6,2)
  ChangeSwitch(2119,2119,0)
  222()
  ShowMessageFace("",0,0,2,12)
  ShowMessage("\\n<Manager>Is Succubus Village accepting new citizens? Perhaps I'll move there, too...")
  If(2,"A",1)
   ChangeSelfSwitch("A",0)
   250(bytes(0x04,0x08,0x6f,0x3a,0x0c,0x52,0x50,0x47,0x3a,0x3a,0x53,0x45,0x08,0x3a,0x0a,0x40,0x6e,0x61,0x6d,0x65,0x49,0x22,0x0a,0x49,0x74,0x65,0x6d,0x31,0x06,0x3a,0x06,0x45,0x54,0x3a,0x0b,0x40,0x70,0x69,0x74,0x63,0x68,0x69,0x69,0x3a,0x0c,0x40,0x76,0x6f,0x6c,0x75,0x6d,0x65,0x69,0x55))
   ChangeInventory_Item(319,0,0,10)
   ChangeInventory_Item(413,0,0,10)
   0()
  EndIf()
  ChangeSwitch(2119,2119,1)
  EndEventProcessing()
  0()



EVENT   23
 PAGE   1
  // condition: switch 663 is ON
  241(bytes(0x04,0x08,0x6f,0x3a,0x0d,0x52,0x50,0x47,0x3a,0x3a,0x42,0x47,0x4d,0x08,0x3a,0x0a,0x40,0x6e,0x61,0x6d,0x65,0x49,0x22,0x0b,0x73,0x74,0x61,0x67,0x65,0x31,0x06,0x3a,0x06,0x45,0x54,0x3a,0x0c,0x40,0x76,0x6f,0x6c,0x75,0x6d,0x65,0x69,0x69,0x3a,0x0b,0x40,0x70,0x69,0x74,0x63,0x68,0x69,0x69))
  ShowMessageFace("renccubus_fc1",1,0,2,1)
  ShowMessage("\\n<Nina>Ummm... Hello, we're here from the [Sisters Heavy Petting Zoo].")
  ShowMessageFace("minccubus_fc1",2,0,2,2)
  ShowMessage("\\n<Serra>Ehehe, we're always welcoming new livestock~♪")
  ShowMessageFace("d_succubus_fc1",0,0,2,3)
  ShowMessage("\\n<Natasha>I'm helping out, too. It's a fun, happy place, so please come along sometime.")
  ShowMessageFace("minccubus_fc1",2,0,2,4)
  ShowMessage("\\n<Serra>All right! Let's do a live milking demonstration! You, in the audience. Come up on stage♪")
  205(7,bytes(0x04,0x08,0x6f,0x3a,0x13,0x52,0x50,0x47,0x3a,0x3a,0x4d,0x6f,0x76,0x65,0x52,0x6f,0x75,0x74,0x65,0x09,0x3a,0x0c,0x40,0x72,0x65,0x70,0x65,0x61,0x74,0x46,0x3a,0x0f,0x40,0x73,0x6b,0x69,0x70,0x70,0x61,0x62,0x6c,0x65,0x46,0x3a,0x0a,0x40,0x77,0x61,0x69,0x74,0x54,0x3a,0x0a,0x40,0x6c,0x69,0x73,0x74,0x5b,0x07,0x6f,0x3a,0x15,0x52,0x50,0x47,0x3a,0x3a,0x4d,0x6f,0x76,0x65,0x43,0x6f,0x6d,0x6d,0x61,0x6e,0x64,0x07,0x3a,0x0a,0x40,0x63,0x6f,0x64,0x65,0x69,0x13,0x3a,0x10,0x40,0x70,0x61,0x72,0x61,0x6d,0x65,0x74,0x65,0x72,0x73,0x5b,0x07,0x69,0x00,0x69,0xf9,0x6f,0x3b,0x0a,0x07,0x3b,0x0b,0x69,0x00,0x3b,0x0c,0x5b,0x00))
  ShowMessageFace("",0,0,2,5)
  ShowMessage("\\n<Audience A>Ooh, I've always wanted to taste milk fresh from the teat! But, where's the cow...?")
  205(36,bytes(0x04,0x08,0x6f,0x3a,0x13,0x52,0x50,0x47,0x3a,0x3a,0x4d,0x6f,0x76,0x65,0x52,0x6f,0x75,0x74,0x65,0x09,0x3a,0x0c,0x40,0x72,0x65,0x70,0x65,0x61,0x74,0x46,0x3a,0x0f,0x40,0x73,0x6b,0x69,0x70,0x70,0x61,0x62,0x6c,0x65,0x46,0x3a,0x0a,0x40,0x77,0x61,0x69,0x74,0x54,0x3a,0x0a,0x40,0x6c,0x69,0x73,0x74,0x5b,0x07,0x6f,0x3a,0x15,0x52,0x50,0x47,0x3a,0x3a,0x4d,0x6f,0x76,0x65,0x43,0x6f,0x6d,0x6d,0x61,0x6e,0x64,0x07,0x3a,0x0a,0x40,0x63,0x6f,0x64,0x65,0x69,0x06,0x3a,0x10,0x40,0x70,0x61,0x72,0x61,0x6d,0x65,0x74,0x65,0x72,0x73,0x5b,0x00,0x6f,0x3b,0x0a,0x07,0x3b,0x0b,0x69,0x00,0x3b,0x0c,0x5b,0x00))
  ShowMessageFace("",0,0,2,6)
  ShowMessage("\\n<Audience A>...Ah!")
  ShowMessageFace("",0,0,2,7)
  ShowMessage("\\n<Audience A>Ahiiiiiii...!!")
  RunCommonEvent(104)
  RunCommonEvent(105)
  Wait(60)
  ShowMessageFace("renccubus_fc1",2,0,2,8)
  ShowMessage("\\n<Nina>You're up next! Come up on stage!")
  205(6,bytes(0x04,0x08,0x6f,0x3a,0x13,0x52,0x50,0x47,0x3a,0x3a,0x4d,0x6f,0x76,0x65,0x52,0x6f,0x75,0x74,0x65,0x09,0x3a,0x0c,0x40,0x72,0x65,0x70,0x65,0x61,0x74,0x46,0x3a,0x0f,0x40,0x73,0x6b,0x69,0x70,0x70,0x61,0x62,0x6c,0x65,0x46,0x3a,0x0a,0x40,0x77,0x61,0x69,0x74,0x54,0x3a,0x0a,0x40,0x6c,0x69,0x73,0x74,0x5b,0x07,0x6f,0x3a,0x15,0x52,0x50,0x47,0x3a,0x3a,0x4d,0x6f,0x76,0x65,0x43,0x6f,0x6d,0x6d,0x61,0x6e,0x64,0x07,0x3a,0x0a,0x40,0x63,0x6f,0x64,0x65,0x69,0x13,0x3a,0x10,0x40,0x70,0x61,0x72,0x61,0x6d,0x65,0x74,0x65,0x72,0x73,0x5b,0x07,0x69,0x00,0x69,0xf9,0x6f,0x3b,0x0a,0x07,0x3b,0x0b,0x69,0x00,0x3b,0x0c,0x5b,0x00))
  205(37,bytes(0x04,0x08,0x6f,0x3a,0x13,0x52,0x50,0x47,0x3a,0x3a,0x4d,0x6f,0x76,0x65,0x52,0x6f,0x75,0x74,0x65,0x09,0x3a,0x0c,0x40,0x72,0x65,0x70,0x65,0x61,0x74,0x46,0x3a,0x0f,0x40,0x73,0x6b,0x69,0x70,0x70,0x61,0x62,0x6c,0x65,0x46,0x3a,0x0a,0x40,0x77,0x61,0x69,0x74,0x54,0x3a,0x0a,0x40,0x6c,0x69,0x73,0x74,0x5b,0x07,0x6f,0x3a,0x15,0x52,0x50,0x47,0x3a,0x3a,0x4d,0x6f,0x76,0x65,0x43,0x6f,0x6d,0x6d,0x61,0x6e,0x64,0x07,0x3a,0x0a,0x40,0x63,0x6f,0x64,0x65,0x69,0x06,0x3a,0x10,0x40,0x70,0x61,0x72,0x61,0x6d,0x65,0x74,0x65,0x72,0x73,0x5b,0x00,0x6f,0x3b,0x0a,0x07,0x3b,0x0b,0x69,0x00,0x3b,0x0c,0x5b,0x00))
  ShowMessageFace("",0,0,2,9)
  ShowMessage("\\n<Audience B>N-nooooo~~!!")
  RunCommonEvent(104)
  RunCommonEvent(105)
  Wait(60)
  ShowMessageFace("d_succubus_fc1",0,0,2,10)
  ShowMessage("\\n<Natasha>You, over there. Please, come up on stage...")
  205(1,bytes(0x04,0x08,0x6f,0x3a,0x13,0x52,0x50,0x47,0x3a,0x3a,0x4d,0x6f,0x76,0x65,0x52,0x6f,0x75,0x74,0x65,0x09,0x3a,0x0c,0x40,0x72,0x65,0x70,0x65,0x61,0x74,0x46,0x3a,0x0f,0x40,0x73,0x6b,0x69,0x70,0x70,0x61,0x62,0x6c,0x65,0x46,0x3a,0x0a,0x40,0x77,0x61,0x69,0x74,0x54,0x3a,0x0a,0x40,0x6c,0x69,0x73,0x74,0x5b,0x07,0x6f,0x3a,0x15,0x52,0x50,0x47,0x3a,0x3a,0x4d,0x6f,0x76,0x65,0x43,0x6f,0x6d,0x6d,0x61,0x6e,0x64,0x07,0x3a,0x0a,0x40,0x63,0x6f,0x64,0x65,0x69,0x13,0x3a,0x10,0x40,0x70,0x61,0x72,0x61,0x6d,0x65,0x74,0x65,0x72,0x73,0x5b,0x07,0x69,0x00,0x69,0xf9,0x6f,0x3b,0x0a,0x07,0x3b,0x0b,0x69,0x00,0x3b,0x0c,0x5b,0x00))
  205(35,bytes(0x04,0x08,0x6f,0x3a,0x13,0x52,0x50,0x47,0x3a,0x3a,0x4d,0x6f,0x76,0x65,0x52,0x6f,0x75,0x74,0x65,0x09,0x3a,0x0c,0x40,0x72,0x65,0x70,0x65,0x61,0x74,0x46,0x3a,0x0f,0x40,0x73,0x6b,0x69,0x70,0x70,0x61,0x62,0x6c,0x65,0x46,0x3a,0x0a,0x40,0x77,0x61,0x69,0x74,0x54,0x3a,0x0a,0x40,0x6c,0x69,0x73,0x74,0x5b,0x07,0x6f,0x3a,0x15,0x52,0x50,0x47,0x3a,0x3a,0x4d,0x6f,0x76,0x65,0x43,0x6f,0x6d,0x6d,0x61,0x6e,0x64,0x07,0x3a,0x0a,0x40,0x63,0x6f,0x64,0x65,0x69,0x06,0x3a,0x10,0x40,0x70,0x61,0x72,0x61,0x6d,0x65,0x74,0x65,0x72,0x73,0x5b,0x00,0x6f,0x3b,0x0a,0x07,0x3b,0x0b,0x69,0x00,0x3b,0x0c,0x5b,0x00))
  ShowMessageFace("",0,0,2,11)
  ShowMessage("\\n<Audience C>C-Cummingggg~~!!")
  RunCommonEvent(104)
  RunCommonEvent(105)
  Wait(60)
  ShowMessageFace("renccubus_fc1",1,0,2,12)
  ShowMessage("\\n<Nina>So, if you're ever passing through Succubus Village, please feel free to stop by the [Sisters Heavy Petting Zoo]!")
  ShowMessageFace("minccubus_fc1",2,0,2,13)
  ShowMessage("\\n<Serra>We'll be waiting~♪")
  ShowMessageFace("",0,0,2,14)
  ShowMessage("The audience fell completely silent...")
  Wait(30)
  221()
  242(1)
  Wait(60)
  211(1)
  281(1)
  TeleportPlayer(0,624,63,27,6,2)
  ChangeSwitch(2119,2119,0)
  222()
  ShowMessageFace("",0,0,2,15)
  ShowMessage("\\n<Manager>The stage is drenched with milk. Please, clean up after yourselves...")
  If(2,"A",1)
   ChangeSelfSwitch("A",0)
   250(bytes(0x04,0x08,0x6f,0x3a,0x0c,0x52,0x50,0x47,0x3a,0x3a,0x53,0x45,0x08,0x3a,0x0a,0x40,0x6e,0x61,0x6d,0x65,0x49,0x22,0x0a,0x49,0x74,0x65,0x6d,0x31,0x06,0x3a,0x06,0x45,0x54,0x3a,0x0b,0x40,0x70,0x69,0x74,0x63,0x68,0x69,0x69,0x3a,0x0c,0x40,0x76,0x6f,0x6c,0x75,0x6d,0x65,0x69,0x55))
   ChangeInventoryArmor(1482,0,0,1,false)
   0()
  EndIf()
  ChangeSwitch(2119,2119,1)
  EndEventProcessing()
  0()



EVENT   24
 PAGE   1
  // condition: switch 664 is ON
  241(bytes(0x04,0x08,0x6f,0x3a,0x0d,0x52,0x50,0x47,0x3a,0x3a,0x42,0x47,0x4d,0x08,0x3a,0x0a,0x40,0x6e,0x61,0x6d,0x65,0x49,0x22,0x09,0x73,0x61,0x6b,0x69,0x06,0x3a,0x06,0x45,0x54,0x3a,0x0c,0x40,0x76,0x6f,0x6c,0x75,0x6d,0x65,0x69,0x69,0x3a,0x0b,0x40,0x70,0x69,0x74,0x63,0x68,0x69,0x69))
  ShowMessageFace("emily_fc1",1,0,2,1)
  ShowMessage("\\n<Emily>Hug you♪\nUntil your heart is in my hands!♪\nHug you♪\nForcibly steal your lips!♪")
  ShowMessageFace("",0,0,2,2)
  ShowMessage("\\n<Audience A>Uooohhhh! Emily-chaaaan!")
  ShowMessageFace("",0,0,2,3)
  ShowMessage("\\n<Audience B>Her tentacles are so cute!")
  ShowMessageFace("cassandra_fc1",5,0,2,4)
  ShowMessage("\\n<Cassandra>I'll take you there♪\nTowards the sky!♪\nI'll take you there♪\nTo the abyss of dreams!♪")
  ShowMessageFace("",0,0,2,5)
  ShowMessage("\\n<Audience C>Nuoohhhh! Cassandra-oneesaaaan!")
  ShowMessageFace("",0,0,2,6)
  ShowMessage("\\n<Audience D>She's so slimy and perfect!")
  ShowMessageFace("maidscyulla_fc1",1,0,2,7)
  ShowMessage("\\n<Ran>(Lord Cassandra, Lady Emily... please, do your best...)")
  ShowMessageFace("",0,0,2,8)
  ShowMessage("\\n<Audience E>Uooohhhh! Ran-saaaan!!")
  ShowMessageFace("maidscyulla_fc1",3,0,2,9)
  ShowMessage("\\n<Ran>...They're cheering for me, too!?")
  ShowMessageFace("saki_fc1",0,0,2,10)
  ShowMessage("\\n<Saki>We should form an idol group...♪")
  ShowMessageFace("",0,0,2,11)
  ShowMessage("The performance was a great success!")
  Wait(30)
  221()
  242(1)
  Wait(60)
  211(1)
  281(1)
  TeleportPlayer(0,624,63,27,6,2)
  ChangeSwitch(2119,2119,0)
  222()
  ShowMessageFace("",0,0,2,12)
  ShowMessage("\\n<Manager>It would be wonderful if you could become as successful as Saki-chan.")
  If(2,"A",1)
   ChangeSelfSwitch("A",0)
   250(bytes(0x04,0x08,0x6f,0x3a,0x0c,0x52,0x50,0x47,0x3a,0x3a,0x53,0x45,0x08,0x3a,0x0a,0x40,0x6e,0x61,0x6d,0x65,0x49,0x22,0x0a,0x49,0x74,0x65,0x6d,0x31,0x06,0x3a,0x06,0x45,0x54,0x3a,0x0b,0x40,0x70,0x69,0x74,0x63,0x68,0x69,0x69,0x3a,0x0c,0x40,0x76,0x6f,0x6c,0x75,0x6d,0x65,0x69,0x55))
   ChangeInventoryArmor(1406,0,0,1,false)
   0()
  EndIf()
  ChangeSwitch(2119,2119,1)
  EndEventProcessing()
  0()



EVENT   25
 PAGE   1
  // condition: switch 665 is ON
  241(bytes(0x04,0x08,0x6f,0x3a,0x0d,0x52,0x50,0x47,0x3a,0x3a,0x42,0x47,0x4d,0x08,0x3a,0x0a,0x40,0x6e,0x61,0x6d,0x65,0x49,0x22,0x10,0x73,0x63,0x65,0x6e,0x65,0x5f,0x63,0x6f,0x6d,0x69,0x32,0x06,0x3a,0x06,0x45,0x54,0x3a,0x0c,0x40,0x76,0x6f,0x6c,0x75,0x6d,0x65,0x69,0x69,0x3a,0x0b,0x40,0x70,0x69,0x74,0x63,0x68,0x69,0x69))
  ShowMessageFace("queenelf_fc1",0,0,2,1)
  ShowMessage("\\n<Freya>Where on earth is this \"Elves are lewd\" slander coming from...? San, has your investigation yielded any clues?")
  205(41,bytes(0x04,0x08,0x6f,0x3a,0x13,0x52,0x50,0x47,0x3a,0x3a,0x4d,0x6f,0x76,0x65,0x52,0x6f,0x75,0x74,0x65,0x09,0x3a,0x0c,0x40,0x72,0x65,0x70,0x65,0x61,0x74,0x46,0x3a,0x0f,0x40,0x73,0x6b,0x69,0x70,0x70,0x61,0x62,0x6c,0x65,0x46,0x3a,0x0a,0x40,0x77,0x61,0x69,0x74,0x46,0x3a,0x0a,0x40,0x6c,0x69,0x73,0x74,0x5b,0x07,0x6f,0x3a,0x15,0x52,0x50,0x47,0x3a,0x3a,0x4d,0x6f,0x76,0x65,0x43,0x6f,0x6d,0x6d,0x61,0x6e,0x64,0x07,0x3a,0x0a,0x40,0x63,0x6f,0x64,0x65,0x69,0x17,0x3a,0x10,0x40,0x70,0x61,0x72,0x61,0x6d,0x65,0x74,0x65,0x72,0x73,0x5b,0x00,0x6f,0x3b,0x0a,0x07,0x3b,0x0b,0x69,0x00,0x3b,0x0c,0x5b,0x00))
  205(42,bytes(0x04,0x08,0x6f,0x3a,0x13,0x52,0x50,0x47,0x3a,0x3a,0x4d,0x6f,0x76,0x65,0x52,0x6f,0x75,0x74,0x65,0x09,0x3a,0x0c,0x40,0x72,0x65,0x70,0x65,0x61,0x74,0x46,0x3a,0x0f,0x40,0x73,0x6b,0x69,0x70,0x70,0x61,0x62,0x6c,0x65,0x46,0x3a,0x0a,0x40,0x77,0x61,0x69,0x74,0x54,0x3a,0x0a,0x40,0x6c,0x69,0x73,0x74,0x5b,0x07,0x6f,0x3a,0x15,0x52,0x50,0x47,0x3a,0x3a,0x4d,0x6f,0x76,0x65,0x43,0x6f,0x6d,0x6d,0x61,0x6e,0x64,0x07,0x3a,0x0a,0x40,0x63,0x6f,0x64,0x65,0x69,0x16,0x3a,0x10,0x40,0x70,0x61,0x72,0x61,0x6d,0x65,0x74,0x65,0x72,0x73,0x5b,0x00,0x6f,0x3b,0x0a,0x07,0x3b,0x0b,0x69,0x00,0x3b,0x0c,0x5b,0x00))
  ShowMessageFace("amazoneself_fc1",0,0,2,2)
  ShowMessage("\\n<San>I interrogated a member of the audience, but he insisted on playing dumb.")
  ShowMessageFace("queenelf_fc1",0,0,2,3)
  ShowMessage("\\n<Freya>I see... Then give him his punishment. Rape him until he's a twitching, screaming mess.")
  205(42,bytes(0x04,0x08,0x6f,0x3a,0x13,0x52,0x50,0x47,0x3a,0x3a,0x4d,0x6f,0x76,0x65,0x52,0x6f,0x75,0x74,0x65,0x09,0x3a,0x0c,0x40,0x72,0x65,0x70,0x65,0x61,0x74,0x46,0x3a,0x0f,0x40,0x73,0x6b,0x69,0x70,0x70,0x61,0x62,0x6c,0x65,0x46,0x3a,0x0a,0x40,0x77,0x61,0x69,0x74,0x54,0x3a,0x0a,0x40,0x6c,0x69,0x73,0x74,0x5b,0x07,0x6f,0x3a,0x15,0x52,0x50,0x47,0x3a,0x3a,0x4d,0x6f,0x76,0x65,0x43,0x6f,0x6d,0x6d,0x61,0x6e,0x64,0x07,0x3a,0x0a,0x40,0x63,0x6f,0x64,0x65,0x69,0x17,0x3a,0x10,0x40,0x70,0x61,0x72,0x61,0x6d,0x65,0x74,0x65,0x72,0x73,0x5b,0x00,0x6f,0x3b,0x0a,0x07,0x3b,0x0b,0x69,0x00,0x3b,0x0c,0x5b,0x00))
  ShowMessageFace("amazoneself_fc1",1,0,2,4)
  ShowMessage("\\n<San>Got it! Prepare yourself!!")
  ShowMessageFace("",0,0,2,5)
  ShowMessage("\\n<Audience A>Hiiaaaa...!!")
  205(41,bytes(0x04,0x08,0x6f,0x3a,0x13,0x52,0x50,0x47,0x3a,0x3a,0x4d,0x6f,0x76,0x65,0x52,0x6f,0x75,0x74,0x65,0x09,0x3a,0x0c,0x40,0x72,0x65,0x70,0x65,0x61,0x74,0x46,0x3a,0x0f,0x40,0x73,0x6b,0x69,0x70,0x70,0x61,0x62,0x6c,0x65,0x46,0x3a,0x0a,0x40,0x77,0x61,0x69,0x74,0x46,0x3a,0x0a,0x40,0x6c,0x69,0x73,0x74,0x5b,0x07,0x6f,0x3a,0x15,0x52,0x50,0x47,0x3a,0x3a,0x4d,0x6f,0x76,0x65,0x43,0x6f,0x6d,0x6d,0x61,0x6e,0x64,0x07,0x3a,0x0a,0x40,0x63,0x6f,0x64,0x65,0x69,0x16,0x3a,0x10,0x40,0x70,0x61,0x72,0x61,0x6d,0x65,0x74,0x65,0x72,0x73,0x5b,0x00,0x6f,0x3b,0x0a,0x07,0x3b,0x0b,0x69,0x00,0x3b,0x0c,0x5b,0x00))
  ShowMessageFace("queenelf_fc1",0,0,2,6)
  ShowMessage("\\n<Freya>And on your end, Claudia? Did he tell you where this slander might be coming from?")
  205(43,bytes(0x04,0x08,0x6f,0x3a,0x13,0x52,0x50,0x47,0x3a,0x3a,0x4d,0x6f,0x76,0x65,0x52,0x6f,0x75,0x74,0x65,0x09,0x3a,0x0c,0x40,0x72,0x65,0x70,0x65,0x61,0x74,0x46,0x3a,0x0f,0x40,0x73,0x6b,0x69,0x70,0x70,0x61,0x62,0x6c,0x65,0x46,0x3a,0x0a,0x40,0x77,0x61,0x69,0x74,0x54,0x3a,0x0a,0x40,0x6c,0x69,0x73,0x74,0x5b,0x07,0x6f,0x3a,0x15,0x52,0x50,0x47,0x3a,0x3a,0x4d,0x6f,0x76,0x65,0x43,0x6f,0x6d,0x6d,0x61,0x6e,0x64,0x07,0x3a,0x0a,0x40,0x63,0x6f,0x64,0x65,0x69,0x17,0x3a,0x10,0x40,0x70,0x61,0x72,0x61,0x6d,0x65,0x74,0x65,0x72,0x73,0x5b,0x00,0x6f,0x3b,0x0a,0x07,0x3b,0x0b,0x69,0x00,0x3b,0x0c,0x5b,0x00))
  ShowMessageFace("elf_fc1",0,0,2,7)
  ShowMessage("\\n<Claudia>He said he believes the author of the Monster Book may be to blame...")
  ShowMessageFace("queenelf_fc1",0,0,2,8)
  ShowMessage("\\n<Freya>I see... Then, for his cooperation, you may reward him with the sweetest pleasure known to man.")
  205(43,bytes(0x04,0x08,0x6f,0x3a,0x13,0x52,0x50,0x47,0x3a,0x3a,0x4d,0x6f,0x76,0x65,0x52,0x6f,0x75,0x74,0x65,0x09,0x3a,0x0c,0x40,0x72,0x65,0x70,0x65,0x61,0x74,0x46,0x3a,0x0f,0x40,0x73,0x6b,0x69,0x70,0x70,0x61,0x62,0x6c,0x65,0x46,0x3a,0x0a,0x40,0x77,0x61,0x69,0x74,0x54,0x3a,0x0a,0x40,0x6c,0x69,0x73,0x74,0x5b,0x07,0x6f,0x3a,0x15,0x52,0x50,0x47,0x3a,0x3a,0x4d,0x6f,0x76,0x65,0x43,0x6f,0x6d,0x6d,0x61,0x6e,0x64,0x07,0x3a,0x0a,0x40,0x63,0x6f,0x64,0x65,0x69,0x16,0x3a,0x10,0x40,0x70,0x61,0x72,0x61,0x6d,0x65,0x74,0x65,0x72,0x73,0x5b,0x00,0x6f,0x3b,0x0a,0x07,0x3b,0x0b,0x69,0x00,0x3b,0x0c,0x5b,0x00))
  ShowMessageFace("elf_fc1",1,0,2,9)
  ShowMessage("\\n<Claudia>All right! Hope you're ready...♪")
  ShowMessageFace("",0,0,2,10)
  ShowMessage("\\n<Audience B>Fuaaahhhh~~!!")
  205(41,bytes(0x04,0x08,0x6f,0x3a,0x13,0x52,0x50,0x47,0x3a,0x3a,0x4d,0x6f,0x76,0x65,0x52,0x6f,0x75,0x74,0x65,0x09,0x3a,0x0c,0x40,0x72,0x65,0x70,0x65,0x61,0x74,0x46,0x3a,0x0f,0x40,0x73,0x6b,0x69,0x70,0x70,0x61,0x62,0x6c,0x65,0x46,0x3a,0x0a,0x40,0x77,0x61,0x69,0x74,0x46,0x3a,0x0a,0x40,0x6c,0x69,0x73,0x74,0x5b,0x07,0x6f,0x3a,0x15,0x52,0x50,0x47,0x3a,0x3a,0x4d,0x6f,0x76,0x65,0x43,0x6f,0x6d,0x6d,0x61,0x6e,0x64,0x07,0x3a,0x0a,0x40,0x63,0x6f,0x64,0x65,0x69,0x15,0x3a,0x10,0x40,0x70,0x61,0x72,0x61,0x6d,0x65,0x74,0x65,0x72,0x73,0x5b,0x00,0x6f,0x3b,0x0a,0x07,0x3b,0x0b,0x69,0x00,0x3b,0x0c,0x5b,0x00))
  ShowMessageFace("queenelf_fc1",0,0,2,11)
  ShowMessage("\\n<Freya>Elves are a most proud and noble race... Who could be behind such cruel, baseless rumors...?")
  ShowMessageFace("",0,0,2,12)
  ShowMessage("\\n<Audience C>(I knew it, elves are super lewd, man...)")
  ShowMessageFace("",0,0,2,13)
  ShowMessage("The audience fell completely silent...")
  Wait(30)
  221()
  242(1)
  Wait(60)
  211(1)
  281(1)
  TeleportPlayer(0,624,63,27,6,2)
  ChangeSwitch(2119,2119,0)
  222()
  ShowMessageFace("",0,0,2,14)
  ShowMessage("\\n<Manager>(Indeed, elves are most certainly lewd...)")
  If(2,"A",1)
   ChangeSelfSwitch("A",0)
   250(bytes(0x04,0x08,0x6f,0x3a,0x0c,0x52,0x50,0x47,0x3a,0x3a,0x53,0x45,0x08,0x3a,0x0a,0x40,0x6e,0x61,0x6d,0x65,0x49,0x22,0x0a,0x49,0x74,0x65,0x6d,0x31,0x06,0x3a,0x06,0x45,0x54,0x3a,0x0b,0x40,0x70,0x69,0x74,0x63,0x68,0x69,0x69,0x3a,0x0c,0x40,0x76,0x6f,0x6c,0x75,0x6d,0x65,0x69,0x55))
   ChangeInventory_Item(21,0,0,10)
   ChangeInventory_Item(33,0,0,3)
   0()
  EndIf()
  ChangeSwitch(2119,2119,1)
  EndEventProcessing()
  0()



EVENT   26
 PAGE   1
  // condition: switch 666 is ON
  241(bytes(0x04,0x08,0x6f,0x3a,0x0d,0x52,0x50,0x47,0x3a,0x3a,0x42,0x47,0x4d,0x08,0x3a,0x0a,0x40,0x6e,0x61,0x6d,0x65,0x49,0x22,0x0b,0x73,0x74,0x61,0x67,0x65,0x34,0x06,0x3a,0x06,0x45,0x54,0x3a,0x0c,0x40,0x76,0x6f,0x6c,0x75,0x6d,0x65,0x69,0x69,0x3a,0x0b,0x40,0x70,0x69,0x74,0x63,0x68,0x69,0x69))
  ShowMessageFace("queenfairy_fc1",0,0,2,1)
  ShowMessage("\\n<Airy>Oho, what a pretty flower...")
  205(44,bytes(0x04,0x08,0x6f,0x3a,0x13,0x52,0x50,0x47,0x3a,0x3a,0x4d,0x6f,0x76,0x65,0x52,0x6f,0x75,0x74,0x65,0x09,0x3a,0x0c,0x40,0x72,0x65,0x70,0x65,0x61,0x74,0x46,0x3a,0x0f,0x40,0x73,0x6b,0x69,0x70,0x70,0x61,0x62,0x6c,0x65,0x46,0x3a,0x0a,0x40,0x77,0x61,0x69,0x74,0x54,0x3a,0x0a,0x40,0x6c,0x69,0x73,0x74,0x5b,0x09,0x6f,0x3a,0x15,0x52,0x50,0x47,0x3a,0x3a,0x4d,0x6f,0x76,0x65,0x43,0x6f,0x6d,0x6d,0x61,0x6e,0x64,0x07,0x3a,0x0a,0x40,0x63,0x6f,0x64,0x65,0x69,0x06,0x3a,0x10,0x40,0x70,0x61,0x72,0x61,0x6d,0x65,0x74,0x65,0x72,0x73,0x5b,0x00,0x6f,0x3b,0x0a,0x07,0x3b,0x0b,0x69,0x06,0x3b,0x0c,0x5b,0x00,0x6f,0x3b,0x0a,0x07,0x3b,0x0b,0x69,0x06,0x3b,0x0c,0x5b,0x00,0x6f,0x3b,0x0a,0x07,0x3b,0x0b,0x69,0x00,0x3b,0x0c,0x5b,0x00))
  ShowMessageFace("fairys_fc1",3,0,2,2)
  ShowMessage("\\n<Fairies>She fell for it~♪")
  ChangeSwitch(31,31,0)
  205(44,bytes(0x04,0x08,0x6f,0x3a,0x13,0x52,0x50,0x47,0x3a,0x3a,0x4d,0x6f,0x76,0x65,0x52,0x6f,0x75,0x74,0x65,0x09,0x3a,0x0c,0x40,0x72,0x65,0x70,0x65,0x61,0x74,0x46,0x3a,0x0f,0x40,0x73,0x6b,0x69,0x70,0x70,0x61,0x62,0x6c,0x65,0x46,0x3a,0x0a,0x40,0x77,0x61,0x69,0x74,0x46,0x3a,0x0a,0x40,0x6c,0x69,0x73,0x74,0x5b,0x07,0x6f,0x3a,0x15,0x52,0x50,0x47,0x3a,0x3a,0x4d,0x6f,0x76,0x65,0x43,0x6f,0x6d,0x6d,0x61,0x6e,0x64,0x07,0x3a,0x0a,0x40,0x63,0x6f,0x64,0x65,0x69,0x13,0x3a,0x10,0x40,0x70,0x61,0x72,0x61,0x6d,0x65,0x74,0x65,0x72,0x73,0x5b,0x07,0x69,0x00,0x69,0xf9,0x6f,0x3b,0x0a,0x07,0x3b,0x0b,0x69,0x00,0x3b,0x0c,0x5b,0x00))
  ShowMessageFace("queenfairy_fc1",0,0,2,3)
  ShowMessage("\\n<Airy>...Fools!")
  ShowMessageFace("trickfairy_fc1",2,0,2,4)
  ShowMessage("\\n<Sicily>S-She dodged it!")
  250(bytes(0x04,0x08,0x6f,0x3a,0x0c,0x52,0x50,0x47,0x3a,0x3a,0x53,0x45,0x08,0x3a,0x0a,0x40,0x6e,0x61,0x6d,0x65,0x49,0x22,0x0e,0x6d,0x6f,0x6e,0x5f,0x66,0x61,0x6c,0x6c,0x31,0x06,0x3a,0x06,0x45,0x54,0x3a,0x0b,0x40,0x70,0x69,0x74,0x63,0x68,0x69,0x69,0x3a,0x0c,0x40,0x76,0x6f,0x6c,0x75,0x6d,0x65,0x69,0x69))
  ChangeSwitch(32,32,0)
  ShowMessageFace("fairys_fc1",2,0,2,5)
  ShowMessage("\\n<Fairy>Uwahh!")
  ShowMessageFace("queenfairy_fc1",0,0,2,6)
  ShowMessage("\\n<Airy>Gotcha~♪")
  Wait(60)
  ShowMessageFace("",0,0,2,7)
  ShowMessage("\\n<Audience A>As you'd expect from the queen of fairies...")
  ShowMessageFace("",0,0,2,8)
  ShowMessage("The audience somewhat enjoyed themselves!")
  Wait(30)
  221()
  242(1)
  Wait(60)
  211(1)
  281(1)
  TeleportPlayer(0,624,63,27,6,2)
  ChangeSwitch(2119,2119,0)
  ChangeSwitch(31,31,1)
  ChangeSwitch(32,32,1)
  222()
  ShowMessageFace(binary"",0,0,2,9)
  ShowMessage("\\n<Manager>My stage is full of holes, now...")
  If(2,"A",1)
   ChangeSelfSwitch("A",0)
   250(bytes(0x04,0x08,0x6f,0x3a,0x0c,0x52,0x50,0x47,0x3a,0x3a,0x53,0x45,0x08,0x3a,0x0a,0x40,0x6e,0x61,0x6d,0x65,0x49,0x22,0x0a,0x49,0x74,0x65,0x6d,0x31,0x06,0x3a,0x06,0x45,0x54,0x3a,0x0b,0x40,0x70,0x69,0x74,0x63,0x68,0x69,0x69,0x3a,0x0c,0x40,0x76,0x6f,0x6c,0x75,0x6d,0x65,0x69,0x55))
   ChangeInventoryArmor(1538,0,0,1,false)
   0()
  EndIf()
  ChangeSwitch(2119,2119,1)
  EndEventProcessing()
  0()



EVENT   27
 PAGE   1
  // condition: switch 667 is ON
  241(bytes(0x04,0x08,0x6f,0x3a,0x0d,0x52,0x50,0x47,0x3a,0x3a,0x42,0x47,0x4d,0x08,0x3a,0x0a,0x40,0x6e,0x61,0x6d,0x65,0x49,0x22,0x09,0x73,0x61,0x6b,0x69,0x06,0x3a,0x06,0x45,0x54,0x3a,0x0c,0x40,0x76,0x6f,0x6c,0x75,0x6d,0x65,0x69,0x69,0x3a,0x0b,0x40,0x70,0x69,0x74,0x63,0x68,0x69,0x69))
  212(-1,38,false)
  ShowMessageFace("queenalraune_fc1",4,0,2,1)
  ShowMessage("\\n<Alrauna>Hug you♪\nUntil your heart is in my hands♪")
  ShowMessageFace("",0,0,2,2)
  ShowMessage("\\n<Audience A>Alrauna-samaaaaa!!")
  ShowMessageFace("",0,0,2,3)
  ShowMessage("\\n<Audience B>Haaau... My brain is melting...")
  212(-1,38,false)
  ShowMessageFace("queenalraune_fc1",4,0,2,4)
  ShowMessage("\\n<Alrauna>Hug you♪\nForcibly steal your lips♪")
  ShowMessageFace("alraune_fc1",2,0,2,5)
  ShowMessage("\\n<Flora>You're wonderful, Alrauna-sama~♪")
  ShowMessageFace("dryad_fc1",1,0,2,6)
  ShowMessage("\\n<Doria>Ufufu, I've never seen the old queen this happy. She always wanted to be a star...")
  212(-1,38,false)
  ShowMessageFace("queenalraune_fc1",4,0,2,7)
  ShowMessage("\\n<Alrauna>I'll take you there♪\nTowards the sky♪")
  ShowMessageFace("",0,0,2,8)
  ShowMessage("\\n<Audience C>Aahhh... Such a sweet fragrance...")
  ShowMessageFace("",0,0,2,9)
  ShowMessage("\\n<Audience D>Suck me, Alrauna-sama...! Suck me dryyy...")
  212(-1,38,false)
  ShowMessageFace("queenalraune_fc1",4,0,2,10)
  ShowMessage("\\n<Alrauna>I'll take you there♪\nTo the abyss of dreams♪")
  ShowMessageFace("f_alraune_fc1",0,0,2,11)
  ShowMessage("\\n<Aria>...Isn't she just seducing them with her pheromones?")
  ShowMessageFace("f_dryad_fc1",0,0,2,12)
  ShowMessage("\\n<Rachel>No doubt, she'll be the next top idol...♪")
  ShowMessageFace("",0,0,2,13)
  ShowMessage("The performance was a great success!")
  Wait(30)
  221()
  242(1)
  Wait(60)
  211(1)
  281(1)
  TeleportPlayer(0,624,63,27,6,2)
  ChangeSwitch(2119,2119,0)
  222()
  ShowMessageFace("",0,0,2,14)
  ShowMessage("\\n<Manager>Alrauna-samaaa~♪")
  If(2,"A",1)
   ChangeSelfSwitch("A",0)
   250(bytes(0x04,0x08,0x6f,0x3a,0x0c,0x52,0x50,0x47,0x3a,0x3a,0x53,0x45,0x08,0x3a,0x0a,0x40,0x6e,0x61,0x6d,0x65,0x49,0x22,0x0a,0x49,0x74,0x65,0x6d,0x31,0x06,0x3a,0x06,0x45,0x54,0x3a,0x0b,0x40,0x70,0x69,0x74,0x63,0x68,0x69,0x69,0x3a,0x0c,0x40,0x76,0x6f,0x6c,0x75,0x6d,0x65,0x69,0x55))
   ChangeInventoryArmor(1409,0,0,1,false)
   0()
  EndIf()
  ChangeSwitch(2119,2119,1)
  EndEventProcessing()
  0()



EVENT   28
 PAGE   1
  // condition: switch 668 is ON
  241(bytes(0x04,0x08,0x6f,0x3a,0x0d,0x52,0x50,0x47,0x3a,0x3a,0x42,0x47,0x4d,0x08,0x3a,0x0a,0x40,0x6e,0x61,0x6d,0x65,0x49,0x22,0x0b,0x73,0x74,0x61,0x67,0x65,0x34,0x06,0x3a,0x06,0x45,0x54,0x3a,0x0c,0x40,0x76,0x6f,0x6c,0x75,0x6d,0x65,0x69,0x69,0x3a,0x0b,0x40,0x70,0x69,0x74,0x63,0x68,0x69,0x69))
  ShowMessageFace("queenhapy_fc1",2,0,2,1)
  ShowMessage("\\n<Lucretia>Dance, everybody♪")
  ShowMessageFace("hapy_a_fc1",0,0,2,2)
  ShowMessage("\\n<Reina>Yaaay~♪")
  ShowMessageFace("hapy_bc_fc1",1,0,2,3)
  ShowMessage("\\n<Pina & Pii>Lalala~♪")
  ShowMessageFace("queenhapy_fc1",2,0,2,4)
  ShowMessage("\\n<Lucretia>Let's turn up the intensity!♪")
  ShowMessageFace("w_hapy_fc1",0,0,2,5)
  ShowMessage("\\n<Tsubasa>Dance, dance...♪")
  ShowMessageFace("k_hapy_fc1",0,0,2,6)
  ShowMessage("\\n<Kris>My intensity shall know no bounds! Prepare yourselves!")
  ShowMessageFace("queenhapy_fc1",2,0,2,7)
  ShowMessage("\\n<Lucretia>Everybody in the audience, feel free to join in♪")
  ShowMessageFace("",0,0,2,8)
  ShowMessage("\\n<Audience A>Lalala~♪")
  ShowMessageFace("",0,0,2,9)
  ShowMessage("\\n<Audience B>Hey♪ hey♪")
  ShowMessageFace("",0,0,2,10)
  ShowMessage("The performance was a great success!")
  Wait(30)
  221()
  242(1)
  Wait(60)
  211(1)
  281(1)
  TeleportPlayer(0,624,63,27,6,2)
  ChangeSwitch(2119,2119,0)
  222()
  ShowMessageFace("",0,0,2,11)
  ShowMessage("\\n<Manager>The audience won't stop dancing. Could somebody please make them go home...?")
  If(2,"A",1)
   ChangeSelfSwitch("A",0)
   250(bytes(0x04,0x08,0x6f,0x3a,0x0c,0x52,0x50,0x47,0x3a,0x3a,0x53,0x45,0x08,0x3a,0x0a,0x40,0x6e,0x61,0x6d,0x65,0x49,0x22,0x0a,0x49,0x74,0x65,0x6d,0x31,0x06,0x3a,0x06,0x45,0x54,0x3a,0x0b,0x40,0x70,0x69,0x74,0x63,0x68,0x69,0x69,0x3a,0x0c,0x40,0x76,0x6f,0x6c,0x75,0x6d,0x65,0x69,0x55))
   ChangeInventoryArmor(1337,0,0,1,false)
   0()
  EndIf()
  ChangeSwitch(2119,2119,1)
  EndEventProcessing()
  0()



EVENT   29
 PAGE   1
  // condition: switch 669 is ON
  241(bytes(0x04,0x08,0x6f,0x3a,0x0d,0x52,0x50,0x47,0x3a,0x3a,0x42,0x47,0x4d,0x08,0x3a,0x0a,0x40,0x6e,0x61,0x6d,0x65,0x49,0x22,0x13,0x73,0x63,0x65,0x6e,0x65,0x5f,0x6f,0x64,0x61,0x79,0x61,0x6b,0x61,0x31,0x06,0x3a,0x06,0x45,0x54,0x3a,0x0c,0x40,0x76,0x6f,0x6c,0x75,0x6d,0x65,0x69,0x69,0x3a,0x0b,0x40,0x70,0x69,0x74,0x63,0x68,0x69,0x69))
  ShowMessageFace("ningyohime_fc1",4,0,2,1)
  ShowMessage("\\n<El>Wow, there's so many people!")
  ShowMessageFace("",0,0,2,2)
  ShowMessage("\\n<Audience A>Oooh, it's the mermaid princess!")
  ShowMessageFace("",0,0,2,3)
  ShowMessage("\\n<Audience B>She's so cute~♪")
  ShowMessageFace("queenmermaid_fc1",0,0,2,4)
  ShowMessage("\\n<Laura>Perform however you'd like, El...")
  ShowMessageFace("g_marmaid_fc1",0,0,2,5)
  ShowMessage("\\n<Jessie>You can do it, Princess!")
  ShowMessageFace("loreley_fc1",0,0,2,6)
  ShowMessage("\\n<Heine>Do your best...")
  ShowMessageFace("ningyohime_fc1",4,0,2,7)
  ShowMessage("\\n<El>Okay! I'm gonna sing for you!")
  212(60,724,false)
  212(3,724,false)
  212(6,724,false)
  ShowMessageFace("ningyohime_fc1",5,0,2,8)
  ShowMessage("\\n<El>Out at sea~♪ What a place to be~♪")
  ShowMessageFace("",0,0,2,9)
  ShowMessage("\\n<Audience A>Fuaahhh... she's such a cutie...")
  ShowMessageFace("",0,0,2,10)
  ShowMessage("\\n<Audience B>I offer my life in service to you, my princess!")
  ShowMessageFace("queenmermaid_fc1",0,0,2,11)
  ShowMessage("\\n<Laura>(Looks like our sympathizers have multiplied yet again...)")
  ShowMessageFace("",0,0,2,12)
  ShowMessage("The performance was a great success!")
  Wait(30)
  221()
  242(1)
  Wait(60)
  211(1)
  281(1)
  TeleportPlayer(0,624,63,27,6,2)
  ChangeSwitch(2119,2119,0)
  222()
  ShowMessageFace("",0,0,2,13)
  ShowMessage("\\n<Manager>Hehe, uehehehehe... P-Princess, I... I'm your biggest fan... uehheheh...")
  ShowMessageFace("ningyohime_fc2",0,0,2,14)
  ShowMessage("\\n<El>What's with this guy... he's being all creepy~!")
  If(2,"A",1)
   ChangeSelfSwitch("A",0)
   250(bytes(0x04,0x08,0x6f,0x3a,0x0c,0x52,0x50,0x47,0x3a,0x3a,0x53,0x45,0x08,0x3a,0x0a,0x40,0x6e,0x61,0x6d,0x65,0x49,0x22,0x0a,0x49,0x74,0x65,0x6d,0x31,0x06,0x3a,0x06,0x45,0x54,0x3a,0x0b,0x40,0x70,0x69,0x74,0x63,0x68,0x69,0x69,0x3a,0x0c,0x40,0x76,0x6f,0x6c,0x75,0x6d,0x65,0x69,0x55))
   ChangeInventoryArmor(1328,0,0,1,false)
   0()
  EndIf()
  ChangeSwitch(2119,2119,1)
  EndEventProcessing()
  0()



EVENT   30
 PAGE   1
  // condition: switch 670 is ON
  241(bytes(0x04,0x08,0x6f,0x3a,0x0d,0x52,0x50,0x47,0x3a,0x3a,0x42,0x47,0x4d,0x08,0x3a,0x0a,0x40,0x6e,0x61,0x6d,0x65,0x49,0x22,0x10,0x73,0x63,0x65,0x6e,0x65,0x5f,0x63,0x6f,0x6d,0x69,0x32,0x06,0x3a,0x06,0x45,0x54,0x3a,0x0c,0x40,0x76,0x6f,0x6c,0x75,0x6d,0x65,0x69,0x69,0x3a,0x0b,0x40,0x70,0x69,0x74,0x63,0x68,0x69,0x69))
  ShowMessageFace("alakneload_fc1",1,0,2,1)
  ShowMessage("\\n<Aranje>Oho, that's a lot of humans... We can eat all of them, right?")
  ShowMessageFace("tutigumo_fc1",2,0,2,2)
  ShowMessage("\\n<Mizuki>I sincerely doubt that's the case...")
  ShowMessageFace("kumonomiko_fc1",0,0,2,3)
  ShowMessage("\\n<Spider Princess>Quite right. I will not tolerate such barbaric behavior. You will be allowed exactly one human, each.")
  ShowMessageFace("arachnes_fc1",0,0,2,4)
  ShowMessage("\\n<Arachnes>So, we get three of them, right?♪")
  ShowMessageFace("atlach_fc1",0,0,2,5)
  ShowMessage("\\n<Nacha>You are to split one human amongst yourselves.")
  ShowMessageFace("arachnes_fc1",2,0,2,6)
  ShowMessage("\\n<Arachnes>Whyyy!? You're so mean!")
  ShowMessageFace("kumonomiko_fc1",0,0,2,7)
  ShowMessage("\\n<Spider Princess>Very well, then. I will allow each of you one full human.")
  ShowMessageFace("arachnes_fc2",1,0,2,8)
  ShowMessage("\\n<Arachnes A>Hooray~!")
  205(68,bytes(0x04,0x08,0x6f,0x3a,0x13,0x52,0x50,0x47,0x3a,0x3a,0x4d,0x6f,0x76,0x65,0x52,0x6f,0x75,0x74,0x65,0x09,0x3a,0x0c,0x40,0x72,0x65,0x70,0x65,0x61,0x74,0x46,0x3a,0x0f,0x40,0x73,0x6b,0x69,0x70,0x70,0x61,0x62,0x6c,0x65,0x46,0x3a,0x0a,0x40,0x77,0x61,0x69,0x74,0x46,0x3a,0x0a,0x40,0x6c,0x69,0x73,0x74,0x5b,0x07,0x6f,0x3a,0x15,0x52,0x50,0x47,0x3a,0x3a,0x4d,0x6f,0x76,0x65,0x43,0x6f,0x6d,0x6d,0x61,0x6e,0x64,0x07,0x3a,0x0a,0x40,0x63,0x6f,0x64,0x65,0x69,0x13,0x3a,0x10,0x40,0x70,0x61,0x72,0x61,0x6d,0x65,0x74,0x65,0x72,0x73,0x5b,0x07,0x69,0x00,0x69,0x08,0x6f,0x3b,0x0a,0x07,0x3b,0x0b,0x69,0x00,0x3b,0x0c,0x5b,0x00))
  205(69,bytes(0x04,0x08,0x6f,0x3a,0x13,0x52,0x50,0x47,0x3a,0x3a,0x4d,0x6f,0x76,0x65,0x52,0x6f,0x75,0x74,0x65,0x09,0x3a,0x0c,0x40,0x72,0x65,0x70,0x65,0x61,0x74,0x46,0x3a,0x0f,0x40,0x73,0x6b,0x69,0x70,0x70,0x61,0x62,0x6c,0x65,0x46,0x3a,0x0a,0x40,0x77,0x61,0x69,0x74,0x46,0x3a,0x0a,0x40,0x6c,0x69,0x73,0x74,0x5b,0x07,0x6f,0x3a,0x15,0x52,0x50,0x47,0x3a,0x3a,0x4d,0x6f,0x76,0x65,0x43,0x6f,0x6d,0x6d,0x61,0x6e,0x64,0x07,0x3a,0x0a,0x40,0x63,0x6f,0x64,0x65,0x69,0x13,0x3a,0x10,0x40,0x70,0x61,0x72,0x61,0x6d,0x65,0x74,0x65,0x72,0x73,0x5b,0x07,0x69,0x00,0x69,0x07,0x6f,0x3b,0x0a,0x07,0x3b,0x0b,0x69,0x00,0x3b,0x0c,0x5b,0x00))
  205(66,bytes(0x04,0x08,0x6f,0x3a,0x13,0x52,0x50,0x47,0x3a,0x3a,0x4d,0x6f,0x76,0x65,0x52,0x6f,0x75,0x74,0x65,0x09,0x3a,0x0c,0x40,0x72,0x65,0x70,0x65,0x61,0x74,0x46,0x3a,0x0f,0x40,0x73,0x6b,0x69,0x70,0x70,0x61,0x62,0x6c,0x65,0x46,0x3a,0x0a,0x40,0x77,0x61,0x69,0x74,0x46,0x3a,0x0a,0x40,0x6c,0x69,0x73,0x74,0x5b,0x07,0x6f,0x3a,0x15,0x52,0x50,0x47,0x3a,0x3a,0x4d,0x6f,0x76,0x65,0x43,0x6f,0x6d,0x6d,0x61,0x6e,0x64,0x07,0x3a,0x0a,0x40,0x63,0x6f,0x64,0x65,0x69,0x13,0x3a,0x10,0x40,0x70,0x61,0x72,0x61,0x6d,0x65,0x74,0x65,0x72,0x73,0x5b,0x07,0x69,0x00,0x69,0x09,0x6f,0x3b,0x0a,0x07,0x3b,0x0b,0x69,0x00,0x3b,0x0c,0x5b,0x00))
  ShowMessageFace("arachnes_fc3",1,0,2,9)
  ShowMessage("\\n<Arachnes B>Stage dive!")
  ShowMessageFace("",0,0,2,10)
  ShowMessage("\\n<Audience A>Uwaahhh!")
  ShowMessageFace("",0,0,2,11)
  ShowMessage("\\n<Audience B>Somebody, help!!")
  ShowMessageFace("",0,0,2,12)
  ShowMessage("The audience broke out into a huge panic!")
  Wait(30)
  221()
  242(1)
  Wait(60)
  211(1)
  281(1)
  TeleportPlayer(0,624,63,27,6,2)
  ChangeSwitch(2119,2119,0)
  222()
  ShowMessageFace("",0,0,2,13)
  ShowMessage("\\n<Manager>My stage is covered in sticky spider web...")
  If(2,"A",1)
   ChangeSelfSwitch("A",0)
   250(bytes(0x04,0x08,0x6f,0x3a,0x0c,0x52,0x50,0x47,0x3a,0x3a,0x53,0x45,0x08,0x3a,0x0a,0x40,0x6e,0x61,0x6d,0x65,0x49,0x22,0x0a,0x49,0x74,0x65,0x6d,0x31,0x06,0x3a,0x06,0x45,0x54,0x3a,0x0b,0x40,0x70,0x69,0x74,0x63,0x68,0x69,0x69,0x3a,0x0c,0x40,0x76,0x6f,0x6c,0x75,0x6d,0x65,0x69,0x55))
   ChangeInventoryArmor(1646,0,0,1,false)
   0()
  EndIf()
  ChangeSwitch(2119,2119,1)
  EndEventProcessing()
  0()



EVENT   31
 PAGE   1
  // condition: switch 661 is ON
  0()



EVENT   32
 PAGE   1
  // condition: switch 661 is ON
  0()



EVENT   33
 PAGE   1
  // condition: switch 662 is ON
  0()



EVENT   34
 PAGE   1
  // condition: switch 662 is ON
  0()



EVENT   35
 PAGE   1
  // condition: switch 663 is ON
  0()



EVENT   36
 PAGE   1
  // condition: switch 663 is ON
  0()
 PAGE   2
  // condition: switch 670 is ON
  0()



EVENT   37
 PAGE   1
  // condition: switch 663 is ON
  0()



EVENT   38
 PAGE   1
  // condition: switch 664 is ON
  0()



EVENT   39
 PAGE   1
  // condition: switch 664 is ON
  0()



EVENT   40
 PAGE   1
  // condition: switch 664 is ON
  0()



EVENT   41
 PAGE   1
  // condition: switch 665 is ON
  0()



EVENT   42
 PAGE   1
  // condition: switch 665 is ON
  0()



EVENT   43
 PAGE   1
  // condition: switch 665 is ON
  0()



EVENT   44
 PAGE   1
  // condition: switch 666 is ON
  0()



EVENT   45
 PAGE   1
  // condition: switch 666 is ON
  0()
 PAGE   2
  // condition: switch 666 is ON
  // condition: switch 32 is ON
  0()



EVENT   46
 PAGE   1
  // condition: switch 666 is ON
  0()
 PAGE   2
  // condition: switch 666 is ON
  // condition: switch 32 is ON
  0()



EVENT   47
 PAGE   1
  // condition: switch 667 is ON
  0()



EVENT   48
 PAGE   1
  // condition: switch 667 is ON
  0()



EVENT   49
 PAGE   1
  // condition: switch 667 is ON
  0()



EVENT   50
 PAGE   1
  // condition: switch 667 is ON
  0()



EVENT   51
 PAGE   1
  // condition: switch 667 is ON
  0()



EVENT   52
 PAGE   1
  // condition: switch 668 is ON
  0()



EVENT   53
 PAGE   1
  // condition: switch 668 is ON
  0()



EVENT   54
 PAGE   1
  // condition: switch 668 is ON
  0()



EVENT   55
 PAGE   1
  // condition: switch 665 is ON
  0()



EVENT   56
 PAGE   1
  // condition: switch 668 is ON
  0()



EVENT   57
 PAGE   1
  // condition: switch 668 is ON
  0()



EVENT   58
 PAGE   1
  // condition: switch 669 is ON
  0()



EVENT   59
 PAGE   1
  // condition: switch 669 is ON
  0()



EVENT   60
 PAGE   1
  // condition: switch 669 is ON
  0()



EVENT   61
 PAGE   1
  // condition: switch 669 is ON
  0()



EVENT   62
 PAGE   1
  // condition: switch 664 is ON
  0()



EVENT   63
 PAGE   1
  // condition: switch 670 is ON
  0()



EVENT   64
 PAGE   1
  // condition: switch 670 is ON
  0()



EVENT   65
 PAGE   1
  // condition: switch 670 is ON
  0()



EVENT   66
 PAGE   1
  // condition: switch 670 is ON
  0()



EVENT   67
 PAGE   1
  // condition: switch 661 is ON
  0()



EVENT   68
 PAGE   1
  // condition: switch 670 is ON
  0()



EVENT   69
 PAGE   1
  // condition: switch 670 is ON
  0()



EVENT   70
 PAGE   1
  // condition: switch 665 is ON
  0()



EVENT   71
 PAGE   1
  // condition: switch 666 is ON
  0()
 PAGE   2
  // condition: switch 666 is ON
  // condition: switch 32 is ON
  0()



EVENT   72
 PAGE   1
  // condition: switch 666 is ON
  0()
 PAGE   2
  // condition: switch 666 is ON
  // condition: switch 32 is ON
  0()



EVENT   73
 PAGE   1
  // condition: switch 666 is ON
  0()
 PAGE   2
  // condition: switch 666 is ON
  // condition: switch 32 is ON
  0()



EVENT   74
 PAGE   1
  // condition: switch 666 is ON
  0()
 PAGE   2
  // condition: switch 666 is ON
  // condition: switch 32 is ON
  0()



EVENT   75
 PAGE   1
  // condition: switch 666 is ON
  0()
 PAGE   2
  // condition: switch 666 is ON
  // condition: switch 32 is ON
  0()



EVENT   76
 PAGE   1
  // condition: switch 667 is ON
  0()



EVENT   77
 PAGE   1
  // condition: switch 667 is ON
  0()



EVENT   78
 PAGE   1
  // condition: switch 666 is ON
  0()



EVENT   79
 PAGE   1
  // condition: switch 666 is ON
  // condition: switch 31 is ON
  0()
