﻿


EVENT   1
 PAGE   1
  0()



EVENT   2
 PAGE   1
  0()



EVENT   3
 PAGE   1
  0()



EVENT   4
 PAGE   1
  0()



EVENT   5
 PAGE   1
  0()



EVENT   6
 PAGE   1
  0()



EVENT   7
 PAGE   1
  0()



EVENT   8
 PAGE   1
  0()



EVENT   9
 PAGE   1
  0()



EVENT   10
 PAGE   1
  0()



EVENT   11
 PAGE   1
  0()



EVENT   12
 PAGE   1
  0()



EVENT   13
 PAGE   1
  0()



EVENT   14
 PAGE   1
  0()



EVENT   15
 PAGE   1
  250(bytes(0x04,0x08,0x6f,0x3a,0x0c,0x52,0x50,0x47,0x3a,0x3a,0x53,0x45,0x08,0x3a,0x0a,0x40,0x6e,0x61,0x6d,0x65,0x49,0x22,0x09,0x4d,0x6f,0x76,0x65,0x06,0x3a,0x06,0x45,0x54,0x3a,0x0b,0x40,0x70,0x69,0x74,0x63,0x68,0x69,0x69,0x3a,0x0c,0x40,0x76,0x6f,0x6c,0x75,0x6d,0x65,0x69,0x55))
  TeleportPlayer(0,861,10,61,0,0)
  0()



EVENT   16
 PAGE   1
  250(bytes(0x04,0x08,0x6f,0x3a,0x0c,0x52,0x50,0x47,0x3a,0x3a,0x53,0x45,0x08,0x3a,0x0a,0x40,0x6e,0x61,0x6d,0x65,0x49,0x22,0x0a,0x4f,0x70,0x65,0x6e,0x31,0x06,0x3a,0x06,0x45,0x54,0x3a,0x0b,0x40,0x70,0x69,0x74,0x63,0x68,0x69,0x69,0x3a,0x0c,0x40,0x76,0x6f,0x6c,0x75,0x6d,0x65,0x69,0x55))
  205(0,bytes(0x04,0x08,0x6f,0x3a,0x13,0x52,0x50,0x47,0x3a,0x3a,0x4d,0x6f,0x76,0x65,0x52,0x6f,0x75,0x74,0x65,0x09,0x3a,0x0c,0x40,0x72,0x65,0x70,0x65,0x61,0x74,0x46,0x3a,0x0f,0x40,0x73,0x6b,0x69,0x70,0x70,0x61,0x62,0x6c,0x65,0x46,0x3a,0x0a,0x40,0x77,0x61,0x69,0x74,0x54,0x3a,0x0a,0x40,0x6c,0x69,0x73,0x74,0x5b,0x0c,0x6f,0x3a,0x15,0x52,0x50,0x47,0x3a,0x3a,0x4d,0x6f,0x76,0x65,0x43,0x6f,0x6d,0x6d,0x61,0x6e,0x64,0x07,0x3a,0x0a,0x40,0x63,0x6f,0x64,0x65,0x69,0x16,0x3a,0x10,0x40,0x70,0x61,0x72,0x61,0x6d,0x65,0x74,0x65,0x72,0x73,0x5b,0x00,0x6f,0x3b,0x0a,0x07,0x3b,0x0b,0x69,0x14,0x3b,0x0c,0x5b,0x06,0x69,0x08,0x6f,0x3b,0x0a,0x07,0x3b,0x0b,0x69,0x17,0x3b,0x0c,0x5b,0x00,0x6f,0x3b,0x0a,0x07,0x3b,0x0b,0x69,0x14,0x3b,0x0c,0x5b,0x06,0x69,0x08,0x6f,0x3b,0x0a,0x07,0x3b,0x0b,0x69,0x18,0x3b,0x0c,0x5b,0x00,0x6f,0x3b,0x0a,0x07,0x3b,0x0b,0x69,0x2a,0x3b,0x0c,0x5b,0x00,0x6f,0x3b,0x0a,0x07,0x3b,0x0b,0x69,0x00,0x3b,0x0c,0x5b,0x00))
  205(-1,bytes(0x04,0x08,0x6f,0x3a,0x13,0x52,0x50,0x47,0x3a,0x3a,0x4d,0x6f,0x76,0x65,0x52,0x6f,0x75,0x74,0x65,0x09,0x3a,0x0c,0x40,0x72,0x65,0x70,0x65,0x61,0x74,0x46,0x3a,0x0f,0x40,0x73,0x6b,0x69,0x70,0x70,0x61,0x62,0x6c,0x65,0x54,0x3a,0x0a,0x40,0x77,0x61,0x69,0x74,0x54,0x3a,0x0a,0x40,0x6c,0x69,0x73,0x74,0x5b,0x07,0x6f,0x3a,0x15,0x52,0x50,0x47,0x3a,0x3a,0x4d,0x6f,0x76,0x65,0x43,0x6f,0x6d,0x6d,0x61,0x6e,0x64,0x07,0x3a,0x0a,0x40,0x63,0x6f,0x64,0x65,0x69,0x11,0x3a,0x10,0x40,0x70,0x61,0x72,0x61,0x6d,0x65,0x74,0x65,0x72,0x73,0x5b,0x00,0x6f,0x3b,0x0a,0x07,0x3b,0x0b,0x69,0x00,0x3b,0x0c,0x5b,0x00))
  250(bytes(0x04,0x08,0x6f,0x3a,0x0c,0x52,0x50,0x47,0x3a,0x3a,0x53,0x45,0x08,0x3a,0x0a,0x40,0x6e,0x61,0x6d,0x65,0x49,0x22,0x09,0x4d,0x6f,0x76,0x65,0x06,0x3a,0x06,0x45,0x54,0x3a,0x0b,0x40,0x70,0x69,0x74,0x63,0x68,0x69,0x69,0x3a,0x0c,0x40,0x76,0x6f,0x6c,0x75,0x6d,0x65,0x69,0x55))
  TeleportPlayer(0,861,29,114,0,0)
  0()



EVENT   17
 PAGE   1
  250(bytes(0x04,0x08,0x6f,0x3a,0x0c,0x52,0x50,0x47,0x3a,0x3a,0x53,0x45,0x08,0x3a,0x0a,0x40,0x6e,0x61,0x6d,0x65,0x49,0x22,0x09,0x4d,0x6f,0x76,0x65,0x06,0x3a,0x06,0x45,0x54,0x3a,0x0b,0x40,0x70,0x69,0x74,0x63,0x68,0x69,0x69,0x3a,0x0c,0x40,0x76,0x6f,0x6c,0x75,0x6d,0x65,0x69,0x55))
  TeleportPlayer(0,861,84,193,0,0)
  0()



EVENT   18
 PAGE   1
  // condition: variable 1214 >= 4
  205(-1,bytes(0x04,0x08,0x6f,0x3a,0x13,0x52,0x50,0x47,0x3a,0x3a,0x4d,0x6f,0x76,0x65,0x52,0x6f,0x75,0x74,0x65,0x09,0x3a,0x0c,0x40,0x72,0x65,0x70,0x65,0x61,0x74,0x46,0x3a,0x0f,0x40,0x73,0x6b,0x69,0x70,0x70,0x61,0x62,0x6c,0x65,0x46,0x3a,0x0a,0x40,0x77,0x61,0x69,0x74,0x46,0x3a,0x0a,0x40,0x6c,0x69,0x73,0x74,0x5b,0x09,0x6f,0x3a,0x15,0x52,0x50,0x47,0x3a,0x3a,0x4d,0x6f,0x76,0x65,0x43,0x6f,0x6d,0x6d,0x61,0x6e,0x64,0x07,0x3a,0x0a,0x40,0x63,0x6f,0x64,0x65,0x69,0x09,0x3a,0x10,0x40,0x70,0x61,0x72,0x61,0x6d,0x65,0x74,0x65,0x72,0x73,0x5b,0x00,0x6f,0x3b,0x0a,0x07,0x3b,0x0b,0x69,0x09,0x3b,0x0c,0x5b,0x00,0x6f,0x3b,0x0a,0x07,0x3b,0x0b,0x69,0x09,0x3b,0x0c,0x5b,0x00,0x6f,0x3b,0x0a,0x07,0x3b,0x0b,0x69,0x00,0x3b,0x0c,0x5b,0x00))
  241(bytes(0x04,0x08,0x6f,0x3a,0x0d,0x52,0x50,0x47,0x3a,0x3a,0x42,0x47,0x4d,0x08,0x3a,0x0a,0x40,0x6e,0x61,0x6d,0x65,0x49,0x22,0x0a,0x6b,0x69,0x6b,0x69,0x32,0x06,0x3a,0x06,0x45,0x54,0x3a,0x0c,0x40,0x76,0x6f,0x6c,0x75,0x6d,0x65,0x69,0x69,0x3a,0x0b,0x40,0x70,0x69,0x74,0x63,0x68,0x69,0x69))
  ShowMessageFace("ruka_fc1",0,0,2,1)
  ShowMessage("\\n<Luka>")
  ShowMessage("ここが、第三の試練……？")
  ShowMessage("セックスしないと出られない部屋じゃないのか？")
  ShowMessageFace("myuska_fc1",5,0,2,2)
  ShowMessage("\\n<Myusca>")
  ShowMessage("同じネタを使い回すのも、ちょっとアレだよねぇ？")
  ShowMessage("結構笑わせてもらったしぃ……♪")
  ShowMessageFace("myuska_fc1",5,0,2,3)
  ShowMessage("\\n<Myusca>")
  ShowMessage("だからここは、手コキカラオケの部屋～♪")
  ShowMessageFace("kazuya_fc2",3,0,2,4)
  ShowMessage("\\n<Kazuya>")
  ShowMessage("て……手コキカラオケだって！？")
  ShowMessageFace("byakunen_fc3",0,0,2,5)
  ShowMessage("\\n<Hakunen>")
  ShowMessage("知っているのですか、カズヤさん！？")
  ShowMessageFace("kazuya_fc2",2,0,2,6)
  ShowMessage("\\n<Kazuya>")
  ShowMessage("僕の世界が平和だった頃に存在したゲームだ。")
  ShowMessage("歌を歌って、採点するんだが……")
  ShowMessageFace("kazuya_fc2",0,0,2,7)
  ShowMessage("\\n<Kazuya>")
  ShowMessage("歌っている間、ずっと手コキされる。")
  ShowMessage("そんな悪条件で、高い点を出さなきゃいけないんだ。")
  If(0,4,0)
   ShowMessageFace("alice_fc5",5,0,2,8)
   ShowMessage("\\n<Alice>")
   ShowMessage("カズヤの世界は……アホばかりなのか？")
   0()
  EndIf()
  If(0,5,0)
   ShowMessageFace("iriasu_fc4",2,0,2,9)
   ShowMessage("\\n<Ilias>")
   ShowMessage("カズヤの世界は……馬鹿ばかりなのですか？")
   0()
  EndIf()
  ShowMessageFace("kazuya_fc4",7,0,2,10)
  ShowMessage("\\n<Kazuya>")
  ShowMessage("……バラエティーやアダルト系のイベントだよ。")
  ShowMessage("普段から、そんな事ばかりやってるわけじゃない……")
  ShowMessageFace("myuska_fc1",5,0,2,11)
  ShowMessage("\\n<Myusca>")
  ShowMessage("カラオケマシンは、ステージ中央にあるからね。")
  ShowMessage("それじゃあ、手コキ役を紹介しま～す♪")
  ShowMessageFace("",0,0,2,12)
  ShowMessage("ステージ下の隅に置いてあった鏡――")
  ShowMessage("そこには、淫魔ターサの姿が映し出されている。")
  250(bytes(0x04,0x08,0x6f,0x3a,0x0c,0x52,0x50,0x47,0x3a,0x3a,0x53,0x45,0x08,0x3a,0x0a,0x40,0x6e,0x61,0x6d,0x65,0x49,0x22,0x0b,0x4d,0x61,0x67,0x69,0x63,0x31,0x06,0x3a,0x06,0x45,0x54,0x3a,0x0b,0x40,0x70,0x69,0x74,0x63,0x68,0x69,0x69,0x3a,0x0c,0x40,0x76,0x6f,0x6c,0x75,0x6d,0x65,0x69,0x55))
  ChangeSwitch(32,32,0)
  205(-1,bytes(0x04,0x08,0x6f,0x3a,0x13,0x52,0x50,0x47,0x3a,0x3a,0x4d,0x6f,0x76,0x65,0x52,0x6f,0x75,0x74,0x65,0x09,0x3a,0x0c,0x40,0x72,0x65,0x70,0x65,0x61,0x74,0x46,0x3a,0x0f,0x40,0x73,0x6b,0x69,0x70,0x70,0x61,0x62,0x6c,0x65,0x46,0x3a,0x0a,0x40,0x77,0x61,0x69,0x74,0x54,0x3a,0x0a,0x40,0x6c,0x69,0x73,0x74,0x5b,0x07,0x6f,0x3a,0x15,0x52,0x50,0x47,0x3a,0x3a,0x4d,0x6f,0x76,0x65,0x43,0x6f,0x6d,0x6d,0x61,0x6e,0x64,0x07,0x3a,0x0a,0x40,0x63,0x6f,0x64,0x65,0x69,0x17,0x3a,0x10,0x40,0x70,0x61,0x72,0x61,0x6d,0x65,0x74,0x65,0x72,0x73,0x5b,0x00,0x6f,0x3b,0x0a,0x07,0x3b,0x0b,0x69,0x00,0x3b,0x0c,0x5b,0x00))
  205(19,bytes(0x04,0x08,0x6f,0x3a,0x13,0x52,0x50,0x47,0x3a,0x3a,0x4d,0x6f,0x76,0x65,0x52,0x6f,0x75,0x74,0x65,0x09,0x3a,0x0c,0x40,0x72,0x65,0x70,0x65,0x61,0x74,0x46,0x3a,0x0f,0x40,0x73,0x6b,0x69,0x70,0x70,0x61,0x62,0x6c,0x65,0x46,0x3a,0x0a,0x40,0x77,0x61,0x69,0x74,0x54,0x3a,0x0a,0x40,0x6c,0x69,0x73,0x74,0x5b,0x08,0x6f,0x3a,0x15,0x52,0x50,0x47,0x3a,0x3a,0x4d,0x6f,0x76,0x65,0x43,0x6f,0x6d,0x6d,0x61,0x6e,0x64,0x07,0x3a,0x0a,0x40,0x63,0x6f,0x64,0x65,0x69,0x13,0x3a,0x10,0x40,0x70,0x61,0x72,0x61,0x6d,0x65,0x74,0x65,0x72,0x73,0x5b,0x07,0x69,0x00,0x69,0x06,0x6f,0x3b,0x0a,0x07,0x3b,0x0b,0x69,0x16,0x3b,0x0c,0x5b,0x00,0x6f,0x3b,0x0a,0x07,0x3b,0x0b,0x69,0x00,0x3b,0x0c,0x5b,0x00))
  PictureDisplay(5,"80_tarsa_st12",0,0,0,0,100,100,0,0)
  PictureMove(5,null,0,0,0,0,100,100,255,0,30,true)
  ShowMessageFace("",0,0,2,13)
  ShowMessage("そして次の瞬間、そのターサが鏡から出てきた！")
  ShowMessageFace("tarsa_fc2",1,0,2,14)
  ShowMessage("\\n<ターサ？>")
  ShowMessage("うふふっ、手コキをするのは私……♪")
  ShowMessage("みんな、ちゃんと歌えるかな～？")
  ShowMessageFace("tarsa_fc2",2,0,2,15)
  ShowMessage("\\n<Tarsa>")
  ShowMessage("私が……もう一人？")
  ShowMessageFace("myuska_fc1",5,0,2,16)
  ShowMessage("\\n<Myusca>")
  ShowMessage("それは、真実の鏡で作り出した複製。")
  ShowMessage("本物と同じ力を備えてるよ♪")
  ShowMessageFace("tarsa_fc2",2,0,2,17)
  ShowMessage("\\n<Tarsa>")
  ShowMessage("つまり……手コキも上手いってわけね。")
  ShowMessageFace("ruka_fc1",0,0,2,18)
  ShowMessage("\\n<Luka>")
  ShowMessage("……………………")
  PictureClear(5)
  ShowMessageFace("",0,0,2,19)
  ShowMessage("自分で言うくらいだ、相当なのだろう。")
  ShowMessage("その手淫を受けながら、高得点を出さねばならない――")
  If(0,4,0)
   ShowMessageFace("alice_fc5",2,0,2,20)
   ShowMessage("\\n<Alice>")
   ShowMessage("なるほど、概要は分かった。")
   ShowMessage("具体的なルールを聞こうか……")
   0()
  EndIf()
  If(0,5,0)
   ShowMessageFace("iriasu_fc4",7,0,2,21)
   ShowMessage("\\n<Ilias>")
   ShowMessage("なるほど、概要は分かりました。")
   ShowMessage("具体的なルールを聞きましょう……")
   0()
  EndIf()
  ShowMessageFace("myuska_fc1",5,0,2,22)
  ShowMessage("\\n<Myusca>")
  ShowMessage("挑めるのは、当然男だけ。")
  ShowMessage("90点以上を出すと、ゲームクリアで扉が開くよ。")
  ShowMessageFace("myuska_fc1",5,0,2,23)
  ShowMessage("\\n<Myusca>")
  ShowMessage("挑戦は、何度でも可能だよ。")
  ShowMessage("失敗した時のペナルティも、特に無し。")
  ShowMessageFace("myuska_fc1",5,0,2,24)
  ShowMessage("\\n<Myusca>")
  ShowMessage("ただしぃ……今から二時間以内に突破できない場合は……")
  ShowMessage("そっちの負け、ゲームオーバーだねぇ。")
  If(0,4,0)
   ShowMessageFace("alice_fc5",0,0,2,25)
   ShowMessage("\\n<Alice>")
   ShowMessage("分かった……時間が惜しい、始めるぞ。")
   ShowMessage("まず、誰から行く？")
   0()
  EndIf()
  If(0,5,0)
   ShowMessageFace("iriasu_fc4",2,0,2,26)
   ShowMessage("\\n<Ilias>")
   ShowMessage("分かりました……時間が惜しいので、始めましょう。")
   ShowMessage("まず、誰から行きますか？")
   0()
  EndIf()
  ShowMessageFace("lars_fc01",0,0,2,27)
  ShowMessage("\\n<Lars>")
  ShowMessage("……………………")
  If(0,4,0)
   ShowMessageFace("alice_fc5",2,0,2,28)
   ShowMessage("\\n<Alice>")
   ShowMessage("無言系の連中は、喋らんから除外だ。")
   ShowMessage("よって、挑戦可能な男は四人か。")
   0()
  EndIf()
  If(0,5,0)
   ShowMessageFace("iriasu_fc4",2,0,2,29)
   ShowMessage("\\n<Ilias>")
   ShowMessage("無言系の連中は、喋らないから除外ですね。")
   ShowMessage("よって、挑戦可能な男は四人となります。")
   0()
  EndIf()
  ShowMessageFace("byakunen_fc1",2,0,2,30)
  ShowMessage("\\n<Hakunen>")
  ShowMessage("あの、当たり前のように言ってますけど……")
  ShowMessage("そもそも、無言系って何なんです？")
  ShowMessageFace("kazuya_fc2",0,0,2,31)
  ShowMessage("\\n<Kazuya>")
  ShowMessage("そこには触れるな……")
  ShowMessage("世界の法則に関わってくるからな。")
  ShowMessageFace("lawrat_fc1",0,0,2,32)
  ShowMessage("\\n<Lauratt>")
  ShowMessage("……………………")
  ShowMessageFace("",0,0,2,33)
  ShowMessage("ロウラットは、申し訳なさそうな顔をしている――")
  If(0,4,0)
   ShowMessageFace("alice_fc5",2,0,2,34)
   ShowMessage("\\n<Alice>")
   ShowMessage("そういうわけで、挑戦可能なのは四人。")
   ShowMessage("ルカ、カズヤ、白念、レストだ。")
   0()
  EndIf()
  If(0,5,0)
   ShowMessageFace("iriasu_fc4",2,0,2,35)
   ShowMessage("\\n<Ilias>")
   ShowMessage("そういうわけで、挑戦可能なのは四人。")
   ShowMessage("ルカ、カズヤ、白念、レストですね……")
   0()
  EndIf()
  ShowMessageFace("rest_fc1",0,0,2,36)
  ShowMessage("\\n<Lest>")
  ShowMessage("その……僕はまったく自信がないんだけど。")
  ShowMessage("色仕掛けの類は苦手なのに、手でなんて……")
  ShowMessageFace("magatu_fc1",0,0,2,37)
  ShowMessage("\\n<Magatsu>")
  ShowMessage("白念……ここはお前が行け。")
  ShowMessageFace("byakunen_fc1",2,0,2,38)
  ShowMessage("\\n<Hakunen>")
  ShowMessage("お師匠様……でも……")
  ShowMessageFace("magatu_fc1",0,0,2,39)
  ShowMessage("\\n<Magatsu>")
  ShowMessage("お前は、忍耐力を鍛えてきたはずではないか。")
  ShowMessage("これまでの修行の成果、見せるがいい！")
  ShowMessageFace("byakunen_fc2",5,0,2,40)
  ShowMessage("\\n<Hakunen>")
  ShowMessage("ま、またそういう風にけしかけて、もう……")
  ShowMessage("分かりましたよ、やりますよ……！")
  242(1)
  221()
  ChangeSwitch(31,31,0)
  ChangeSwitch(32,32,1)
  ChangeSwitch(33,33,0)
  ChangeSwitch(34,34,0)
  TeleportPlayer(0,860,13,11,0,2)
  211(0)
  Wait(60)
  222()
  241(bytes(0x04,0x08,0x6f,0x3a,0x0d,0x52,0x50,0x47,0x3a,0x3a,0x42,0x47,0x4d,0x08,0x3a,0x0a,0x40,0x6e,0x61,0x6d,0x65,0x49,0x22,0x16,0x64,0x75,0x6e,0x67,0x65,0x6f,0x6e,0x5f,0x74,0x61,0x72,0x75,0x74,0x61,0x72,0x6f,0x31,0x06,0x3a,0x06,0x45,0x54,0x3a,0x0c,0x40,0x76,0x6f,0x6c,0x75,0x6d,0x65,0x69,0x69,0x3a,0x0b,0x40,0x70,0x69,0x74,0x63,0x68,0x69,0x69))
  ShowMessageFace("byakunen_fc1",0,0,2,41)
  ShowMessage("\\n<Hakunen>")
  ShowMessage("いちおう、衝立があるんですね。")
  ShowMessage("恥ずかしさが薄れて良かったです。")
  ShowMessageFace("tarsa_fc2",0,0,2,42)
  ShowMessage("\\n<クローンターサ>")
  ShowMessage("カラオケマシンの操作は、私に任せて。")
  ShowMessage("古今東西、色んな歌が入ってるよ♪")
  ShowMessageFace("byakunen_fc1",1,0,2,43)
  ShowMessage("\\n<Hakunen>")
  ShowMessage("あっ……まほろば民謡があるんですね。")
  ShowMessage("では、これで……")
  ShowMessageFace("tarsa_fc2",1,0,2,44)
  ShowMessage("\\n<クローンターサ>")
  ShowMessage("それじゃあ、白念君がうたいま～す♪")
  241(bytes(0x04,0x08,0x6f,0x3a,0x0d,0x52,0x50,0x47,0x3a,0x3a,0x42,0x47,0x4d,0x08,0x3a,0x0a,0x40,0x6e,0x61,0x6d,0x65,0x49,0x22,0x09,0x65,0x72,0x6f,0x32,0x06,0x3a,0x06,0x45,0x54,0x3a,0x0c,0x40,0x76,0x6f,0x6c,0x75,0x6d,0x65,0x69,0x69,0x3a,0x0b,0x40,0x70,0x69,0x74,0x63,0x68,0x69,0x69))
  ShowMessageFace("",0,0,2,45)
  ShowMessage("手コキカラオケが始まった！")
  ShowMessage("ターサは白念に身を寄せ、ペニスに手を伸ばす――")
  ShowMessageFace("byakunen_fc1",5,0,2,46)
  ShowMessage("\\n<Hakunen>")
  ShowMessage("はぅっ……")
  ShowMessageFace("tarsa_fc2",1,0,2,47)
  ShowMessage("\\n<クローンターサ>")
  ShowMessage("あはっ、もう声を出しちゃったんだ♪")
  ShowMessage("ほら、曲が始まっちゃうよ～♡")
  ShowMessageFace("byakunen_fc1",5,0,2,48)
  ShowMessage("\\n<Hakunen>")
  ShowMessage("く、くさ萌ゆる……")
  ShowMessage("まほろばの……はぅぅっ！")
  ShowMessageFace("tarsa_fc2",1,0,2,49)
  ShowMessage("\\n<クローンターサ>")
  ShowMessage("あれぇ？　ちゃんと歌えてないよぉ？")
  ShowMessageFace("byakunen_fc1",4,0,2,50)
  ShowMessage("\\n<Hakunen>")
  ShowMessage("う、や……やま……の……")
  ShowMessage("夕焼け……あっ、だめ！　それダメです……！")
  ShowMessageFace("tarsa_fc2",1,0,2,51)
  ShowMessage("\\n<クローンターサ>")
  ShowMessage("あははっ、ここ敏感なんだ～♡")
  ShowMessage("じゃあ、こういうのは……？")
  ShowMessageFace("byakunen_fc1",4,0,2,52)
  ShowMessage("\\n<Hakunen>")
  ShowMessage("ひゃぁっ……！")
  ShowMessage("き、きつねの……はぅぅ、あ、あぁっ……")
  RunCommonEvent(104)
  RunCommonEvent(105)
  ShowMessageFace("tarsa_fc2",1,0,2,53)
  ShowMessage("\\n<クローンターサ>")
  ShowMessage("あはっ、イっちゃった……♡")
  ShowMessage("ねぇ、歌わなくていいのぉ？")
  ShowMessageFace("byakunen_fc3",4,0,2,54)
  ShowMessage("\\n<Hakunen>")
  ShowMessage("うぐ……")
  ShowMessageFace("rejeo_fc1",1,0,2,55)
  ShowMessage("\\n<Rigeo>")
  ShowMessage("（弟子があんなひどい目に……")
  ShowMessage("　マガツ、傷付いてないといいけど……）")
  ShowMessageFace("magatu_fc1",5,0,2,56)
  ShowMessage("\\n<Magatsu>")
  ShowMessage("（これは……たまらんのう）")
  242(1)
  221()
  ShowMessageFace("",0,0,2,57)
  ShowMessage("そして、白念の歌が終了した。")
  ShowMessage("採点結果は――")
  222()
  241(bytes(0x04,0x08,0x6f,0x3a,0x0d,0x52,0x50,0x47,0x3a,0x3a,0x42,0x47,0x4d,0x08,0x3a,0x0a,0x40,0x6e,0x61,0x6d,0x65,0x49,0x22,0x10,0x73,0x63,0x65,0x6e,0x65,0x5f,0x63,0x6f,0x6d,0x69,0x32,0x06,0x3a,0x06,0x45,0x54,0x3a,0x0c,0x40,0x76,0x6f,0x6c,0x75,0x6d,0x65,0x69,0x69,0x3a,0x0b,0x40,0x70,0x69,0x74,0x63,0x68,0x69,0x69))
  ShowMessageFace("tarsa_fc2",1,0,2,58)
  ShowMessage("\\n<クローンターサ>")
  ShowMessage("点数はぁ……44点でした～♪")
  ShowMessageFace("byakunen_fc3",2,0,2,59)
  ShowMessage("\\n<Hakunen>")
  ShowMessage("す、すみません……")
  ShowMessageFace("",0,0,2,60)
  ShowMessage("白念の出した点数は、クリアの90点には程遠い。")
  ShowMessage("一度目の挑戦、あえなく失敗だ。")
  ShowMessageFace("",0,0,2,61)
  ShowMessage("だが、失敗そのものにペナルティはない。")
  ShowMessage("制限時間内ならば、何度でも挑戦できるのだ――")
  ShowMessageFace("kazuya_fc1",0,0,2,62)
  ShowMessage("\\n<Kazuya>")
  ShowMessage("仕方ない……僕が行こう。")
  ShowMessage("こういうのは、ダンス対決で慣れてるからな。")
  ShowMessageFace("byakunen_fc1",1,0,2,63)
  ShowMessage("\\n<Hakunen>")
  ShowMessage("さすが、カズヤさん！")
  ShowMessage("がんばって下さい！")
  ShowMessageFace("lanpass_fc2",0,0,2,64)
  ShowMessage("\\n<Lampas>")
  ShowMessage("がんばれ～♪")
  ShowMessageFace("youkosan_fc1",0,0,2,65)
  ShowMessage("\\n<Dream Fox>")
  ShowMessage("がんばれ～♪")
  221()
  ChangeSwitch(34,34,1)
  ChangeSwitch(35,35,0)
  222()
  ShowMessageFace("tarsa_fc2",1,0,2,66)
  ShowMessage("\\n<クローンターサ>")
  ShowMessage("じゃあカズヤ君、曲を選んでね♪")
  ShowMessageFace("kazuya_fc2",0,0,2,67)
  ShowMessage("\\n<Kazuya>")
  ShowMessage("僕が知ってる曲が多い……")
  ShowMessage("ミュスカの世界と僕の世界は似てるのか？")
  ShowMessageFace("kazuya_fc2",0,0,2,68)
  ShowMessage("\\n<Kazuya>")
  ShowMessage("よし……得意曲の「HARD DRIVE」で行こう。")
  ShowMessageFace("tarsa_fc2",1,0,2,69)
  ShowMessage("\\n<クローンターサ>")
  ShowMessage("それじゃあ、カズヤ君がうたいま～す♪")
  241(bytes(0x04,0x08,0x6f,0x3a,0x0d,0x52,0x50,0x47,0x3a,0x3a,0x42,0x47,0x4d,0x08,0x3a,0x0a,0x40,0x6e,0x61,0x6d,0x65,0x49,0x22,0x09,0x65,0x72,0x6f,0x32,0x06,0x3a,0x06,0x45,0x54,0x3a,0x0c,0x40,0x76,0x6f,0x6c,0x75,0x6d,0x65,0x69,0x69,0x3a,0x0b,0x40,0x70,0x69,0x74,0x63,0x68,0x69,0x69))
  ShowMessageFace("",0,0,2,70)
  ShowMessage("手コキカラオケが始まった！")
  ShowMessage("ターサはカズヤに身を寄せ、ペニスに手を伸ばす――")
  ShowMessageFace("kazuya_fc3",3,0,2,71)
  ShowMessage("\\n<Kazuya>")
  ShowMessage("風にドラ……ハゥゥッ！")
  ShowMessageFace("tarsa_fc2",1,0,2,72)
  ShowMessage("\\n<クローンターサ>")
  ShowMessage("あはっ♪　カズヤくん、びんか～ん♡")
  ShowMessageFace("kazuya_fc3",1,0,2,73)
  ShowMessage("\\n<Kazuya>")
  ShowMessage("ハぁぁぁドに……ッ……！　マッはァァ！")
  ShowMessage("ちょ、あんた上手すぎ……！")
  ShowMessageFace("tarsa_fc2",1,0,2,74)
  ShowMessage("\\n<クローンターサ>")
  ShowMessage("あははっ、弱点いっぱい見つけちゃった♡")
  ShowMessageFace("kazuya_fc3",1,0,2,75)
  ShowMessage("\\n<Kazuya>")
  ShowMessage("そ、そこダメ……感じ、かぜぇ――")
  ShowMessageFace("mukuro_fc1",3,0,2,76)
  ShowMessage("\\n<Mukuro>")
  ShowMessage("……これは………")
  ShowMessage("『乳首』に気付かれたな……")
  ShowMessageFace("kazuya_fc3",4,0,2,77)
  ShowMessage("\\n<Kazuya>")
  ShowMessage("一発……ド、ドラァァァァイブ！！")
  RunCommonEvent(104)
  RunCommonEvent(105)
  242(1)
  221()
  ShowMessageFace("",0,0,2,78)
  ShowMessage("そして、曲が終わり――")
  222()
  241(bytes(0x04,0x08,0x6f,0x3a,0x0d,0x52,0x50,0x47,0x3a,0x3a,0x42,0x47,0x4d,0x08,0x3a,0x0a,0x40,0x6e,0x61,0x6d,0x65,0x49,0x22,0x10,0x73,0x63,0x65,0x6e,0x65,0x5f,0x63,0x6f,0x6d,0x69,0x32,0x06,0x3a,0x06,0x45,0x54,0x3a,0x0c,0x40,0x76,0x6f,0x6c,0x75,0x6d,0x65,0x69,0x69,0x3a,0x0b,0x40,0x70,0x69,0x74,0x63,0x68,0x69,0x69))
  ShowMessageFace("tarsa_fc2",1,0,2,79)
  ShowMessage("\\n<クローンターサ>")
  ShowMessage("点数はぁ……36点でした～♪")
  If(0,4,0)
   ShowMessageFace("alice_fc6",1,0,2,80)
   ShowMessage("\\n<Alice>")
   ShowMessage("白念より低いではないか！")
   0()
  EndIf()
  If(0,5,0)
   ShowMessageFace("iriasu_fc5",0,0,2,81)
   ShowMessage("\\n<Ilias>")
   ShowMessage("白念に負けているではないですか！")
   0()
  EndIf()
  ShowMessageFace("kazuya_fc4",1,0,2,82)
  ShowMessage("\\n<Kazuya>")
  ShowMessage("め、面目ない……")
  ShowMessageFace("rest_fc1",0,0,2,83)
  ShowMessage("\\n<Lest>")
  ShowMessage("つ、次は僕か……")
  ShowMessage("自信はないから、期待しないでほしい……")
  221()
  ChangeSwitch(35,35,1)
  ChangeSwitch(36,36,0)
  ShowMessageFace("",0,0,2,84)
  ShowMessage("そしてレストが、手コキカラオケに挑んだが――")
  222()
  ShowMessageFace("rest_fc1",0,0,2,85)
  ShowMessage("\\n<Lest>")
  ShowMessage("故郷に、に、にし……き……あぅぅぅっ！")
  RunCommonEvent(104)
  RunCommonEvent(105)
  ShowMessageFace("tarsa_fc2",1,0,2,86)
  ShowMessage("\\n<クローンターサ>")
  ShowMessage("点数はぁ……38点でした～♪")
  If(0,4,0)
   ShowMessageFace("alice_fc5",5,0,2,87)
   ShowMessage("\\n<Alice>")
   ShowMessage("やはり、ダメか……")
   0()
  EndIf()
  If(0,5,0)
   ShowMessageFace("iriasu_fc4",2,0,2,88)
   ShowMessage("\\n<Ilias>")
   ShowMessage("やはり、ダメですか……")
   0()
  EndIf()
  ShowMessageFace("kazuya_fc4",1,0,2,89)
  ShowMessage("\\n<Kazuya>")
  ShowMessage("（それでも、僕より2点高い……）")
  If(0,4,0)
   ShowMessageFace("alice_fc5",0,0,2,90)
   ShowMessage("\\n<Alice>")
   ShowMessage("四番手は、貴様だが……やれるか、ルカ？")
   0()
  EndIf()
  If(0,5,0)
   ShowMessageFace("iriasu_fc4",2,0,2,91)
   ShowMessage("\\n<Ilias>")
   ShowMessage("四番手は、貴方ですが……")
   ShowMessage("自信はありますか、ルカ？")
   0()
  EndIf()
  ShowMessageFace("ruka_fc1",0,0,2,92)
  ShowMessage("\\n<Luka>")
  ShowMessage("やれるだけ、やってみるさ――")
  ShowMessageFace("",0,0,2,93)
  ShowMessage("自信があるわけじゃない。")
  ShowMessage("だか他の三人が駄目なら、僕がやるより他にない――")
  221()
  ChangeSwitch(36,36,1)
  ChangeSwitch(37,37,0)
  RunCommonEvent(104)
  RunCommonEvent(105)
  222()
  ShowMessageFace("tarsa_fc2",1,0,2,94)
  ShowMessage("\\n<クローンターサ>")
  ShowMessage("ルカ君の点数はぁ……29点でした～♪")
  If(0,4,0)
   ShowMessageFace("alice_fc6",1,0,2,95)
   ShowMessage("\\n<Alice>")
   ShowMessage("最低点ではないか、ドアホめ！！")
   0()
  EndIf()
  If(0,5,0)
   ShowMessageFace("iriasu_fc5",0,0,2,96)
   ShowMessage("\\n<Ilias>")
   ShowMessage("最低点ではないですか、この偽勇者！！")
   0()
  EndIf()
  ShowMessageFace("ruka_fc1",0,0,2,97)
  ShowMessage("\\n<Luka>")
  ShowMessage("ご、ごめん……")
  ShowMessageFace("byakunen_fc2",0,0,2,98)
  ShowMessage("\\n<Hakunen>")
  ShowMessage("（何気に、私が最高得点だなんて……）")
  ShowMessageFace("rejeo_fc1",1,0,2,99)
  ShowMessage("\\n<Rigeo>")
  ShowMessage("これ、どうするの……？")
  ShowMessage("あと二時間じゃ、クリアできる気しないんだけど……")
  ShowMessageFace("byakunen_fc3",2,0,2,100)
  ShowMessage("\\n<Hakunen>")
  ShowMessage("申し訳ありません……")
  ShowMessageFace("kazuya_fc4",7,0,2,101)
  ShowMessage("\\n<Kazuya>")
  ShowMessage("ごめんなさい。")
  ShowMessageFace("rest_fc1",0,0,2,102)
  ShowMessage("\\n<Lest>")
  ShowMessage("面目ありません……")
  ShowMessageFace("ruka_fc1",0,0,2,103)
  ShowMessage("\\n<Luka>")
  ShowMessage("すみません……")
  ShowMessageFace("tarsa_fc2",2,0,2,104)
  ShowMessage("\\n<Tarsa>")
  ShowMessage("手コキ上手くて、ごめんね……")
  ShowMessageFace("rejeo_fc1",0,0,2,105)
  ShowMessage("\\n<Rigeo>")
  ShowMessage("あっ、ごめん責めてるわけじゃないの……")
  ShowMessage("でもこれ、かなりまずいんじゃ……")
  241(bytes(0x04,0x08,0x6f,0x3a,0x0d,0x52,0x50,0x47,0x3a,0x3a,0x42,0x47,0x4d,0x08,0x3a,0x0a,0x40,0x6e,0x61,0x6d,0x65,0x49,0x22,0x0a,0x6b,0x69,0x6b,0x69,0x32,0x06,0x3a,0x06,0x45,0x54,0x3a,0x0c,0x40,0x76,0x6f,0x6c,0x75,0x6d,0x65,0x69,0x69,0x3a,0x0b,0x40,0x70,0x69,0x74,0x63,0x68,0x69,0x69))
  ShowMessageFace("daimeikai_fc1",1,0,2,106)
  ShowMessage("\\n<Daimyokai>")
  ShowMessage("仕方ねぇ……")
  ShowMessage("少々、強引な手を使うか。")
  ShowMessageFace("byakunen_fc1",2,0,2,107)
  ShowMessage("\\n<Hakunen>")
  ShowMessage("大明海様、良案でも？")
  ShowMessageFace("daimeikai_fc1",0,0,2,108)
  ShowMessage("\\n<Daimyokai>")
  ShowMessage("お前ら、ちゃんとルールを聞いてたか？")
  If(0,4,0)
   ShowMessageFace("alice_fc5",2,0,2,109)
   ShowMessage("\\n<Alice>")
   ShowMessage("90点以上でクリア、制限時間は2時間……")
   ShowMessage("……それくらいだろう？")
   0()
  EndIf()
  If(0,5,0)
   ShowMessageFace("iriasu_fc4",2,0,2,110)
   ShowMessage("\\n<Ilias>")
   ShowMessage("90点以上でクリア、制限時間は2時間……")
   ShowMessage("……それくらいでしょう？")
   0()
  EndIf()
  ShowMessageFace("daimeikai_fc1",0,0,2,111)
  ShowMessage("\\n<Daimyokai>")
  ShowMessage("そう、それくらいだ。")
  ShowMessage("手コキ役を倒しちゃいけない、っていうルールはねぇ。")
  If(0,4,0)
   ShowMessageFace("alice_fc5",6,0,2,112)
   ShowMessage("\\n<Alice>")
   ShowMessage("……なるほど！")
   ShowMessage("確かに、ルールで禁じられてはおらん！")
   0()
  EndIf()
  If(0,5,0)
   ShowMessageFace("iriasu_fc4",5,0,2,113)
   ShowMessage("\\n<Ilias>")
   ShowMessage("……なるほど！")
   ShowMessage("確かに、ルールで禁じられてはいません！")
   0()
  EndIf()
  205(20,bytes(0x04,0x08,0x6f,0x3a,0x13,0x52,0x50,0x47,0x3a,0x3a,0x4d,0x6f,0x76,0x65,0x52,0x6f,0x75,0x74,0x65,0x09,0x3a,0x0c,0x40,0x72,0x65,0x70,0x65,0x61,0x74,0x46,0x3a,0x0f,0x40,0x73,0x6b,0x69,0x70,0x70,0x61,0x62,0x6c,0x65,0x46,0x3a,0x0a,0x40,0x77,0x61,0x69,0x74,0x54,0x3a,0x0a,0x40,0x6c,0x69,0x73,0x74,0x5b,0x07,0x6f,0x3a,0x15,0x52,0x50,0x47,0x3a,0x3a,0x4d,0x6f,0x76,0x65,0x43,0x6f,0x6d,0x6d,0x61,0x6e,0x64,0x07,0x3a,0x0a,0x40,0x63,0x6f,0x64,0x65,0x69,0x15,0x3a,0x10,0x40,0x70,0x61,0x72,0x61,0x6d,0x65,0x74,0x65,0x72,0x73,0x5b,0x00,0x6f,0x3b,0x0a,0x07,0x3b,0x0b,0x69,0x00,0x3b,0x0c,0x5b,0x00))
  205(21,bytes(0x04,0x08,0x6f,0x3a,0x13,0x52,0x50,0x47,0x3a,0x3a,0x4d,0x6f,0x76,0x65,0x52,0x6f,0x75,0x74,0x65,0x09,0x3a,0x0c,0x40,0x72,0x65,0x70,0x65,0x61,0x74,0x46,0x3a,0x0f,0x40,0x73,0x6b,0x69,0x70,0x70,0x61,0x62,0x6c,0x65,0x46,0x3a,0x0a,0x40,0x77,0x61,0x69,0x74,0x54,0x3a,0x0a,0x40,0x6c,0x69,0x73,0x74,0x5b,0x07,0x6f,0x3a,0x15,0x52,0x50,0x47,0x3a,0x3a,0x4d,0x6f,0x76,0x65,0x43,0x6f,0x6d,0x6d,0x61,0x6e,0x64,0x07,0x3a,0x0a,0x40,0x63,0x6f,0x64,0x65,0x69,0x16,0x3a,0x10,0x40,0x70,0x61,0x72,0x61,0x6d,0x65,0x74,0x65,0x72,0x73,0x5b,0x00,0x6f,0x3b,0x0a,0x07,0x3b,0x0b,0x69,0x00,0x3b,0x0c,0x5b,0x00))
  PictureDisplay(5,"80_tarsa_st13",0,0,0,0,100,100,0,0)
  PictureMove(5,null,0,0,0,0,100,100,255,0,30,true)
  ShowMessageFace("tarsa_fc2",2,0,2,114)
  ShowMessage("\\n<クローンターサ>")
  ShowMessage("えっ……ちょっと、私～！？")
  ShowMessageFace("rovissa_fc1",0,0,2,115)
  ShowMessage("\\n<Rovissa>")
  ShowMessage("ルールで禁じるまでもなく反則だと思うけど……")
  ShowMessage("まあいいや、やっちゃおっか！")
  ShowMessageFace("ruka_fc1",0,0,2,116)
  ShowMessage("\\n<Luka>")
  ShowMessage("無茶苦茶だけど……")
  ShowMessage("クリアのためには、やるしかない！")
  ShowMessageFace("",0,0,2,117)
  ShowMessage("覚悟を決めた僕達は、ターサの鏡像に襲いかかった！")
  SetBattleBGM(bytes(0x04,0x08,0x6f,0x3a,0x0d,0x52,0x50,0x47,0x3a,0x3a,0x42,0x47,0x4d,0x08,0x3a,0x0a,0x40,0x6e,0x61,0x6d,0x65,0x49,0x22,0x0a,0x62,0x6f,0x73,0x73,0x31,0x06,0x3a,0x06,0x45,0x54,0x3a,0x0c,0x40,0x76,0x6f,0x6c,0x75,0x6d,0x65,0x69,0x69,0x3a,0x0b,0x40,0x70,0x69,0x74,0x63,0x68,0x69,0x69))
  Battle(0,1424,false,false)
  SetBattleBGM(bytes(0x04,0x08,0x6f,0x3a,0x0d,0x52,0x50,0x47,0x3a,0x3a,0x42,0x47,0x4d,0x08,0x3a,0x0a,0x40,0x6e,0x61,0x6d,0x65,0x49,0x22,0x0b,0x62,0x61,0x74,0x74,0x6c,0x65,0x06,0x3a,0x06,0x45,0x54,0x3a,0x0c,0x40,0x76,0x6f,0x6c,0x75,0x6d,0x65,0x69,0x69,0x3a,0x0b,0x40,0x70,0x69,0x74,0x63,0x68,0x69,0x69))
  ChangeSwitch(33,33,1)
  241(bytes(0x04,0x08,0x6f,0x3a,0x0d,0x52,0x50,0x47,0x3a,0x3a,0x42,0x47,0x4d,0x08,0x3a,0x0a,0x40,0x6e,0x61,0x6d,0x65,0x49,0x22,0x10,0x73,0x63,0x65,0x6e,0x65,0x5f,0x63,0x6f,0x6d,0x69,0x32,0x06,0x3a,0x06,0x45,0x54,0x3a,0x0c,0x40,0x76,0x6f,0x6c,0x75,0x6d,0x65,0x69,0x69,0x3a,0x0b,0x40,0x70,0x69,0x74,0x63,0x68,0x69,0x69))
  ShowMessageFace("tarsa_fc2",2,0,2,118)
  ShowMessage("\\n<クローンターサ>")
  ShowMessage("ひど～い！！")
  PictureClear(5)
  Wait(30)
  ShowMessageFace("",0,0,2,119)
  ShowMessage("クローンターサは、鏡の中に消えていった――")
  ShowMessageFace("byakunen_fc1",2,0,2,120)
  ShowMessage("\\n<Hakunen>")
  ShowMessage("これ……本当にいいんですか？")
  ShowMessageFace("daimeikai_fc1",0,0,2,121)
  ShowMessage("\\n<Daimyokai>")
  ShowMessage("何度も言わせるな。")
  ShowMessage("ルールで禁じられちゃいない。")
  205(21,bytes(0x04,0x08,0x6f,0x3a,0x13,0x52,0x50,0x47,0x3a,0x3a,0x4d,0x6f,0x76,0x65,0x52,0x6f,0x75,0x74,0x65,0x09,0x3a,0x0c,0x40,0x72,0x65,0x70,0x65,0x61,0x74,0x46,0x3a,0x0f,0x40,0x73,0x6b,0x69,0x70,0x70,0x61,0x62,0x6c,0x65,0x46,0x3a,0x0a,0x40,0x77,0x61,0x69,0x74,0x54,0x3a,0x0a,0x40,0x6c,0x69,0x73,0x74,0x5b,0x07,0x6f,0x3a,0x15,0x52,0x50,0x47,0x3a,0x3a,0x4d,0x6f,0x76,0x65,0x43,0x6f,0x6d,0x6d,0x61,0x6e,0x64,0x07,0x3a,0x0a,0x40,0x63,0x6f,0x64,0x65,0x69,0x15,0x3a,0x10,0x40,0x70,0x61,0x72,0x61,0x6d,0x65,0x74,0x65,0x72,0x73,0x5b,0x00,0x6f,0x3b,0x0a,0x07,0x3b,0x0b,0x69,0x00,0x3b,0x0c,0x5b,0x00))
  Wait(30)
  ShowMessageFace("myuska_fc1",7,0,2,122)
  ShowMessage("\\n<Myusca>")
  ShowMessage("いや、ルール以前でしょ…？")
  ShowMessage("信じらんない、勇者じゃなかったのぉ？")
  ShowMessageFace("myuska_fc1",5,0,2,123)
  ShowMessage("\\n<Myusca>")
  ShowMessage("それでよく、正義の味方みたいなこと言えたよねぇ。")
  ShowMessage("あははっ……キミ達、あたしらよりタチ悪いんじゃない？")
  If(0,4,0)
   ShowMessageFace("alice_fc5",3,0,2,124)
   ShowMessage("\\n<Alice>")
   ShowMessage("くっ、ボロクソに言いおって……")
   0()
  EndIf()
  If(0,5,0)
   ShowMessageFace("iriasu_fc4",2,0,2,125)
   ShowMessage("\\n<Ilias>")
   ShowMessage("むむむ、言いたい放題ですね……")
   0()
  EndIf()
  ShowMessageFace("rejeo_fc1",0,0,2,126)
  ShowMessage("\\n<Rigeo>")
  ShowMessage("正直、言われても仕方ないと思うけど……")
  ShowMessageFace("myuska_fc1",5,0,2,127)
  ShowMessage("\\n<Myusca>")
  ShowMessage("まぁ、今回はもうやっちゃったから仕方ないけどぉ……")
  ShowMessage("次から、ゲーム中は暴力禁止だからね？")
  ShowMessageFace("",0,0,2,128)
  ShowMessage("そう釘を刺し、ミュスカからの通信は途絶えた。")
  If(0,4,0)
   ShowMessageFace("alice_fc5",1,0,2,129)
   ShowMessage("\\n<Alice>")
   ShowMessage("……ともかく、手コキ係は消えた。")
   ShowMessage("これでクリアも楽勝だな。")
   0()
  EndIf()
  If(0,5,0)
   ShowMessageFace("iriasu_fc4",0,0,2,130)
   ShowMessage("\\n<Ilias>")
   ShowMessage("……ともかく、手コキ係は消えました。")
   ShowMessage("これでクリアも楽勝ですね。")
   0()
  EndIf()
  ShowMessageFace("kazuya_fc1",0,0,2,131)
  ShowMessage("\\n<Kazuya>")
  ShowMessage("反則中の反則だけど、仕方ないか……")
  ShowMessage("それじゃあ曲は、もう一度「HARD DRIVE」で。")
  221()
  ChangeSwitch(37,37,1)
  ChangeSwitch(38,38,0)
  222()
  ShowMessageFace("kazuya_fc1",0,0,2,132)
  ShowMessage("\\n<Kazuya>")
  ShowMessage("風にドラァァイブ～♪")
  ShowMessage("ハードにマァァッハ～♪")
  ShowMessageFace("",0,0,2,133)
  ShowMessage("カズヤは歌い終えた――")
  ShowMessageFace("rejeo_fc1",0,0,2,134)
  ShowMessage("\\n<Rigeo>")
  ShowMessage("得点は……76点だけど。")
  If(0,4,0)
   ShowMessageFace("alice_fc6",1,0,2,135)
   ShowMessage("\\n<Alice>")
   ShowMessage("手コキカラオケ、手コキ無しでも駄目ではないか！")
   0()
  EndIf()
  If(0,5,0)
   ShowMessageFace("iriasu_fc5",0,0,2,136)
   ShowMessage("\\n<Ilias>")
   ShowMessage("手コキカラオケ、手コキ無しでも駄目ではないですか！")
   0()
  EndIf()
  ShowMessageFace("kazuya_fc2",3,0,2,137)
  ShowMessage("\\n<Kazuya>")
  ShowMessage("手コキの理不尽さに誤魔化されてたけど……")
  ShowMessage("そもそも、90点クリアってのがハードル高いんだって！")
  ShowMessageFace("magatu_fc1",0,0,2,138)
  ShowMessage("\\n<Magatsu>")
  ShowMessage("もはや、男にこだわる事はないのではないか？")
  ShowMessage("もう手コキ係もいないしな……")
  ShowMessageFace("sonia_fc1",3,0,2,139)
  ShowMessage("\\n<Sonya>")
  ShowMessage("それじゃあ、サキちゃん呼んでこようよ！")
  ShowMessageFace("ruka_fc1",0,0,2,140)
  ShowMessage("\\n<Luka>")
  ShowMessage("もう、何でもありだな……")
  242(1)
  221()
  ChangeSwitch(38,38,1)
  ChangeSwitch(39,39,0)
  222()
  241(bytes(0x04,0x08,0x6f,0x3a,0x0d,0x52,0x50,0x47,0x3a,0x3a,0x42,0x47,0x4d,0x08,0x3a,0x0a,0x40,0x6e,0x61,0x6d,0x65,0x49,0x22,0x09,0x73,0x61,0x6b,0x69,0x06,0x3a,0x06,0x45,0x54,0x3a,0x0c,0x40,0x76,0x6f,0x6c,0x75,0x6d,0x65,0x69,0x69,0x3a,0x0b,0x40,0x70,0x69,0x74,0x63,0x68,0x69,0x69))
  ShowMessageFace("saki_fc1",3,0,2,141)
  ShowMessage("\\n<Saki>")
  ShowMessage("抱きしめてあげる♪　指を絡めて心のスミまで♪")
  ShowMessage("抱きしめてあげる♪　唇重ねて問答無用よ♪")
  ShowMessageFace("kazuya_fc2",3,0,2,142)
  ShowMessage("\\n<Kazuya>")
  ShowMessage("うぉぉ、すごい！　サキちゃーん！")
  ShowMessageFace("saki_fc1",3,0,2,143)
  ShowMessage("\\n<Saki>")
  ShowMessage("連れて行ってあげる♪　空の彼方♪")
  ShowMessage("連れて行ってあげる♪　夢の深淵♪")
  ShowMessageFace("byakunen_fc2",0,0,2,144)
  ShowMessage("\\n<Hakunen>")
  ShowMessage("こ、これが本職……！")
  242(1)
  221()
  ChangeSwitch(39,39,1)
  ShowMessageFace("",0,0,2,145)
  ShowMessage("サキは歌い終わった――")
  222()
  241(bytes(0x04,0x08,0x6f,0x3a,0x0d,0x52,0x50,0x47,0x3a,0x3a,0x42,0x47,0x4d,0x08,0x3a,0x0a,0x40,0x6e,0x61,0x6d,0x65,0x49,0x22,0x14,0x73,0x63,0x65,0x6e,0x65,0x5f,0x65,0x70,0x69,0x6c,0x6f,0x67,0x75,0x65,0x32,0x06,0x3a,0x06,0x45,0x54,0x3a,0x0c,0x40,0x76,0x6f,0x6c,0x75,0x6d,0x65,0x69,0x69,0x3a,0x0b,0x40,0x70,0x69,0x74,0x63,0x68,0x69,0x69))
  ShowMessageFace("rovissa_fc1",0,0,2,146)
  ShowMessage("\\n<Rovissa>")
  ShowMessage("点数は――99点！")
  If(0,4,0)
   ShowMessageFace("alice_fc5",1,0,2,147)
   ShowMessage("\\n<Alice>")
   ShowMessage("これで、やっとクリアだな！")
   0()
  EndIf()
  If(0,5,0)
   ShowMessageFace("iriasu_fc4",1,0,2,148)
   ShowMessage("\\n<Ilias>")
   ShowMessage("これで、やっとクリアですね！")
   0()
  EndIf()
  249(bytes(0x04,0x08,0x6f,0x3a,0x0c,0x52,0x50,0x47,0x3a,0x3a,0x4d,0x45,0x08,0x3a,0x0a,0x40,0x6e,0x61,0x6d,0x65,0x49,0x22,0x11,0x6d,0x6f,0x6e,0x5f,0x66,0x61,0x6e,0x66,0x61,0x6c,0x65,0x32,0x06,0x3a,0x06,0x45,0x54,0x3a,0x0b,0x40,0x70,0x69,0x74,0x63,0x68,0x69,0x69,0x3a,0x0c,0x40,0x76,0x6f,0x6c,0x75,0x6d,0x65,0x69,0x69))
  ShowMessageFace("",0,0,2,149)
  ShowMessage("ようやく、第三の間――")
  ShowMessage("手コキカラオケをクリアした！")
  ShowMessageFace("kazuya_fc2",2,0,2,150)
  ShowMessage("\\n<Kazuya>")
  ShowMessage("まったく、散々だったな……")
  ShowMessageFace("tarsa_fc2",2,0,2,151)
  ShowMessage("\\n<Tarsa>")
  ShowMessage("なんだか私、ずっと肩身が狭かったんだけど……")
  If(0,4,0)
   ShowMessageFace("alice_fc5",0,0,2,152)
   ShowMessage("\\n<Alice>")
   ShowMessage("そう言えば、そこの真実の鏡とやら……")
   ShowMessage("ここで使い捨てるには勿体ない逸品だな。")
   0()
  EndIf()
  If(0,5,0)
   ShowMessageFace("iriasu_fc4",0,0,2,153)
   ShowMessage("\\n<Ilias>")
   ShowMessage("そう言えば、そこの真実の鏡……")
   ShowMessage("ここで使い捨てるには勿体ない品ですよ。")
   0()
  EndIf()
  ShowMessageFace("daimeikai_fc1",0,0,2,154)
  ShowMessage("\\n<Daimyokai>")
  ShowMessage("報酬代わりに、もらっていってやるぜ！")
  250(bytes(0x04,0x08,0x6f,0x3a,0x0c,0x52,0x50,0x47,0x3a,0x3a,0x53,0x45,0x08,0x3a,0x0a,0x40,0x6e,0x61,0x6d,0x65,0x49,0x22,0x0a,0x49,0x74,0x65,0x6d,0x31,0x06,0x3a,0x06,0x45,0x54,0x3a,0x0b,0x40,0x70,0x69,0x74,0x63,0x68,0x69,0x69,0x3a,0x0c,0x40,0x76,0x6f,0x6c,0x75,0x6d,0x65,0x69,0x55))
  ChangeInventory_Item(596,0,0,1)
  ShowMessageFace("ruka_fc1",0,0,2,155)
  ShowMessage("\\n<Luka>")
  ShowMessage("それじゃあ、先に進もう！")
  ShowMessage("残る試練は、あと四つだ！")
  If(1,1216,0,4,0)
   ShowMessageFace("",0,0,2,156)
   ShowMessage("ところで、さっき手に入れた「真実の鏡」。")
   ShowMessage("これを、フルビュアに捧げ物として贈れば――")
   0()
  EndIf()
  242(1)
  221()
  ChangeVariable(1214,1214,0,0,5)
  ChangeSwitch(31,31,1)
  314(0,0)
  TeleportPlayer(0,860,24,15,8,2)
  211(1)
  Wait(60)
  222()
  241(bytes(0x04,0x08,0x6f,0x3a,0x0d,0x52,0x50,0x47,0x3a,0x3a,0x42,0x47,0x4d,0x08,0x3a,0x0a,0x40,0x6e,0x61,0x6d,0x65,0x49,0x22,0x16,0x64,0x75,0x6e,0x67,0x65,0x6f,0x6e,0x5f,0x74,0x61,0x72,0x75,0x74,0x61,0x72,0x6f,0x31,0x06,0x3a,0x06,0x45,0x54,0x3a,0x0c,0x40,0x76,0x6f,0x6c,0x75,0x6d,0x65,0x69,0x69,0x3a,0x0b,0x40,0x70,0x69,0x74,0x63,0x68,0x69,0x69))
  EndEventProcessing()
  0()
 PAGE   2
  // condition: variable 1214 >= 5
  0()



EVENT   19
 PAGE   1
  // condition: switch 32 is ON
  0()



EVENT   20
 PAGE   1
  // condition: switch 33 is ON
  0()



EVENT   21
 PAGE   1
  // condition: switch 34 is ON
  0()
 PAGE   2
  // condition: switch 35 is ON
  0()
 PAGE   3
  // condition: switch 36 is ON
  0()
 PAGE   4
  // condition: switch 37 is ON
  0()



EVENT   22
 PAGE   1
  // condition: switch 4 is ON
  // condition: switch 31 is ON
  0()
 PAGE   2
  // condition: switch 5 is ON
  // condition: switch 31 is ON
  0()



EVENT   23
 PAGE   1
  // condition: switch 31 is ON
  0()
 PAGE   2
  // condition: switch 37 is ON
  0()



EVENT   24
 PAGE   1
  // condition: switch 31 is ON
  0()



EVENT   25
 PAGE   1
  // condition: switch 31 is ON
  0()



EVENT   26
 PAGE   1
  // condition: switch 31 is ON
  0()
 PAGE   2
  // condition: switch 35 is ON
  0()
 PAGE   3
  // condition: switch 38 is ON
  0()



EVENT   27
 PAGE   1
  // condition: switch 31 is ON
  0()
 PAGE   2
  // condition: switch 34 is ON
  0()



EVENT   28
 PAGE   1
  // condition: switch 31 is ON
  0()



EVENT   29
 PAGE   1
  // condition: switch 31 is ON
  0()



EVENT   30
 PAGE   1
  // condition: switch 31 is ON
  0()



EVENT   31
 PAGE   1
  // condition: switch 31 is ON
  0()



EVENT   32
 PAGE   1
  // condition: switch 31 is ON
  0()



EVENT   33
 PAGE   1
  // condition: switch 31 is ON
  0()
 PAGE   2
  // condition: switch 36 is ON
  0()



EVENT   34
 PAGE   1
  // condition: switch 38 is ON
  0()
 PAGE   2
  // condition: switch 39 is ON
  0()



EVENT   35
 PAGE   1
  // condition: switch 39 is ON
  0()



EVENT   36
 PAGE   1
  // condition: switch 39 is ON
  0()



EVENT   37
 PAGE   1
  0()
 PAGE   2
  // condition: switch 33 is ON
  0()



EVENT   38
 PAGE   1
  0()
 PAGE   2
  // condition: switch 32 is ON
  0()



EVENT   39
 PAGE   1
  0()
 PAGE   2
  // condition: switch 31 is ON
  0()
