
# ・エネミーに「足元」基準のアニメを表示した場合、画像縦幅が360超ならY座標は画像下端でなく360に

# ・1ターン複数回行動で、同じ<必殺技>スキルを複数回使用することがあるのを修正


# ・降参状態だとルカの自動回復を無効


# ・降参状態だと全キャラの反撃,拡張反撃を無効


# ・降参状態だと全キャラの最終反撃,死亡時スキルを無効

# ・戦闘後加入しない敵は<仲間ID:N>とするとスイッチNによって魔物図鑑で「仲間になっている/いない」を表示するが
# 　人格が違うと加入スイッチが切り替わるため「仲間になっていない」となった問題に対処
# 　スイッチを「N」ではなく「アクター[N-1000]の現在人格+1000」とすることで人格切替に対応
#==============================================================================
# ■ Window_Library_RightMain
#==============================================================================
class Window_Library_RightMain < Window_Selectable

end